%TF.GenerationSoftware,KiCad,Pcbnew,(6.0.2)*%
%TF.CreationDate,2022-04-17T23:47:23+02:00*%
%TF.ProjectId,main,6d61696e-2e6b-4696-9361-645f70636258,rev?*%
%TF.SameCoordinates,Original*%
%TF.FileFunction,Soldermask,Top*%
%TF.FilePolarity,Negative*%
%FSLAX46Y46*%
G04 Gerber Fmt 4.6, Leading zero omitted, Abs format (unit mm)*
G04 Created by KiCad (PCBNEW (6.0.2)) date 2022-04-17 23:47:23*
%MOMM*%
%LPD*%
G01*
G04 APERTURE LIST*
G04 Aperture macros list*
%AMRoundRect*
0 Rectangle with rounded corners*
0 $1 Rounding radius*
0 $2 $3 $4 $5 $6 $7 $8 $9 X,Y pos of 4 corners*
0 Add a 4 corners polygon primitive as box body*
4,1,4,$2,$3,$4,$5,$6,$7,$8,$9,$2,$3,0*
0 Add four circle primitives for the rounded corners*
1,1,$1+$1,$2,$3*
1,1,$1+$1,$4,$5*
1,1,$1+$1,$6,$7*
1,1,$1+$1,$8,$9*
0 Add four rect primitives between the rounded corners*
20,1,$1+$1,$2,$3,$4,$5,0*
20,1,$1+$1,$4,$5,$6,$7,0*
20,1,$1+$1,$6,$7,$8,$9,0*
20,1,$1+$1,$8,$9,$2,$3,0*%
%AMFreePoly0*
4,1,22,0.500000,-0.750000,0.000000,-0.750000,0.000000,-0.745033,-0.079941,-0.743568,-0.215256,-0.701293,-0.333266,-0.622738,-0.424486,-0.514219,-0.481581,-0.384460,-0.499164,-0.250000,-0.500000,-0.250000,-0.500000,0.250000,-0.499164,0.250000,-0.499963,0.256109,-0.478152,0.396186,-0.417904,0.524511,-0.324060,0.630769,-0.204165,0.706417,-0.067858,0.745374,0.000000,0.744959,0.000000,0.750000,
0.500000,0.750000,0.500000,-0.750000,0.500000,-0.750000,$1*%
%AMFreePoly1*
4,1,20,0.000000,0.744959,0.073905,0.744508,0.209726,0.703889,0.328688,0.626782,0.421226,0.519385,0.479903,0.390333,0.500000,0.250000,0.500000,-0.250000,0.499851,-0.262216,0.476331,-0.402017,0.414519,-0.529596,0.319384,-0.634700,0.198574,-0.708877,0.061801,-0.746166,0.000000,-0.745033,0.000000,-0.750000,-0.500000,-0.750000,-0.500000,0.750000,0.000000,0.750000,0.000000,0.744959,
0.000000,0.744959,$1*%
G04 Aperture macros list end*
%ADD10RoundRect,0.250000X0.475000X-0.250000X0.475000X0.250000X-0.475000X0.250000X-0.475000X-0.250000X0*%
%ADD11R,0.800000X0.800000*%
%ADD12RoundRect,0.243750X0.456250X-0.243750X0.456250X0.243750X-0.456250X0.243750X-0.456250X-0.243750X0*%
%ADD13C,3.000000*%
%ADD14RoundRect,0.135000X0.135000X0.185000X-0.135000X0.185000X-0.135000X-0.185000X0.135000X-0.185000X0*%
%ADD15RoundRect,0.225000X-0.225000X-0.250000X0.225000X-0.250000X0.225000X0.250000X-0.225000X0.250000X0*%
%ADD16RoundRect,0.135000X-0.185000X0.135000X-0.185000X-0.135000X0.185000X-0.135000X0.185000X0.135000X0*%
%ADD17C,0.200000*%
%ADD18FreePoly0,270.000000*%
%ADD19FreePoly1,270.000000*%
%ADD20FreePoly0,0.000000*%
%ADD21FreePoly1,0.000000*%
%ADD22RoundRect,0.042000X-0.943000X-0.258000X0.943000X-0.258000X0.943000X0.258000X-0.943000X0.258000X0*%
%ADD23R,1.350000X0.400000*%
%ADD24O,0.950000X1.250000*%
%ADD25R,1.550000X1.200000*%
%ADD26R,1.550000X1.500000*%
%ADD27O,1.550000X0.890000*%
%ADD28R,1.150000X0.600000*%
%ADD29FreePoly0,90.000000*%
%ADD30FreePoly1,90.000000*%
%ADD31C,3.450000*%
%ADD32C,2.390000*%
%ADD33R,7.340000X6.350000*%
%ADD34R,1.700000X1.700000*%
%ADD35O,1.700000X1.700000*%
%ADD36RoundRect,0.243750X-0.243750X-0.456250X0.243750X-0.456250X0.243750X0.456250X-0.243750X0.456250X0*%
%ADD37RoundRect,0.250000X-0.250000X-0.475000X0.250000X-0.475000X0.250000X0.475000X-0.250000X0.475000X0*%
%ADD38RoundRect,0.225000X0.225000X0.250000X-0.225000X0.250000X-0.225000X-0.250000X0.225000X-0.250000X0*%
%ADD39RoundRect,0.135000X0.185000X-0.135000X0.185000X0.135000X-0.185000X0.135000X-0.185000X-0.135000X0*%
%ADD40RoundRect,0.042000X0.943000X0.258000X-0.943000X0.258000X-0.943000X-0.258000X0.943000X-0.258000X0*%
%ADD41R,2.413000X3.302000*%
%ADD42RoundRect,0.150000X-0.825000X-0.150000X0.825000X-0.150000X0.825000X0.150000X-0.825000X0.150000X0*%
%ADD43RoundRect,0.147500X-0.147500X-0.172500X0.147500X-0.172500X0.147500X0.172500X-0.147500X0.172500X0*%
%ADD44RoundRect,0.225000X0.250000X-0.225000X0.250000X0.225000X-0.250000X0.225000X-0.250000X-0.225000X0*%
%ADD45RoundRect,0.135000X-0.135000X-0.185000X0.135000X-0.185000X0.135000X0.185000X-0.135000X0.185000X0*%
%ADD46R,0.900000X1.200000*%
%ADD47R,2.000000X1.500000*%
%ADD48R,2.000000X3.800000*%
%ADD49RoundRect,0.218750X-0.218750X-0.256250X0.218750X-0.256250X0.218750X0.256250X-0.218750X0.256250X0*%
G04 APERTURE END LIST*
D10*
%TO.C,C9*%
X91440000Y-50480000D03*
X91440000Y-48580000D03*
%TD*%
%TO.C,C8*%
X95250000Y-36510000D03*
X95250000Y-34610000D03*
%TD*%
D11*
%TO.C,A1*%
X90690000Y-35560000D03*
X92190000Y-35560000D03*
%TD*%
D12*
%TO.C,D3*%
X142240000Y-86027500D03*
X142240000Y-84152500D03*
%TD*%
D13*
%TO.C,TP2*%
X125730000Y-85090000D03*
%TD*%
D14*
%TO.C,R12*%
X140970000Y-95250000D03*
X139950000Y-95250000D03*
%TD*%
D15*
%TO.C,C2*%
X101600000Y-102870000D03*
X103150000Y-102870000D03*
%TD*%
D16*
%TO.C,R14*%
X142240000Y-89660000D03*
X142240000Y-90680000D03*
%TD*%
D14*
%TO.C,R19*%
X93220000Y-71120000D03*
X92200000Y-71120000D03*
%TD*%
D17*
%TO.C,IC2*%
X91640000Y-125930000D03*
X91240000Y-125930000D03*
X91640000Y-125530000D03*
X91240000Y-125530000D03*
%TD*%
D18*
%TO.C,JP2*%
X185420000Y-80630000D03*
D19*
X185420000Y-81930000D03*
%TD*%
D20*
%TO.C,JP3*%
X93980000Y-129540000D03*
D21*
X95280000Y-129540000D03*
%TD*%
D13*
%TO.C,TP1*%
X118110000Y-107950000D03*
%TD*%
D22*
%TO.C,U2*%
X119445000Y-59055000D03*
X119445000Y-60325000D03*
X119445000Y-61595000D03*
X119445000Y-62865000D03*
X124395000Y-62865000D03*
X124395000Y-61595000D03*
X124395000Y-60325000D03*
X124395000Y-59055000D03*
%TD*%
D23*
%TO.C,J7*%
X92840000Y-96760000D03*
X92840000Y-97410000D03*
X92840000Y-98060000D03*
X92840000Y-98710000D03*
X92840000Y-99360000D03*
D24*
X92840000Y-100560000D03*
D25*
X90140000Y-95160000D03*
D26*
X90140000Y-97060000D03*
X90140000Y-99060000D03*
D27*
X90140000Y-101560000D03*
D24*
X92840000Y-95560000D03*
D27*
X90140000Y-94560000D03*
D25*
X90140000Y-100960000D03*
%TD*%
D28*
%TO.C,IC1*%
X113010000Y-100010000D03*
X113010000Y-99060000D03*
X113010000Y-98110000D03*
X110510000Y-98110000D03*
X110510000Y-99060000D03*
X110510000Y-100010000D03*
%TD*%
D29*
%TO.C,JP6*%
X90170000Y-85740000D03*
D30*
X90170000Y-84440000D03*
%TD*%
D10*
%TO.C,C5*%
X120650000Y-103820000D03*
X120650000Y-101920000D03*
%TD*%
D31*
%TO.C,BT1*%
X115910000Y-53720000D03*
D32*
X107580000Y-37720000D03*
D31*
X171110000Y-37720000D03*
D33*
X104180000Y-45720000D03*
X182840000Y-45720000D03*
%TD*%
D34*
%TO.C,J4*%
X182865000Y-128270000D03*
D35*
X180325000Y-128270000D03*
X177785000Y-128270000D03*
X175245000Y-128270000D03*
X172705000Y-128270000D03*
X170165000Y-128270000D03*
X167625000Y-128270000D03*
X165085000Y-128270000D03*
X162545000Y-128270000D03*
X160005000Y-128270000D03*
X157465000Y-128270000D03*
X154925000Y-128270000D03*
X152385000Y-128270000D03*
X149845000Y-128270000D03*
X147305000Y-128270000D03*
X144765000Y-128270000D03*
X142225000Y-128270000D03*
X139685000Y-128270000D03*
X137145000Y-128270000D03*
X134605000Y-128270000D03*
X132065000Y-128270000D03*
X129525000Y-128270000D03*
X126985000Y-128270000D03*
X124445000Y-128270000D03*
X121905000Y-128270000D03*
X119365000Y-128270000D03*
X116825000Y-128270000D03*
X114285000Y-128270000D03*
X111745000Y-128270000D03*
X109205000Y-128270000D03*
X106665000Y-128270000D03*
X104125000Y-128270000D03*
X101585000Y-128270000D03*
%TD*%
D16*
%TO.C,R17*%
X95250000Y-38350000D03*
X95250000Y-39370000D03*
%TD*%
D36*
%TO.C,LED1*%
X90502500Y-105410000D03*
X92377500Y-105410000D03*
%TD*%
D34*
%TO.C,J3*%
X182865000Y-118135000D03*
D35*
X180325000Y-118135000D03*
X177785000Y-118135000D03*
X175245000Y-118135000D03*
X172705000Y-118135000D03*
X170165000Y-118135000D03*
X167625000Y-118135000D03*
X165085000Y-118135000D03*
X162545000Y-118135000D03*
X160005000Y-118135000D03*
X157465000Y-118135000D03*
X154925000Y-118135000D03*
X152385000Y-118135000D03*
X149845000Y-118135000D03*
X147305000Y-118135000D03*
X144765000Y-118135000D03*
X142225000Y-118135000D03*
X139685000Y-118135000D03*
X137145000Y-118135000D03*
X134605000Y-118135000D03*
X132065000Y-118135000D03*
X129525000Y-118135000D03*
X126985000Y-118135000D03*
X124445000Y-118135000D03*
X121905000Y-118135000D03*
X119365000Y-118135000D03*
X116825000Y-118135000D03*
X114285000Y-118135000D03*
X111745000Y-118135000D03*
X109205000Y-118135000D03*
X106665000Y-118135000D03*
X104125000Y-118135000D03*
X101585000Y-118135000D03*
%TD*%
D37*
%TO.C,C4*%
X104740000Y-99060000D03*
X106640000Y-99060000D03*
%TD*%
D16*
%TO.C,R13*%
X142240000Y-92200000D03*
X142240000Y-93220000D03*
%TD*%
D38*
%TO.C,C1*%
X92710000Y-111760000D03*
X91160000Y-111760000D03*
%TD*%
D37*
%TO.C,C11*%
X90490000Y-57150000D03*
X92390000Y-57150000D03*
%TD*%
D39*
%TO.C,R9*%
X138430000Y-88140000D03*
X138430000Y-87120000D03*
%TD*%
D12*
%TO.C,D6*%
X90170000Y-72057500D03*
X90170000Y-70182500D03*
%TD*%
D14*
%TO.C,R5*%
X120400000Y-97790000D03*
X119380000Y-97790000D03*
%TD*%
D34*
%TO.C,J1*%
X182865000Y-67310000D03*
D35*
X180325000Y-67310000D03*
X177785000Y-67310000D03*
X175245000Y-67310000D03*
X172705000Y-67310000D03*
X170165000Y-67310000D03*
X167625000Y-67310000D03*
X165085000Y-67310000D03*
X162545000Y-67310000D03*
X160005000Y-67310000D03*
X157465000Y-67310000D03*
X154925000Y-67310000D03*
X152385000Y-67310000D03*
X149845000Y-67310000D03*
X147305000Y-67310000D03*
X144765000Y-67310000D03*
X142225000Y-67310000D03*
X139685000Y-67310000D03*
X137145000Y-67310000D03*
X134605000Y-67310000D03*
X132065000Y-67310000D03*
X129525000Y-67310000D03*
X126985000Y-67310000D03*
X124445000Y-67310000D03*
X121905000Y-67310000D03*
X119365000Y-67310000D03*
X116825000Y-67310000D03*
X114285000Y-67310000D03*
X111745000Y-67310000D03*
X109205000Y-67310000D03*
X106665000Y-67310000D03*
X104125000Y-67310000D03*
X101585000Y-67310000D03*
%TD*%
D13*
%TO.C,TP5*%
X109220000Y-59690000D03*
%TD*%
D15*
%TO.C,C3*%
X101600000Y-99060000D03*
X103150000Y-99060000D03*
%TD*%
D39*
%TO.C,R1*%
X93980000Y-105920000D03*
X93980000Y-104900000D03*
%TD*%
%TO.C,R18*%
X185420000Y-97790000D03*
X185420000Y-96770000D03*
%TD*%
D40*
%TO.C,U1*%
X106615000Y-109855000D03*
X106615000Y-108585000D03*
X106615000Y-107315000D03*
X106615000Y-106045000D03*
X101665000Y-106045000D03*
X101665000Y-107315000D03*
X101665000Y-108585000D03*
X101665000Y-109855000D03*
D41*
X104140000Y-107950000D03*
%TD*%
D42*
%TO.C,U3*%
X100265000Y-53975000D03*
X100265000Y-55245000D03*
X100265000Y-56515000D03*
X100265000Y-57785000D03*
X100265000Y-59055000D03*
X100265000Y-60325000D03*
X100265000Y-61595000D03*
X100265000Y-62865000D03*
X95315000Y-62865000D03*
X95315000Y-61595000D03*
X95315000Y-60325000D03*
X95315000Y-59055000D03*
X95315000Y-57785000D03*
X95315000Y-56515000D03*
X95315000Y-55245000D03*
X95315000Y-53975000D03*
%TD*%
D43*
%TO.C,D4*%
X117625000Y-90170000D03*
X118595000Y-90170000D03*
%TD*%
D44*
%TO.C,C10*%
X95250000Y-50305000D03*
X95250000Y-48755000D03*
%TD*%
D16*
%TO.C,R10*%
X138430000Y-89660000D03*
X138430000Y-90680000D03*
%TD*%
D45*
%TO.C,R16*%
X94740000Y-123190000D03*
X95760000Y-123190000D03*
%TD*%
D13*
%TO.C,TP4*%
X101600000Y-36830000D03*
%TD*%
D34*
%TO.C,J5*%
X165100000Y-59690000D03*
D35*
X165100000Y-62230000D03*
%TD*%
D39*
%TO.C,R8*%
X138430000Y-85600000D03*
X138430000Y-84580000D03*
%TD*%
D45*
%TO.C,R15*%
X94740000Y-125730000D03*
X95760000Y-125730000D03*
%TD*%
D29*
%TO.C,JP4*%
X91440000Y-40020000D03*
D30*
X91440000Y-38720000D03*
%TD*%
D34*
%TO.C,J6*%
X180340000Y-59690000D03*
D35*
X182880000Y-59690000D03*
%TD*%
D12*
%TO.C,D5*%
X185420000Y-102537500D03*
X185420000Y-100662500D03*
%TD*%
D39*
%TO.C,R11*%
X138430000Y-93220000D03*
X138430000Y-92200000D03*
%TD*%
D45*
%TO.C,R7*%
X115570000Y-96520000D03*
X116590000Y-96520000D03*
%TD*%
D36*
%TO.C,LED2*%
X90502500Y-109220000D03*
X92377500Y-109220000D03*
%TD*%
D20*
%TO.C,JP1*%
X94600000Y-90170000D03*
D21*
X95900000Y-90170000D03*
%TD*%
D46*
%TO.C,D1*%
X110110000Y-107950000D03*
X113410000Y-107950000D03*
%TD*%
D47*
%TO.C,Q1*%
X146710000Y-84060000D03*
X146710000Y-86360000D03*
X146710000Y-88660000D03*
D48*
X153010000Y-86360000D03*
%TD*%
D14*
%TO.C,R6*%
X116590000Y-97790000D03*
X115570000Y-97790000D03*
%TD*%
D18*
%TO.C,JP7*%
X185420000Y-93330000D03*
D19*
X185420000Y-94630000D03*
%TD*%
D29*
%TO.C,JP5*%
X93980000Y-85740000D03*
D30*
X93980000Y-84440000D03*
%TD*%
D44*
%TO.C,C6*%
X116840000Y-104140000D03*
X116840000Y-102590000D03*
%TD*%
D34*
%TO.C,J2*%
X182865000Y-77495000D03*
D35*
X180325000Y-77495000D03*
X177785000Y-77495000D03*
X175245000Y-77495000D03*
X172705000Y-77495000D03*
X170165000Y-77495000D03*
X167625000Y-77495000D03*
X165085000Y-77495000D03*
X162545000Y-77495000D03*
X160005000Y-77495000D03*
X157465000Y-77495000D03*
X154925000Y-77495000D03*
X152385000Y-77495000D03*
X149845000Y-77495000D03*
X147305000Y-77495000D03*
X144765000Y-77495000D03*
X142225000Y-77495000D03*
X139685000Y-77495000D03*
X137145000Y-77495000D03*
X134605000Y-77495000D03*
X132065000Y-77495000D03*
X129525000Y-77495000D03*
X126985000Y-77495000D03*
X124445000Y-77495000D03*
X121905000Y-77495000D03*
X119365000Y-77495000D03*
X116825000Y-77495000D03*
X114285000Y-77495000D03*
X111745000Y-77495000D03*
X109205000Y-77495000D03*
X106665000Y-77495000D03*
X104125000Y-77495000D03*
X101585000Y-77495000D03*
%TD*%
D46*
%TO.C,D2*%
X123860000Y-90170000D03*
X127160000Y-90170000D03*
%TD*%
D45*
%TO.C,R4*%
X115820000Y-100330000D03*
X116840000Y-100330000D03*
%TD*%
D18*
%TO.C,JP8*%
X92710000Y-74280000D03*
D19*
X92710000Y-75580000D03*
%TD*%
D13*
%TO.C,TP3*%
X118110000Y-85090000D03*
%TD*%
D49*
%TO.C,L1*%
X110972500Y-102870000D03*
X112547500Y-102870000D03*
%TD*%
D14*
%TO.C,R3*%
X106680000Y-102870000D03*
X105660000Y-102870000D03*
%TD*%
D38*
%TO.C,C7*%
X92215000Y-129540000D03*
X90665000Y-129540000D03*
%TD*%
D39*
%TO.C,R2*%
X93980000Y-109730000D03*
X93980000Y-108710000D03*
%TD*%
M02*
