%TF.GenerationSoftware,KiCad,Pcbnew,(6.0.2)*%
%TF.CreationDate,2022-04-17T23:47:23+02:00*%
%TF.ProjectId,main,6d61696e-2e6b-4696-9361-645f70636258,rev?*%
%TF.SameCoordinates,Original*%
%TF.FileFunction,Legend,Top*%
%TF.FilePolarity,Positive*%
%FSLAX46Y46*%
G04 Gerber Fmt 4.6, Leading zero omitted, Abs format (unit mm)*
G04 Created by KiCad (PCBNEW (6.0.2)) date 2022-04-17 23:47:23*
%MOMM*%
%LPD*%
G01*
G04 APERTURE LIST*
G04 Aperture macros list*
%AMRoundRect*
0 Rectangle with rounded corners*
0 $1 Rounding radius*
0 $2 $3 $4 $5 $6 $7 $8 $9 X,Y pos of 4 corners*
0 Add a 4 corners polygon primitive as box body*
4,1,4,$2,$3,$4,$5,$6,$7,$8,$9,$2,$3,0*
0 Add four circle primitives for the rounded corners*
1,1,$1+$1,$2,$3*
1,1,$1+$1,$4,$5*
1,1,$1+$1,$6,$7*
1,1,$1+$1,$8,$9*
0 Add four rect primitives between the rounded corners*
20,1,$1+$1,$2,$3,$4,$5,0*
20,1,$1+$1,$4,$5,$6,$7,0*
20,1,$1+$1,$6,$7,$8,$9,0*
20,1,$1+$1,$8,$9,$2,$3,0*%
%AMFreePoly0*
4,1,22,0.500000,-0.750000,0.000000,-0.750000,0.000000,-0.745033,-0.079941,-0.743568,-0.215256,-0.701293,-0.333266,-0.622738,-0.424486,-0.514219,-0.481581,-0.384460,-0.499164,-0.250000,-0.500000,-0.250000,-0.500000,0.250000,-0.499164,0.250000,-0.499963,0.256109,-0.478152,0.396186,-0.417904,0.524511,-0.324060,0.630769,-0.204165,0.706417,-0.067858,0.745374,0.000000,0.744959,0.000000,0.750000,
0.500000,0.750000,0.500000,-0.750000,0.500000,-0.750000,$1*%
%AMFreePoly1*
4,1,20,0.000000,0.744959,0.073905,0.744508,0.209726,0.703889,0.328688,0.626782,0.421226,0.519385,0.479903,0.390333,0.500000,0.250000,0.500000,-0.250000,0.499851,-0.262216,0.476331,-0.402017,0.414519,-0.529596,0.319384,-0.634700,0.198574,-0.708877,0.061801,-0.746166,0.000000,-0.745033,0.000000,-0.750000,-0.500000,-0.750000,-0.500000,0.750000,0.000000,0.750000,0.000000,0.744959,
0.000000,0.744959,$1*%
G04 Aperture macros list end*
%ADD10C,0.150000*%
%ADD11C,0.254000*%
%ADD12C,0.120000*%
%ADD13C,0.200000*%
%ADD14C,0.127000*%
%ADD15C,0.100000*%
%ADD16RoundRect,0.250000X0.475000X-0.250000X0.475000X0.250000X-0.475000X0.250000X-0.475000X-0.250000X0*%
%ADD17R,0.800000X0.800000*%
%ADD18RoundRect,0.243750X0.456250X-0.243750X0.456250X0.243750X-0.456250X0.243750X-0.456250X-0.243750X0*%
%ADD19C,3.000000*%
%ADD20RoundRect,0.135000X0.135000X0.185000X-0.135000X0.185000X-0.135000X-0.185000X0.135000X-0.185000X0*%
%ADD21RoundRect,0.225000X-0.225000X-0.250000X0.225000X-0.250000X0.225000X0.250000X-0.225000X0.250000X0*%
%ADD22RoundRect,0.135000X-0.185000X0.135000X-0.185000X-0.135000X0.185000X-0.135000X0.185000X0.135000X0*%
%ADD23C,0.200000*%
%ADD24FreePoly0,270.000000*%
%ADD25FreePoly1,270.000000*%
%ADD26FreePoly0,0.000000*%
%ADD27FreePoly1,0.000000*%
%ADD28RoundRect,0.042000X-0.943000X-0.258000X0.943000X-0.258000X0.943000X0.258000X-0.943000X0.258000X0*%
%ADD29R,1.350000X0.400000*%
%ADD30O,0.950000X1.250000*%
%ADD31R,1.550000X1.200000*%
%ADD32R,1.550000X1.500000*%
%ADD33O,1.550000X0.890000*%
%ADD34R,1.150000X0.600000*%
%ADD35FreePoly0,90.000000*%
%ADD36FreePoly1,90.000000*%
%ADD37C,3.450000*%
%ADD38C,2.390000*%
%ADD39R,7.340000X6.350000*%
%ADD40R,1.700000X1.700000*%
%ADD41O,1.700000X1.700000*%
%ADD42RoundRect,0.243750X-0.243750X-0.456250X0.243750X-0.456250X0.243750X0.456250X-0.243750X0.456250X0*%
%ADD43RoundRect,0.250000X-0.250000X-0.475000X0.250000X-0.475000X0.250000X0.475000X-0.250000X0.475000X0*%
%ADD44RoundRect,0.225000X0.225000X0.250000X-0.225000X0.250000X-0.225000X-0.250000X0.225000X-0.250000X0*%
%ADD45RoundRect,0.135000X0.185000X-0.135000X0.185000X0.135000X-0.185000X0.135000X-0.185000X-0.135000X0*%
%ADD46RoundRect,0.042000X0.943000X0.258000X-0.943000X0.258000X-0.943000X-0.258000X0.943000X-0.258000X0*%
%ADD47R,2.413000X3.302000*%
%ADD48RoundRect,0.150000X-0.825000X-0.150000X0.825000X-0.150000X0.825000X0.150000X-0.825000X0.150000X0*%
%ADD49RoundRect,0.147500X-0.147500X-0.172500X0.147500X-0.172500X0.147500X0.172500X-0.147500X0.172500X0*%
%ADD50RoundRect,0.225000X0.250000X-0.225000X0.250000X0.225000X-0.250000X0.225000X-0.250000X-0.225000X0*%
%ADD51RoundRect,0.135000X-0.135000X-0.185000X0.135000X-0.185000X0.135000X0.185000X-0.135000X0.185000X0*%
%ADD52R,0.900000X1.200000*%
%ADD53R,2.000000X1.500000*%
%ADD54R,2.000000X3.800000*%
%ADD55RoundRect,0.218750X-0.218750X-0.256250X0.218750X-0.256250X0.218750X0.256250X-0.218750X0.256250X0*%
G04 APERTURE END LIST*
D10*
%TO.C,C9*%
X90117142Y-49696666D02*
X90164761Y-49744285D01*
X90212380Y-49887142D01*
X90212380Y-49982380D01*
X90164761Y-50125238D01*
X90069523Y-50220476D01*
X89974285Y-50268095D01*
X89783809Y-50315714D01*
X89640952Y-50315714D01*
X89450476Y-50268095D01*
X89355238Y-50220476D01*
X89260000Y-50125238D01*
X89212380Y-49982380D01*
X89212380Y-49887142D01*
X89260000Y-49744285D01*
X89307619Y-49696666D01*
X90212380Y-49220476D02*
X90212380Y-49030000D01*
X90164761Y-48934761D01*
X90117142Y-48887142D01*
X89974285Y-48791904D01*
X89783809Y-48744285D01*
X89402857Y-48744285D01*
X89307619Y-48791904D01*
X89260000Y-48839523D01*
X89212380Y-48934761D01*
X89212380Y-49125238D01*
X89260000Y-49220476D01*
X89307619Y-49268095D01*
X89402857Y-49315714D01*
X89640952Y-49315714D01*
X89736190Y-49268095D01*
X89783809Y-49220476D01*
X89831428Y-49125238D01*
X89831428Y-48934761D01*
X89783809Y-48839523D01*
X89736190Y-48791904D01*
X89640952Y-48744285D01*
%TO.C,C8*%
X93927142Y-35726666D02*
X93974761Y-35774285D01*
X94022380Y-35917142D01*
X94022380Y-36012380D01*
X93974761Y-36155238D01*
X93879523Y-36250476D01*
X93784285Y-36298095D01*
X93593809Y-36345714D01*
X93450952Y-36345714D01*
X93260476Y-36298095D01*
X93165238Y-36250476D01*
X93070000Y-36155238D01*
X93022380Y-36012380D01*
X93022380Y-35917142D01*
X93070000Y-35774285D01*
X93117619Y-35726666D01*
X93450952Y-35155238D02*
X93403333Y-35250476D01*
X93355714Y-35298095D01*
X93260476Y-35345714D01*
X93212857Y-35345714D01*
X93117619Y-35298095D01*
X93070000Y-35250476D01*
X93022380Y-35155238D01*
X93022380Y-34964761D01*
X93070000Y-34869523D01*
X93117619Y-34821904D01*
X93212857Y-34774285D01*
X93260476Y-34774285D01*
X93355714Y-34821904D01*
X93403333Y-34869523D01*
X93450952Y-34964761D01*
X93450952Y-35155238D01*
X93498571Y-35250476D01*
X93546190Y-35298095D01*
X93641428Y-35345714D01*
X93831904Y-35345714D01*
X93927142Y-35298095D01*
X93974761Y-35250476D01*
X94022380Y-35155238D01*
X94022380Y-34964761D01*
X93974761Y-34869523D01*
X93927142Y-34821904D01*
X93831904Y-34774285D01*
X93641428Y-34774285D01*
X93546190Y-34821904D01*
X93498571Y-34869523D01*
X93450952Y-34964761D01*
%TO.C,A1*%
X91014857Y-34260266D02*
X91319619Y-34260266D01*
X90953904Y-34443123D02*
X91167238Y-33803123D01*
X91380571Y-34443123D01*
X91929142Y-34443123D02*
X91563428Y-34443123D01*
X91746285Y-34443123D02*
X91746285Y-33803123D01*
X91685333Y-33894552D01*
X91624380Y-33955504D01*
X91563428Y-33985980D01*
%TO.C,D3*%
X141042380Y-85791835D02*
X140042380Y-85791835D01*
X140042380Y-85553740D01*
X140090000Y-85410882D01*
X140185238Y-85315644D01*
X140280476Y-85268025D01*
X140470952Y-85220406D01*
X140613809Y-85220406D01*
X140804285Y-85268025D01*
X140899523Y-85315644D01*
X140994761Y-85410882D01*
X141042380Y-85553740D01*
X141042380Y-85791835D01*
X140042380Y-84887073D02*
X140042380Y-84268025D01*
X140423333Y-84601359D01*
X140423333Y-84458501D01*
X140470952Y-84363263D01*
X140518571Y-84315644D01*
X140613809Y-84268025D01*
X140851904Y-84268025D01*
X140947142Y-84315644D01*
X140994761Y-84363263D01*
X141042380Y-84458501D01*
X141042380Y-84744216D01*
X140994761Y-84839454D01*
X140947142Y-84887073D01*
%TO.C,TP2*%
X124468095Y-82144380D02*
X125039523Y-82144380D01*
X124753809Y-83144380D02*
X124753809Y-82144380D01*
X125372857Y-83144380D02*
X125372857Y-82144380D01*
X125753809Y-82144380D01*
X125849047Y-82192000D01*
X125896666Y-82239619D01*
X125944285Y-82334857D01*
X125944285Y-82477714D01*
X125896666Y-82572952D01*
X125849047Y-82620571D01*
X125753809Y-82668190D01*
X125372857Y-82668190D01*
X126325238Y-82239619D02*
X126372857Y-82192000D01*
X126468095Y-82144380D01*
X126706190Y-82144380D01*
X126801428Y-82192000D01*
X126849047Y-82239619D01*
X126896666Y-82334857D01*
X126896666Y-82430095D01*
X126849047Y-82572952D01*
X126277619Y-83144380D01*
X126896666Y-83144380D01*
%TO.C,R12*%
X139817142Y-96872380D02*
X139483809Y-96396190D01*
X139245714Y-96872380D02*
X139245714Y-95872380D01*
X139626666Y-95872380D01*
X139721904Y-95920000D01*
X139769523Y-95967619D01*
X139817142Y-96062857D01*
X139817142Y-96205714D01*
X139769523Y-96300952D01*
X139721904Y-96348571D01*
X139626666Y-96396190D01*
X139245714Y-96396190D01*
X140769523Y-96872380D02*
X140198095Y-96872380D01*
X140483809Y-96872380D02*
X140483809Y-95872380D01*
X140388571Y-96015238D01*
X140293333Y-96110476D01*
X140198095Y-96158095D01*
X141150476Y-95967619D02*
X141198095Y-95920000D01*
X141293333Y-95872380D01*
X141531428Y-95872380D01*
X141626666Y-95920000D01*
X141674285Y-95967619D01*
X141721904Y-96062857D01*
X141721904Y-96158095D01*
X141674285Y-96300952D01*
X141102857Y-96872380D01*
X141721904Y-96872380D01*
%TO.C,C2*%
X102208333Y-101797142D02*
X102160714Y-101844761D01*
X102017857Y-101892380D01*
X101922619Y-101892380D01*
X101779761Y-101844761D01*
X101684523Y-101749523D01*
X101636904Y-101654285D01*
X101589285Y-101463809D01*
X101589285Y-101320952D01*
X101636904Y-101130476D01*
X101684523Y-101035238D01*
X101779761Y-100940000D01*
X101922619Y-100892380D01*
X102017857Y-100892380D01*
X102160714Y-100940000D01*
X102208333Y-100987619D01*
X102589285Y-100987619D02*
X102636904Y-100940000D01*
X102732142Y-100892380D01*
X102970238Y-100892380D01*
X103065476Y-100940000D01*
X103113095Y-100987619D01*
X103160714Y-101082857D01*
X103160714Y-101178095D01*
X103113095Y-101320952D01*
X102541666Y-101892380D01*
X103160714Y-101892380D01*
%TO.C,R14*%
X143862380Y-90812857D02*
X143386190Y-91146190D01*
X143862380Y-91384285D02*
X142862380Y-91384285D01*
X142862380Y-91003333D01*
X142910000Y-90908095D01*
X142957619Y-90860476D01*
X143052857Y-90812857D01*
X143195714Y-90812857D01*
X143290952Y-90860476D01*
X143338571Y-90908095D01*
X143386190Y-91003333D01*
X143386190Y-91384285D01*
X143862380Y-89860476D02*
X143862380Y-90431904D01*
X143862380Y-90146190D02*
X142862380Y-90146190D01*
X143005238Y-90241428D01*
X143100476Y-90336666D01*
X143148095Y-90431904D01*
X143195714Y-89003333D02*
X143862380Y-89003333D01*
X142814761Y-89241428D02*
X143529047Y-89479523D01*
X143529047Y-88860476D01*
%TO.C,R19*%
X92067142Y-72742380D02*
X91733809Y-72266190D01*
X91495714Y-72742380D02*
X91495714Y-71742380D01*
X91876666Y-71742380D01*
X91971904Y-71790000D01*
X92019523Y-71837619D01*
X92067142Y-71932857D01*
X92067142Y-72075714D01*
X92019523Y-72170952D01*
X91971904Y-72218571D01*
X91876666Y-72266190D01*
X91495714Y-72266190D01*
X93019523Y-72742380D02*
X92448095Y-72742380D01*
X92733809Y-72742380D02*
X92733809Y-71742380D01*
X92638571Y-71885238D01*
X92543333Y-71980476D01*
X92448095Y-72028095D01*
X93495714Y-72742380D02*
X93686190Y-72742380D01*
X93781428Y-72694761D01*
X93829047Y-72647142D01*
X93924285Y-72504285D01*
X93971904Y-72313809D01*
X93971904Y-71932857D01*
X93924285Y-71837619D01*
X93876666Y-71790000D01*
X93781428Y-71742380D01*
X93590952Y-71742380D01*
X93495714Y-71790000D01*
X93448095Y-71837619D01*
X93400476Y-71932857D01*
X93400476Y-72170952D01*
X93448095Y-72266190D01*
X93495714Y-72313809D01*
X93590952Y-72361428D01*
X93781428Y-72361428D01*
X93876666Y-72313809D01*
X93924285Y-72266190D01*
X93971904Y-72170952D01*
D11*
%TO.C,IC2*%
X90200238Y-126304523D02*
X90200238Y-125034523D01*
X91530714Y-126183571D02*
X91470238Y-126244047D01*
X91288809Y-126304523D01*
X91167857Y-126304523D01*
X90986428Y-126244047D01*
X90865476Y-126123095D01*
X90805000Y-126002142D01*
X90744523Y-125760238D01*
X90744523Y-125578809D01*
X90805000Y-125336904D01*
X90865476Y-125215952D01*
X90986428Y-125095000D01*
X91167857Y-125034523D01*
X91288809Y-125034523D01*
X91470238Y-125095000D01*
X91530714Y-125155476D01*
X92014523Y-125155476D02*
X92075000Y-125095000D01*
X92195952Y-125034523D01*
X92498333Y-125034523D01*
X92619285Y-125095000D01*
X92679761Y-125155476D01*
X92740238Y-125276428D01*
X92740238Y-125397380D01*
X92679761Y-125578809D01*
X91954047Y-126304523D01*
X92740238Y-126304523D01*
D10*
%TO.C,JP2*%
X186672380Y-82113333D02*
X187386666Y-82113333D01*
X187529523Y-82160952D01*
X187624761Y-82256190D01*
X187672380Y-82399047D01*
X187672380Y-82494285D01*
X187672380Y-81637142D02*
X186672380Y-81637142D01*
X186672380Y-81256190D01*
X186720000Y-81160952D01*
X186767619Y-81113333D01*
X186862857Y-81065714D01*
X187005714Y-81065714D01*
X187100952Y-81113333D01*
X187148571Y-81160952D01*
X187196190Y-81256190D01*
X187196190Y-81637142D01*
X186767619Y-80684761D02*
X186720000Y-80637142D01*
X186672380Y-80541904D01*
X186672380Y-80303809D01*
X186720000Y-80208571D01*
X186767619Y-80160952D01*
X186862857Y-80113333D01*
X186958095Y-80113333D01*
X187100952Y-80160952D01*
X187672380Y-80732380D01*
X187672380Y-80113333D01*
%TO.C,JP3*%
X93796666Y-127192380D02*
X93796666Y-127906666D01*
X93749047Y-128049523D01*
X93653809Y-128144761D01*
X93510952Y-128192380D01*
X93415714Y-128192380D01*
X94272857Y-128192380D02*
X94272857Y-127192380D01*
X94653809Y-127192380D01*
X94749047Y-127240000D01*
X94796666Y-127287619D01*
X94844285Y-127382857D01*
X94844285Y-127525714D01*
X94796666Y-127620952D01*
X94749047Y-127668571D01*
X94653809Y-127716190D01*
X94272857Y-127716190D01*
X95177619Y-127192380D02*
X95796666Y-127192380D01*
X95463333Y-127573333D01*
X95606190Y-127573333D01*
X95701428Y-127620952D01*
X95749047Y-127668571D01*
X95796666Y-127763809D01*
X95796666Y-128001904D01*
X95749047Y-128097142D01*
X95701428Y-128144761D01*
X95606190Y-128192380D01*
X95320476Y-128192380D01*
X95225238Y-128144761D01*
X95177619Y-128097142D01*
%TO.C,TP1*%
X116848095Y-105004380D02*
X117419523Y-105004380D01*
X117133809Y-106004380D02*
X117133809Y-105004380D01*
X117752857Y-106004380D02*
X117752857Y-105004380D01*
X118133809Y-105004380D01*
X118229047Y-105052000D01*
X118276666Y-105099619D01*
X118324285Y-105194857D01*
X118324285Y-105337714D01*
X118276666Y-105432952D01*
X118229047Y-105480571D01*
X118133809Y-105528190D01*
X117752857Y-105528190D01*
X119276666Y-106004380D02*
X118705238Y-106004380D01*
X118990952Y-106004380D02*
X118990952Y-105004380D01*
X118895714Y-105147238D01*
X118800476Y-105242476D01*
X118705238Y-105290095D01*
%TO.C,U2*%
X120363095Y-57075380D02*
X120363095Y-57884904D01*
X120410714Y-57980142D01*
X120458333Y-58027761D01*
X120553571Y-58075380D01*
X120744047Y-58075380D01*
X120839285Y-58027761D01*
X120886904Y-57980142D01*
X120934523Y-57884904D01*
X120934523Y-57075380D01*
X121363095Y-57170619D02*
X121410714Y-57123000D01*
X121505952Y-57075380D01*
X121744047Y-57075380D01*
X121839285Y-57123000D01*
X121886904Y-57170619D01*
X121934523Y-57265857D01*
X121934523Y-57361095D01*
X121886904Y-57503952D01*
X121315476Y-58075380D01*
X121934523Y-58075380D01*
%TO.C,J7*%
X94392380Y-98393333D02*
X95106666Y-98393333D01*
X95249523Y-98440952D01*
X95344761Y-98536190D01*
X95392380Y-98679047D01*
X95392380Y-98774285D01*
X94392380Y-98012380D02*
X94392380Y-97345714D01*
X95392380Y-97774285D01*
D11*
%TO.C,IC1*%
X110520238Y-99634523D02*
X110520238Y-98364523D01*
X111850714Y-99513571D02*
X111790238Y-99574047D01*
X111608809Y-99634523D01*
X111487857Y-99634523D01*
X111306428Y-99574047D01*
X111185476Y-99453095D01*
X111125000Y-99332142D01*
X111064523Y-99090238D01*
X111064523Y-98908809D01*
X111125000Y-98666904D01*
X111185476Y-98545952D01*
X111306428Y-98425000D01*
X111487857Y-98364523D01*
X111608809Y-98364523D01*
X111790238Y-98425000D01*
X111850714Y-98485476D01*
X113060238Y-99634523D02*
X112334523Y-99634523D01*
X112697380Y-99634523D02*
X112697380Y-98364523D01*
X112576428Y-98545952D01*
X112455476Y-98666904D01*
X112334523Y-98727380D01*
D10*
%TO.C,JP6*%
X87822380Y-85923333D02*
X88536666Y-85923333D01*
X88679523Y-85970952D01*
X88774761Y-86066190D01*
X88822380Y-86209047D01*
X88822380Y-86304285D01*
X88822380Y-85447142D02*
X87822380Y-85447142D01*
X87822380Y-85066190D01*
X87870000Y-84970952D01*
X87917619Y-84923333D01*
X88012857Y-84875714D01*
X88155714Y-84875714D01*
X88250952Y-84923333D01*
X88298571Y-84970952D01*
X88346190Y-85066190D01*
X88346190Y-85447142D01*
X87822380Y-84018571D02*
X87822380Y-84209047D01*
X87870000Y-84304285D01*
X87917619Y-84351904D01*
X88060476Y-84447142D01*
X88250952Y-84494761D01*
X88631904Y-84494761D01*
X88727142Y-84447142D01*
X88774761Y-84399523D01*
X88822380Y-84304285D01*
X88822380Y-84113809D01*
X88774761Y-84018571D01*
X88727142Y-83970952D01*
X88631904Y-83923333D01*
X88393809Y-83923333D01*
X88298571Y-83970952D01*
X88250952Y-84018571D01*
X88203333Y-84113809D01*
X88203333Y-84304285D01*
X88250952Y-84399523D01*
X88298571Y-84447142D01*
X88393809Y-84494761D01*
%TO.C,C5*%
X119327142Y-103036666D02*
X119374761Y-103084285D01*
X119422380Y-103227142D01*
X119422380Y-103322380D01*
X119374761Y-103465238D01*
X119279523Y-103560476D01*
X119184285Y-103608095D01*
X118993809Y-103655714D01*
X118850952Y-103655714D01*
X118660476Y-103608095D01*
X118565238Y-103560476D01*
X118470000Y-103465238D01*
X118422380Y-103322380D01*
X118422380Y-103227142D01*
X118470000Y-103084285D01*
X118517619Y-103036666D01*
X118422380Y-102131904D02*
X118422380Y-102608095D01*
X118898571Y-102655714D01*
X118850952Y-102608095D01*
X118803333Y-102512857D01*
X118803333Y-102274761D01*
X118850952Y-102179523D01*
X118898571Y-102131904D01*
X118993809Y-102084285D01*
X119231904Y-102084285D01*
X119327142Y-102131904D01*
X119374761Y-102179523D01*
X119422380Y-102274761D01*
X119422380Y-102512857D01*
X119374761Y-102608095D01*
X119327142Y-102655714D01*
%TO.C,BT1*%
X142724285Y-34148571D02*
X142867142Y-34196190D01*
X142914761Y-34243809D01*
X142962380Y-34339047D01*
X142962380Y-34481904D01*
X142914761Y-34577142D01*
X142867142Y-34624761D01*
X142771904Y-34672380D01*
X142390952Y-34672380D01*
X142390952Y-33672380D01*
X142724285Y-33672380D01*
X142819523Y-33720000D01*
X142867142Y-33767619D01*
X142914761Y-33862857D01*
X142914761Y-33958095D01*
X142867142Y-34053333D01*
X142819523Y-34100952D01*
X142724285Y-34148571D01*
X142390952Y-34148571D01*
X143248095Y-33672380D02*
X143819523Y-33672380D01*
X143533809Y-34672380D02*
X143533809Y-33672380D01*
X144676666Y-34672380D02*
X144105238Y-34672380D01*
X144390952Y-34672380D02*
X144390952Y-33672380D01*
X144295714Y-33815238D01*
X144200476Y-33910476D01*
X144105238Y-33958095D01*
%TO.C,J4*%
X184647380Y-128603333D02*
X185361666Y-128603333D01*
X185504523Y-128650952D01*
X185599761Y-128746190D01*
X185647380Y-128889047D01*
X185647380Y-128984285D01*
X184980714Y-127698571D02*
X185647380Y-127698571D01*
X184599761Y-127936666D02*
X185314047Y-128174761D01*
X185314047Y-127555714D01*
%TO.C,R17*%
X96872380Y-39502857D02*
X96396190Y-39836190D01*
X96872380Y-40074285D02*
X95872380Y-40074285D01*
X95872380Y-39693333D01*
X95920000Y-39598095D01*
X95967619Y-39550476D01*
X96062857Y-39502857D01*
X96205714Y-39502857D01*
X96300952Y-39550476D01*
X96348571Y-39598095D01*
X96396190Y-39693333D01*
X96396190Y-40074285D01*
X96872380Y-38550476D02*
X96872380Y-39121904D01*
X96872380Y-38836190D02*
X95872380Y-38836190D01*
X96015238Y-38931428D01*
X96110476Y-39026666D01*
X96158095Y-39121904D01*
X95872380Y-38217142D02*
X95872380Y-37550476D01*
X96872380Y-37979047D01*
%TO.C,LED1*%
X90320952Y-104212380D02*
X89844761Y-104212380D01*
X89844761Y-103212380D01*
X90654285Y-103688571D02*
X90987619Y-103688571D01*
X91130476Y-104212380D02*
X90654285Y-104212380D01*
X90654285Y-103212380D01*
X91130476Y-103212380D01*
X91559047Y-104212380D02*
X91559047Y-103212380D01*
X91797142Y-103212380D01*
X91940000Y-103260000D01*
X92035238Y-103355238D01*
X92082857Y-103450476D01*
X92130476Y-103640952D01*
X92130476Y-103783809D01*
X92082857Y-103974285D01*
X92035238Y-104069523D01*
X91940000Y-104164761D01*
X91797142Y-104212380D01*
X91559047Y-104212380D01*
X93082857Y-104212380D02*
X92511428Y-104212380D01*
X92797142Y-104212380D02*
X92797142Y-103212380D01*
X92701904Y-103355238D01*
X92606666Y-103450476D01*
X92511428Y-103498095D01*
%TO.C,J3*%
X185087380Y-118468333D02*
X185801666Y-118468333D01*
X185944523Y-118515952D01*
X186039761Y-118611190D01*
X186087380Y-118754047D01*
X186087380Y-118849285D01*
X185087380Y-118087380D02*
X185087380Y-117468333D01*
X185468333Y-117801666D01*
X185468333Y-117658809D01*
X185515952Y-117563571D01*
X185563571Y-117515952D01*
X185658809Y-117468333D01*
X185896904Y-117468333D01*
X185992142Y-117515952D01*
X186039761Y-117563571D01*
X186087380Y-117658809D01*
X186087380Y-117944523D01*
X186039761Y-118039761D01*
X185992142Y-118087380D01*
%TO.C,C4*%
X105523333Y-97737142D02*
X105475714Y-97784761D01*
X105332857Y-97832380D01*
X105237619Y-97832380D01*
X105094761Y-97784761D01*
X104999523Y-97689523D01*
X104951904Y-97594285D01*
X104904285Y-97403809D01*
X104904285Y-97260952D01*
X104951904Y-97070476D01*
X104999523Y-96975238D01*
X105094761Y-96880000D01*
X105237619Y-96832380D01*
X105332857Y-96832380D01*
X105475714Y-96880000D01*
X105523333Y-96927619D01*
X106380476Y-97165714D02*
X106380476Y-97832380D01*
X106142380Y-96784761D02*
X105904285Y-97499047D01*
X106523333Y-97499047D01*
%TO.C,R13*%
X143862380Y-93352857D02*
X143386190Y-93686190D01*
X143862380Y-93924285D02*
X142862380Y-93924285D01*
X142862380Y-93543333D01*
X142910000Y-93448095D01*
X142957619Y-93400476D01*
X143052857Y-93352857D01*
X143195714Y-93352857D01*
X143290952Y-93400476D01*
X143338571Y-93448095D01*
X143386190Y-93543333D01*
X143386190Y-93924285D01*
X143862380Y-92400476D02*
X143862380Y-92971904D01*
X143862380Y-92686190D02*
X142862380Y-92686190D01*
X143005238Y-92781428D01*
X143100476Y-92876666D01*
X143148095Y-92971904D01*
X142862380Y-92067142D02*
X142862380Y-91448095D01*
X143243333Y-91781428D01*
X143243333Y-91638571D01*
X143290952Y-91543333D01*
X143338571Y-91495714D01*
X143433809Y-91448095D01*
X143671904Y-91448095D01*
X143767142Y-91495714D01*
X143814761Y-91543333D01*
X143862380Y-91638571D01*
X143862380Y-91924285D01*
X143814761Y-92019523D01*
X143767142Y-92067142D01*
%TO.C,C1*%
X91768333Y-113547142D02*
X91720714Y-113594761D01*
X91577857Y-113642380D01*
X91482619Y-113642380D01*
X91339761Y-113594761D01*
X91244523Y-113499523D01*
X91196904Y-113404285D01*
X91149285Y-113213809D01*
X91149285Y-113070952D01*
X91196904Y-112880476D01*
X91244523Y-112785238D01*
X91339761Y-112690000D01*
X91482619Y-112642380D01*
X91577857Y-112642380D01*
X91720714Y-112690000D01*
X91768333Y-112737619D01*
X92720714Y-113642380D02*
X92149285Y-113642380D01*
X92435000Y-113642380D02*
X92435000Y-112642380D01*
X92339761Y-112785238D01*
X92244523Y-112880476D01*
X92149285Y-112928095D01*
%TO.C,C11*%
X90797142Y-55827142D02*
X90749523Y-55874761D01*
X90606666Y-55922380D01*
X90511428Y-55922380D01*
X90368571Y-55874761D01*
X90273333Y-55779523D01*
X90225714Y-55684285D01*
X90178095Y-55493809D01*
X90178095Y-55350952D01*
X90225714Y-55160476D01*
X90273333Y-55065238D01*
X90368571Y-54970000D01*
X90511428Y-54922380D01*
X90606666Y-54922380D01*
X90749523Y-54970000D01*
X90797142Y-55017619D01*
X91749523Y-55922380D02*
X91178095Y-55922380D01*
X91463809Y-55922380D02*
X91463809Y-54922380D01*
X91368571Y-55065238D01*
X91273333Y-55160476D01*
X91178095Y-55208095D01*
X92701904Y-55922380D02*
X92130476Y-55922380D01*
X92416190Y-55922380D02*
X92416190Y-54922380D01*
X92320952Y-55065238D01*
X92225714Y-55160476D01*
X92130476Y-55208095D01*
%TO.C,R9*%
X137712380Y-87796666D02*
X137236190Y-88130000D01*
X137712380Y-88368095D02*
X136712380Y-88368095D01*
X136712380Y-87987142D01*
X136760000Y-87891904D01*
X136807619Y-87844285D01*
X136902857Y-87796666D01*
X137045714Y-87796666D01*
X137140952Y-87844285D01*
X137188571Y-87891904D01*
X137236190Y-87987142D01*
X137236190Y-88368095D01*
X137712380Y-87320476D02*
X137712380Y-87130000D01*
X137664761Y-87034761D01*
X137617142Y-86987142D01*
X137474285Y-86891904D01*
X137283809Y-86844285D01*
X136902857Y-86844285D01*
X136807619Y-86891904D01*
X136760000Y-86939523D01*
X136712380Y-87034761D01*
X136712380Y-87225238D01*
X136760000Y-87320476D01*
X136807619Y-87368095D01*
X136902857Y-87415714D01*
X137140952Y-87415714D01*
X137236190Y-87368095D01*
X137283809Y-87320476D01*
X137331428Y-87225238D01*
X137331428Y-87034761D01*
X137283809Y-86939523D01*
X137236190Y-86891904D01*
X137140952Y-86844285D01*
%TO.C,D6*%
X88972380Y-71858095D02*
X87972380Y-71858095D01*
X87972380Y-71620000D01*
X88020000Y-71477142D01*
X88115238Y-71381904D01*
X88210476Y-71334285D01*
X88400952Y-71286666D01*
X88543809Y-71286666D01*
X88734285Y-71334285D01*
X88829523Y-71381904D01*
X88924761Y-71477142D01*
X88972380Y-71620000D01*
X88972380Y-71858095D01*
X87972380Y-70429523D02*
X87972380Y-70620000D01*
X88020000Y-70715238D01*
X88067619Y-70762857D01*
X88210476Y-70858095D01*
X88400952Y-70905714D01*
X88781904Y-70905714D01*
X88877142Y-70858095D01*
X88924761Y-70810476D01*
X88972380Y-70715238D01*
X88972380Y-70524761D01*
X88924761Y-70429523D01*
X88877142Y-70381904D01*
X88781904Y-70334285D01*
X88543809Y-70334285D01*
X88448571Y-70381904D01*
X88400952Y-70429523D01*
X88353333Y-70524761D01*
X88353333Y-70715238D01*
X88400952Y-70810476D01*
X88448571Y-70858095D01*
X88543809Y-70905714D01*
%TO.C,R5*%
X119723333Y-99412380D02*
X119390000Y-98936190D01*
X119151904Y-99412380D02*
X119151904Y-98412380D01*
X119532857Y-98412380D01*
X119628095Y-98460000D01*
X119675714Y-98507619D01*
X119723333Y-98602857D01*
X119723333Y-98745714D01*
X119675714Y-98840952D01*
X119628095Y-98888571D01*
X119532857Y-98936190D01*
X119151904Y-98936190D01*
X120628095Y-98412380D02*
X120151904Y-98412380D01*
X120104285Y-98888571D01*
X120151904Y-98840952D01*
X120247142Y-98793333D01*
X120485238Y-98793333D01*
X120580476Y-98840952D01*
X120628095Y-98888571D01*
X120675714Y-98983809D01*
X120675714Y-99221904D01*
X120628095Y-99317142D01*
X120580476Y-99364761D01*
X120485238Y-99412380D01*
X120247142Y-99412380D01*
X120151904Y-99364761D01*
X120104285Y-99317142D01*
%TO.C,J1*%
X184647380Y-67643333D02*
X185361666Y-67643333D01*
X185504523Y-67690952D01*
X185599761Y-67786190D01*
X185647380Y-67929047D01*
X185647380Y-68024285D01*
X185647380Y-66643333D02*
X185647380Y-67214761D01*
X185647380Y-66929047D02*
X184647380Y-66929047D01*
X184790238Y-67024285D01*
X184885476Y-67119523D01*
X184933095Y-67214761D01*
%TO.C,TP5*%
X107958095Y-56744380D02*
X108529523Y-56744380D01*
X108243809Y-57744380D02*
X108243809Y-56744380D01*
X108862857Y-57744380D02*
X108862857Y-56744380D01*
X109243809Y-56744380D01*
X109339047Y-56792000D01*
X109386666Y-56839619D01*
X109434285Y-56934857D01*
X109434285Y-57077714D01*
X109386666Y-57172952D01*
X109339047Y-57220571D01*
X109243809Y-57268190D01*
X108862857Y-57268190D01*
X110339047Y-56744380D02*
X109862857Y-56744380D01*
X109815238Y-57220571D01*
X109862857Y-57172952D01*
X109958095Y-57125333D01*
X110196190Y-57125333D01*
X110291428Y-57172952D01*
X110339047Y-57220571D01*
X110386666Y-57315809D01*
X110386666Y-57553904D01*
X110339047Y-57649142D01*
X110291428Y-57696761D01*
X110196190Y-57744380D01*
X109958095Y-57744380D01*
X109862857Y-57696761D01*
X109815238Y-57649142D01*
%TO.C,C3*%
X102208333Y-97987142D02*
X102160714Y-98034761D01*
X102017857Y-98082380D01*
X101922619Y-98082380D01*
X101779761Y-98034761D01*
X101684523Y-97939523D01*
X101636904Y-97844285D01*
X101589285Y-97653809D01*
X101589285Y-97510952D01*
X101636904Y-97320476D01*
X101684523Y-97225238D01*
X101779761Y-97130000D01*
X101922619Y-97082380D01*
X102017857Y-97082380D01*
X102160714Y-97130000D01*
X102208333Y-97177619D01*
X102541666Y-97082380D02*
X103160714Y-97082380D01*
X102827380Y-97463333D01*
X102970238Y-97463333D01*
X103065476Y-97510952D01*
X103113095Y-97558571D01*
X103160714Y-97653809D01*
X103160714Y-97891904D01*
X103113095Y-97987142D01*
X103065476Y-98034761D01*
X102970238Y-98082380D01*
X102684523Y-98082380D01*
X102589285Y-98034761D01*
X102541666Y-97987142D01*
%TO.C,R1*%
X93262380Y-105576666D02*
X92786190Y-105910000D01*
X93262380Y-106148095D02*
X92262380Y-106148095D01*
X92262380Y-105767142D01*
X92310000Y-105671904D01*
X92357619Y-105624285D01*
X92452857Y-105576666D01*
X92595714Y-105576666D01*
X92690952Y-105624285D01*
X92738571Y-105671904D01*
X92786190Y-105767142D01*
X92786190Y-106148095D01*
X93262380Y-104624285D02*
X93262380Y-105195714D01*
X93262380Y-104910000D02*
X92262380Y-104910000D01*
X92405238Y-105005238D01*
X92500476Y-105100476D01*
X92548095Y-105195714D01*
%TO.C,R18*%
X184702380Y-97922857D02*
X184226190Y-98256190D01*
X184702380Y-98494285D02*
X183702380Y-98494285D01*
X183702380Y-98113333D01*
X183750000Y-98018095D01*
X183797619Y-97970476D01*
X183892857Y-97922857D01*
X184035714Y-97922857D01*
X184130952Y-97970476D01*
X184178571Y-98018095D01*
X184226190Y-98113333D01*
X184226190Y-98494285D01*
X184702380Y-96970476D02*
X184702380Y-97541904D01*
X184702380Y-97256190D02*
X183702380Y-97256190D01*
X183845238Y-97351428D01*
X183940476Y-97446666D01*
X183988095Y-97541904D01*
X184130952Y-96399047D02*
X184083333Y-96494285D01*
X184035714Y-96541904D01*
X183940476Y-96589523D01*
X183892857Y-96589523D01*
X183797619Y-96541904D01*
X183750000Y-96494285D01*
X183702380Y-96399047D01*
X183702380Y-96208571D01*
X183750000Y-96113333D01*
X183797619Y-96065714D01*
X183892857Y-96018095D01*
X183940476Y-96018095D01*
X184035714Y-96065714D01*
X184083333Y-96113333D01*
X184130952Y-96208571D01*
X184130952Y-96399047D01*
X184178571Y-96494285D01*
X184226190Y-96541904D01*
X184321428Y-96589523D01*
X184511904Y-96589523D01*
X184607142Y-96541904D01*
X184654761Y-96494285D01*
X184702380Y-96399047D01*
X184702380Y-96208571D01*
X184654761Y-96113333D01*
X184607142Y-96065714D01*
X184511904Y-96018095D01*
X184321428Y-96018095D01*
X184226190Y-96065714D01*
X184178571Y-96113333D01*
X184130952Y-96208571D01*
%TO.C,U1*%
X104173095Y-110764380D02*
X104173095Y-111573904D01*
X104220714Y-111669142D01*
X104268333Y-111716761D01*
X104363571Y-111764380D01*
X104554047Y-111764380D01*
X104649285Y-111716761D01*
X104696904Y-111669142D01*
X104744523Y-111573904D01*
X104744523Y-110764380D01*
X105744523Y-111764380D02*
X105173095Y-111764380D01*
X105458809Y-111764380D02*
X105458809Y-110764380D01*
X105363571Y-110907238D01*
X105268333Y-111002476D01*
X105173095Y-111050095D01*
%TO.C,U3*%
X97028095Y-51972380D02*
X97028095Y-52781904D01*
X97075714Y-52877142D01*
X97123333Y-52924761D01*
X97218571Y-52972380D01*
X97409047Y-52972380D01*
X97504285Y-52924761D01*
X97551904Y-52877142D01*
X97599523Y-52781904D01*
X97599523Y-51972380D01*
X97980476Y-51972380D02*
X98599523Y-51972380D01*
X98266190Y-52353333D01*
X98409047Y-52353333D01*
X98504285Y-52400952D01*
X98551904Y-52448571D01*
X98599523Y-52543809D01*
X98599523Y-52781904D01*
X98551904Y-52877142D01*
X98504285Y-52924761D01*
X98409047Y-52972380D01*
X98123333Y-52972380D01*
X98028095Y-52924761D01*
X97980476Y-52877142D01*
%TO.C,D4*%
X117371904Y-89452380D02*
X117371904Y-88452380D01*
X117610000Y-88452380D01*
X117752857Y-88500000D01*
X117848095Y-88595238D01*
X117895714Y-88690476D01*
X117943333Y-88880952D01*
X117943333Y-89023809D01*
X117895714Y-89214285D01*
X117848095Y-89309523D01*
X117752857Y-89404761D01*
X117610000Y-89452380D01*
X117371904Y-89452380D01*
X118800476Y-88785714D02*
X118800476Y-89452380D01*
X118562380Y-88404761D02*
X118324285Y-89119047D01*
X118943333Y-89119047D01*
%TO.C,C10*%
X94177142Y-50172857D02*
X94224761Y-50220476D01*
X94272380Y-50363333D01*
X94272380Y-50458571D01*
X94224761Y-50601428D01*
X94129523Y-50696666D01*
X94034285Y-50744285D01*
X93843809Y-50791904D01*
X93700952Y-50791904D01*
X93510476Y-50744285D01*
X93415238Y-50696666D01*
X93320000Y-50601428D01*
X93272380Y-50458571D01*
X93272380Y-50363333D01*
X93320000Y-50220476D01*
X93367619Y-50172857D01*
X94272380Y-49220476D02*
X94272380Y-49791904D01*
X94272380Y-49506190D02*
X93272380Y-49506190D01*
X93415238Y-49601428D01*
X93510476Y-49696666D01*
X93558095Y-49791904D01*
X93272380Y-48601428D02*
X93272380Y-48506190D01*
X93320000Y-48410952D01*
X93367619Y-48363333D01*
X93462857Y-48315714D01*
X93653333Y-48268095D01*
X93891428Y-48268095D01*
X94081904Y-48315714D01*
X94177142Y-48363333D01*
X94224761Y-48410952D01*
X94272380Y-48506190D01*
X94272380Y-48601428D01*
X94224761Y-48696666D01*
X94177142Y-48744285D01*
X94081904Y-48791904D01*
X93891428Y-48839523D01*
X93653333Y-48839523D01*
X93462857Y-48791904D01*
X93367619Y-48744285D01*
X93320000Y-48696666D01*
X93272380Y-48601428D01*
%TO.C,R10*%
X140052380Y-90812857D02*
X139576190Y-91146190D01*
X140052380Y-91384285D02*
X139052380Y-91384285D01*
X139052380Y-91003333D01*
X139100000Y-90908095D01*
X139147619Y-90860476D01*
X139242857Y-90812857D01*
X139385714Y-90812857D01*
X139480952Y-90860476D01*
X139528571Y-90908095D01*
X139576190Y-91003333D01*
X139576190Y-91384285D01*
X140052380Y-89860476D02*
X140052380Y-90431904D01*
X140052380Y-90146190D02*
X139052380Y-90146190D01*
X139195238Y-90241428D01*
X139290476Y-90336666D01*
X139338095Y-90431904D01*
X139052380Y-89241428D02*
X139052380Y-89146190D01*
X139100000Y-89050952D01*
X139147619Y-89003333D01*
X139242857Y-88955714D01*
X139433333Y-88908095D01*
X139671428Y-88908095D01*
X139861904Y-88955714D01*
X139957142Y-89003333D01*
X140004761Y-89050952D01*
X140052380Y-89146190D01*
X140052380Y-89241428D01*
X140004761Y-89336666D01*
X139957142Y-89384285D01*
X139861904Y-89431904D01*
X139671428Y-89479523D01*
X139433333Y-89479523D01*
X139242857Y-89431904D01*
X139147619Y-89384285D01*
X139100000Y-89336666D01*
X139052380Y-89241428D01*
%TO.C,R16*%
X94607142Y-122472380D02*
X94273809Y-121996190D01*
X94035714Y-122472380D02*
X94035714Y-121472380D01*
X94416666Y-121472380D01*
X94511904Y-121520000D01*
X94559523Y-121567619D01*
X94607142Y-121662857D01*
X94607142Y-121805714D01*
X94559523Y-121900952D01*
X94511904Y-121948571D01*
X94416666Y-121996190D01*
X94035714Y-121996190D01*
X95559523Y-122472380D02*
X94988095Y-122472380D01*
X95273809Y-122472380D02*
X95273809Y-121472380D01*
X95178571Y-121615238D01*
X95083333Y-121710476D01*
X94988095Y-121758095D01*
X96416666Y-121472380D02*
X96226190Y-121472380D01*
X96130952Y-121520000D01*
X96083333Y-121567619D01*
X95988095Y-121710476D01*
X95940476Y-121900952D01*
X95940476Y-122281904D01*
X95988095Y-122377142D01*
X96035714Y-122424761D01*
X96130952Y-122472380D01*
X96321428Y-122472380D01*
X96416666Y-122424761D01*
X96464285Y-122377142D01*
X96511904Y-122281904D01*
X96511904Y-122043809D01*
X96464285Y-121948571D01*
X96416666Y-121900952D01*
X96321428Y-121853333D01*
X96130952Y-121853333D01*
X96035714Y-121900952D01*
X95988095Y-121948571D01*
X95940476Y-122043809D01*
%TO.C,TP4*%
X100338095Y-33884380D02*
X100909523Y-33884380D01*
X100623809Y-34884380D02*
X100623809Y-33884380D01*
X101242857Y-34884380D02*
X101242857Y-33884380D01*
X101623809Y-33884380D01*
X101719047Y-33932000D01*
X101766666Y-33979619D01*
X101814285Y-34074857D01*
X101814285Y-34217714D01*
X101766666Y-34312952D01*
X101719047Y-34360571D01*
X101623809Y-34408190D01*
X101242857Y-34408190D01*
X102671428Y-34217714D02*
X102671428Y-34884380D01*
X102433333Y-33836761D02*
X102195238Y-34551047D01*
X102814285Y-34551047D01*
%TO.C,J5*%
X164766666Y-56812380D02*
X164766666Y-57526666D01*
X164719047Y-57669523D01*
X164623809Y-57764761D01*
X164480952Y-57812380D01*
X164385714Y-57812380D01*
X165719047Y-56812380D02*
X165242857Y-56812380D01*
X165195238Y-57288571D01*
X165242857Y-57240952D01*
X165338095Y-57193333D01*
X165576190Y-57193333D01*
X165671428Y-57240952D01*
X165719047Y-57288571D01*
X165766666Y-57383809D01*
X165766666Y-57621904D01*
X165719047Y-57717142D01*
X165671428Y-57764761D01*
X165576190Y-57812380D01*
X165338095Y-57812380D01*
X165242857Y-57764761D01*
X165195238Y-57717142D01*
%TO.C,R8*%
X137712380Y-85256666D02*
X137236190Y-85590000D01*
X137712380Y-85828095D02*
X136712380Y-85828095D01*
X136712380Y-85447142D01*
X136760000Y-85351904D01*
X136807619Y-85304285D01*
X136902857Y-85256666D01*
X137045714Y-85256666D01*
X137140952Y-85304285D01*
X137188571Y-85351904D01*
X137236190Y-85447142D01*
X137236190Y-85828095D01*
X137140952Y-84685238D02*
X137093333Y-84780476D01*
X137045714Y-84828095D01*
X136950476Y-84875714D01*
X136902857Y-84875714D01*
X136807619Y-84828095D01*
X136760000Y-84780476D01*
X136712380Y-84685238D01*
X136712380Y-84494761D01*
X136760000Y-84399523D01*
X136807619Y-84351904D01*
X136902857Y-84304285D01*
X136950476Y-84304285D01*
X137045714Y-84351904D01*
X137093333Y-84399523D01*
X137140952Y-84494761D01*
X137140952Y-84685238D01*
X137188571Y-84780476D01*
X137236190Y-84828095D01*
X137331428Y-84875714D01*
X137521904Y-84875714D01*
X137617142Y-84828095D01*
X137664761Y-84780476D01*
X137712380Y-84685238D01*
X137712380Y-84494761D01*
X137664761Y-84399523D01*
X137617142Y-84351904D01*
X137521904Y-84304285D01*
X137331428Y-84304285D01*
X137236190Y-84351904D01*
X137188571Y-84399523D01*
X137140952Y-84494761D01*
%TO.C,R15*%
X94607142Y-125012380D02*
X94273809Y-124536190D01*
X94035714Y-125012380D02*
X94035714Y-124012380D01*
X94416666Y-124012380D01*
X94511904Y-124060000D01*
X94559523Y-124107619D01*
X94607142Y-124202857D01*
X94607142Y-124345714D01*
X94559523Y-124440952D01*
X94511904Y-124488571D01*
X94416666Y-124536190D01*
X94035714Y-124536190D01*
X95559523Y-125012380D02*
X94988095Y-125012380D01*
X95273809Y-125012380D02*
X95273809Y-124012380D01*
X95178571Y-124155238D01*
X95083333Y-124250476D01*
X94988095Y-124298095D01*
X96464285Y-124012380D02*
X95988095Y-124012380D01*
X95940476Y-124488571D01*
X95988095Y-124440952D01*
X96083333Y-124393333D01*
X96321428Y-124393333D01*
X96416666Y-124440952D01*
X96464285Y-124488571D01*
X96511904Y-124583809D01*
X96511904Y-124821904D01*
X96464285Y-124917142D01*
X96416666Y-124964761D01*
X96321428Y-125012380D01*
X96083333Y-125012380D01*
X95988095Y-124964761D01*
X95940476Y-124917142D01*
%TO.C,JP4*%
X89092380Y-40203333D02*
X89806666Y-40203333D01*
X89949523Y-40250952D01*
X90044761Y-40346190D01*
X90092380Y-40489047D01*
X90092380Y-40584285D01*
X90092380Y-39727142D02*
X89092380Y-39727142D01*
X89092380Y-39346190D01*
X89140000Y-39250952D01*
X89187619Y-39203333D01*
X89282857Y-39155714D01*
X89425714Y-39155714D01*
X89520952Y-39203333D01*
X89568571Y-39250952D01*
X89616190Y-39346190D01*
X89616190Y-39727142D01*
X89425714Y-38298571D02*
X90092380Y-38298571D01*
X89044761Y-38536666D02*
X89759047Y-38774761D01*
X89759047Y-38155714D01*
%TO.C,J6*%
X177462380Y-60023333D02*
X178176666Y-60023333D01*
X178319523Y-60070952D01*
X178414761Y-60166190D01*
X178462380Y-60309047D01*
X178462380Y-60404285D01*
X177462380Y-59118571D02*
X177462380Y-59309047D01*
X177510000Y-59404285D01*
X177557619Y-59451904D01*
X177700476Y-59547142D01*
X177890952Y-59594761D01*
X178271904Y-59594761D01*
X178367142Y-59547142D01*
X178414761Y-59499523D01*
X178462380Y-59404285D01*
X178462380Y-59213809D01*
X178414761Y-59118571D01*
X178367142Y-59070952D01*
X178271904Y-59023333D01*
X178033809Y-59023333D01*
X177938571Y-59070952D01*
X177890952Y-59118571D01*
X177843333Y-59213809D01*
X177843333Y-59404285D01*
X177890952Y-59499523D01*
X177938571Y-59547142D01*
X178033809Y-59594761D01*
%TO.C,D5*%
X184222380Y-102338095D02*
X183222380Y-102338095D01*
X183222380Y-102100000D01*
X183270000Y-101957142D01*
X183365238Y-101861904D01*
X183460476Y-101814285D01*
X183650952Y-101766666D01*
X183793809Y-101766666D01*
X183984285Y-101814285D01*
X184079523Y-101861904D01*
X184174761Y-101957142D01*
X184222380Y-102100000D01*
X184222380Y-102338095D01*
X183222380Y-100861904D02*
X183222380Y-101338095D01*
X183698571Y-101385714D01*
X183650952Y-101338095D01*
X183603333Y-101242857D01*
X183603333Y-101004761D01*
X183650952Y-100909523D01*
X183698571Y-100861904D01*
X183793809Y-100814285D01*
X184031904Y-100814285D01*
X184127142Y-100861904D01*
X184174761Y-100909523D01*
X184222380Y-101004761D01*
X184222380Y-101242857D01*
X184174761Y-101338095D01*
X184127142Y-101385714D01*
%TO.C,R11*%
X137712380Y-93352857D02*
X137236190Y-93686190D01*
X137712380Y-93924285D02*
X136712380Y-93924285D01*
X136712380Y-93543333D01*
X136760000Y-93448095D01*
X136807619Y-93400476D01*
X136902857Y-93352857D01*
X137045714Y-93352857D01*
X137140952Y-93400476D01*
X137188571Y-93448095D01*
X137236190Y-93543333D01*
X137236190Y-93924285D01*
X137712380Y-92400476D02*
X137712380Y-92971904D01*
X137712380Y-92686190D02*
X136712380Y-92686190D01*
X136855238Y-92781428D01*
X136950476Y-92876666D01*
X136998095Y-92971904D01*
X137712380Y-91448095D02*
X137712380Y-92019523D01*
X137712380Y-91733809D02*
X136712380Y-91733809D01*
X136855238Y-91829047D01*
X136950476Y-91924285D01*
X136998095Y-92019523D01*
%TO.C,R7*%
X115913333Y-95802380D02*
X115580000Y-95326190D01*
X115341904Y-95802380D02*
X115341904Y-94802380D01*
X115722857Y-94802380D01*
X115818095Y-94850000D01*
X115865714Y-94897619D01*
X115913333Y-94992857D01*
X115913333Y-95135714D01*
X115865714Y-95230952D01*
X115818095Y-95278571D01*
X115722857Y-95326190D01*
X115341904Y-95326190D01*
X116246666Y-94802380D02*
X116913333Y-94802380D01*
X116484761Y-95802380D01*
%TO.C,LED2*%
X90320952Y-108022380D02*
X89844761Y-108022380D01*
X89844761Y-107022380D01*
X90654285Y-107498571D02*
X90987619Y-107498571D01*
X91130476Y-108022380D02*
X90654285Y-108022380D01*
X90654285Y-107022380D01*
X91130476Y-107022380D01*
X91559047Y-108022380D02*
X91559047Y-107022380D01*
X91797142Y-107022380D01*
X91940000Y-107070000D01*
X92035238Y-107165238D01*
X92082857Y-107260476D01*
X92130476Y-107450952D01*
X92130476Y-107593809D01*
X92082857Y-107784285D01*
X92035238Y-107879523D01*
X91940000Y-107974761D01*
X91797142Y-108022380D01*
X91559047Y-108022380D01*
X92511428Y-107117619D02*
X92559047Y-107070000D01*
X92654285Y-107022380D01*
X92892380Y-107022380D01*
X92987619Y-107070000D01*
X93035238Y-107117619D01*
X93082857Y-107212857D01*
X93082857Y-107308095D01*
X93035238Y-107450952D01*
X92463809Y-108022380D01*
X93082857Y-108022380D01*
%TO.C,JP1*%
X94416666Y-87822380D02*
X94416666Y-88536666D01*
X94369047Y-88679523D01*
X94273809Y-88774761D01*
X94130952Y-88822380D01*
X94035714Y-88822380D01*
X94892857Y-88822380D02*
X94892857Y-87822380D01*
X95273809Y-87822380D01*
X95369047Y-87870000D01*
X95416666Y-87917619D01*
X95464285Y-88012857D01*
X95464285Y-88155714D01*
X95416666Y-88250952D01*
X95369047Y-88298571D01*
X95273809Y-88346190D01*
X94892857Y-88346190D01*
X96416666Y-88822380D02*
X95845238Y-88822380D01*
X96130952Y-88822380D02*
X96130952Y-87822380D01*
X96035714Y-87965238D01*
X95940476Y-88060476D01*
X95845238Y-88108095D01*
%TO.C,D1*%
X111021904Y-106402380D02*
X111021904Y-105402380D01*
X111260000Y-105402380D01*
X111402857Y-105450000D01*
X111498095Y-105545238D01*
X111545714Y-105640476D01*
X111593333Y-105830952D01*
X111593333Y-105973809D01*
X111545714Y-106164285D01*
X111498095Y-106259523D01*
X111402857Y-106354761D01*
X111260000Y-106402380D01*
X111021904Y-106402380D01*
X112545714Y-106402380D02*
X111974285Y-106402380D01*
X112260000Y-106402380D02*
X112260000Y-105402380D01*
X112164761Y-105545238D01*
X112069523Y-105640476D01*
X111974285Y-105688095D01*
%TO.C,Q1*%
X149764761Y-82407619D02*
X149669523Y-82360000D01*
X149574285Y-82264761D01*
X149431428Y-82121904D01*
X149336190Y-82074285D01*
X149240952Y-82074285D01*
X149288571Y-82312380D02*
X149193333Y-82264761D01*
X149098095Y-82169523D01*
X149050476Y-81979047D01*
X149050476Y-81645714D01*
X149098095Y-81455238D01*
X149193333Y-81360000D01*
X149288571Y-81312380D01*
X149479047Y-81312380D01*
X149574285Y-81360000D01*
X149669523Y-81455238D01*
X149717142Y-81645714D01*
X149717142Y-81979047D01*
X149669523Y-82169523D01*
X149574285Y-82264761D01*
X149479047Y-82312380D01*
X149288571Y-82312380D01*
X150669523Y-82312380D02*
X150098095Y-82312380D01*
X150383809Y-82312380D02*
X150383809Y-81312380D01*
X150288571Y-81455238D01*
X150193333Y-81550476D01*
X150098095Y-81598095D01*
%TO.C,R6*%
X115913333Y-99412380D02*
X115580000Y-98936190D01*
X115341904Y-99412380D02*
X115341904Y-98412380D01*
X115722857Y-98412380D01*
X115818095Y-98460000D01*
X115865714Y-98507619D01*
X115913333Y-98602857D01*
X115913333Y-98745714D01*
X115865714Y-98840952D01*
X115818095Y-98888571D01*
X115722857Y-98936190D01*
X115341904Y-98936190D01*
X116770476Y-98412380D02*
X116580000Y-98412380D01*
X116484761Y-98460000D01*
X116437142Y-98507619D01*
X116341904Y-98650476D01*
X116294285Y-98840952D01*
X116294285Y-99221904D01*
X116341904Y-99317142D01*
X116389523Y-99364761D01*
X116484761Y-99412380D01*
X116675238Y-99412380D01*
X116770476Y-99364761D01*
X116818095Y-99317142D01*
X116865714Y-99221904D01*
X116865714Y-98983809D01*
X116818095Y-98888571D01*
X116770476Y-98840952D01*
X116675238Y-98793333D01*
X116484761Y-98793333D01*
X116389523Y-98840952D01*
X116341904Y-98888571D01*
X116294285Y-98983809D01*
%TO.C,JP7*%
X186672380Y-94813333D02*
X187386666Y-94813333D01*
X187529523Y-94860952D01*
X187624761Y-94956190D01*
X187672380Y-95099047D01*
X187672380Y-95194285D01*
X187672380Y-94337142D02*
X186672380Y-94337142D01*
X186672380Y-93956190D01*
X186720000Y-93860952D01*
X186767619Y-93813333D01*
X186862857Y-93765714D01*
X187005714Y-93765714D01*
X187100952Y-93813333D01*
X187148571Y-93860952D01*
X187196190Y-93956190D01*
X187196190Y-94337142D01*
X186672380Y-93432380D02*
X186672380Y-92765714D01*
X187672380Y-93194285D01*
%TO.C,JP5*%
X91632380Y-85923333D02*
X92346666Y-85923333D01*
X92489523Y-85970952D01*
X92584761Y-86066190D01*
X92632380Y-86209047D01*
X92632380Y-86304285D01*
X92632380Y-85447142D02*
X91632380Y-85447142D01*
X91632380Y-85066190D01*
X91680000Y-84970952D01*
X91727619Y-84923333D01*
X91822857Y-84875714D01*
X91965714Y-84875714D01*
X92060952Y-84923333D01*
X92108571Y-84970952D01*
X92156190Y-85066190D01*
X92156190Y-85447142D01*
X91632380Y-83970952D02*
X91632380Y-84447142D01*
X92108571Y-84494761D01*
X92060952Y-84447142D01*
X92013333Y-84351904D01*
X92013333Y-84113809D01*
X92060952Y-84018571D01*
X92108571Y-83970952D01*
X92203809Y-83923333D01*
X92441904Y-83923333D01*
X92537142Y-83970952D01*
X92584761Y-84018571D01*
X92632380Y-84113809D01*
X92632380Y-84351904D01*
X92584761Y-84447142D01*
X92537142Y-84494761D01*
%TO.C,C6*%
X115767142Y-103531666D02*
X115814761Y-103579285D01*
X115862380Y-103722142D01*
X115862380Y-103817380D01*
X115814761Y-103960238D01*
X115719523Y-104055476D01*
X115624285Y-104103095D01*
X115433809Y-104150714D01*
X115290952Y-104150714D01*
X115100476Y-104103095D01*
X115005238Y-104055476D01*
X114910000Y-103960238D01*
X114862380Y-103817380D01*
X114862380Y-103722142D01*
X114910000Y-103579285D01*
X114957619Y-103531666D01*
X114862380Y-102674523D02*
X114862380Y-102865000D01*
X114910000Y-102960238D01*
X114957619Y-103007857D01*
X115100476Y-103103095D01*
X115290952Y-103150714D01*
X115671904Y-103150714D01*
X115767142Y-103103095D01*
X115814761Y-103055476D01*
X115862380Y-102960238D01*
X115862380Y-102769761D01*
X115814761Y-102674523D01*
X115767142Y-102626904D01*
X115671904Y-102579285D01*
X115433809Y-102579285D01*
X115338571Y-102626904D01*
X115290952Y-102674523D01*
X115243333Y-102769761D01*
X115243333Y-102960238D01*
X115290952Y-103055476D01*
X115338571Y-103103095D01*
X115433809Y-103150714D01*
%TO.C,J2*%
X185087380Y-77828333D02*
X185801666Y-77828333D01*
X185944523Y-77875952D01*
X186039761Y-77971190D01*
X186087380Y-78114047D01*
X186087380Y-78209285D01*
X185182619Y-77399761D02*
X185135000Y-77352142D01*
X185087380Y-77256904D01*
X185087380Y-77018809D01*
X185135000Y-76923571D01*
X185182619Y-76875952D01*
X185277857Y-76828333D01*
X185373095Y-76828333D01*
X185515952Y-76875952D01*
X186087380Y-77447380D01*
X186087380Y-76828333D01*
%TO.C,D2*%
X124771904Y-88622380D02*
X124771904Y-87622380D01*
X125010000Y-87622380D01*
X125152857Y-87670000D01*
X125248095Y-87765238D01*
X125295714Y-87860476D01*
X125343333Y-88050952D01*
X125343333Y-88193809D01*
X125295714Y-88384285D01*
X125248095Y-88479523D01*
X125152857Y-88574761D01*
X125010000Y-88622380D01*
X124771904Y-88622380D01*
X125724285Y-87717619D02*
X125771904Y-87670000D01*
X125867142Y-87622380D01*
X126105238Y-87622380D01*
X126200476Y-87670000D01*
X126248095Y-87717619D01*
X126295714Y-87812857D01*
X126295714Y-87908095D01*
X126248095Y-88050952D01*
X125676666Y-88622380D01*
X126295714Y-88622380D01*
%TO.C,R4*%
X116163333Y-99612380D02*
X115830000Y-99136190D01*
X115591904Y-99612380D02*
X115591904Y-98612380D01*
X115972857Y-98612380D01*
X116068095Y-98660000D01*
X116115714Y-98707619D01*
X116163333Y-98802857D01*
X116163333Y-98945714D01*
X116115714Y-99040952D01*
X116068095Y-99088571D01*
X115972857Y-99136190D01*
X115591904Y-99136190D01*
X117020476Y-98945714D02*
X117020476Y-99612380D01*
X116782380Y-98564761D02*
X116544285Y-99279047D01*
X117163333Y-99279047D01*
%TO.C,JP8*%
X93962380Y-75763333D02*
X94676666Y-75763333D01*
X94819523Y-75810952D01*
X94914761Y-75906190D01*
X94962380Y-76049047D01*
X94962380Y-76144285D01*
X94962380Y-75287142D02*
X93962380Y-75287142D01*
X93962380Y-74906190D01*
X94010000Y-74810952D01*
X94057619Y-74763333D01*
X94152857Y-74715714D01*
X94295714Y-74715714D01*
X94390952Y-74763333D01*
X94438571Y-74810952D01*
X94486190Y-74906190D01*
X94486190Y-75287142D01*
X94390952Y-74144285D02*
X94343333Y-74239523D01*
X94295714Y-74287142D01*
X94200476Y-74334761D01*
X94152857Y-74334761D01*
X94057619Y-74287142D01*
X94010000Y-74239523D01*
X93962380Y-74144285D01*
X93962380Y-73953809D01*
X94010000Y-73858571D01*
X94057619Y-73810952D01*
X94152857Y-73763333D01*
X94200476Y-73763333D01*
X94295714Y-73810952D01*
X94343333Y-73858571D01*
X94390952Y-73953809D01*
X94390952Y-74144285D01*
X94438571Y-74239523D01*
X94486190Y-74287142D01*
X94581428Y-74334761D01*
X94771904Y-74334761D01*
X94867142Y-74287142D01*
X94914761Y-74239523D01*
X94962380Y-74144285D01*
X94962380Y-73953809D01*
X94914761Y-73858571D01*
X94867142Y-73810952D01*
X94771904Y-73763333D01*
X94581428Y-73763333D01*
X94486190Y-73810952D01*
X94438571Y-73858571D01*
X94390952Y-73953809D01*
%TO.C,TP3*%
X116848095Y-82144380D02*
X117419523Y-82144380D01*
X117133809Y-83144380D02*
X117133809Y-82144380D01*
X117752857Y-83144380D02*
X117752857Y-82144380D01*
X118133809Y-82144380D01*
X118229047Y-82192000D01*
X118276666Y-82239619D01*
X118324285Y-82334857D01*
X118324285Y-82477714D01*
X118276666Y-82572952D01*
X118229047Y-82620571D01*
X118133809Y-82668190D01*
X117752857Y-82668190D01*
X118657619Y-82144380D02*
X119276666Y-82144380D01*
X118943333Y-82525333D01*
X119086190Y-82525333D01*
X119181428Y-82572952D01*
X119229047Y-82620571D01*
X119276666Y-82715809D01*
X119276666Y-82953904D01*
X119229047Y-83049142D01*
X119181428Y-83096761D01*
X119086190Y-83144380D01*
X118800476Y-83144380D01*
X118705238Y-83096761D01*
X118657619Y-83049142D01*
%TO.C,L1*%
X111593333Y-101892380D02*
X111117142Y-101892380D01*
X111117142Y-100892380D01*
X112450476Y-101892380D02*
X111879047Y-101892380D01*
X112164761Y-101892380D02*
X112164761Y-100892380D01*
X112069523Y-101035238D01*
X111974285Y-101130476D01*
X111879047Y-101178095D01*
%TO.C,R3*%
X106003333Y-104492380D02*
X105670000Y-104016190D01*
X105431904Y-104492380D02*
X105431904Y-103492380D01*
X105812857Y-103492380D01*
X105908095Y-103540000D01*
X105955714Y-103587619D01*
X106003333Y-103682857D01*
X106003333Y-103825714D01*
X105955714Y-103920952D01*
X105908095Y-103968571D01*
X105812857Y-104016190D01*
X105431904Y-104016190D01*
X106336666Y-103492380D02*
X106955714Y-103492380D01*
X106622380Y-103873333D01*
X106765238Y-103873333D01*
X106860476Y-103920952D01*
X106908095Y-103968571D01*
X106955714Y-104063809D01*
X106955714Y-104301904D01*
X106908095Y-104397142D01*
X106860476Y-104444761D01*
X106765238Y-104492380D01*
X106479523Y-104492380D01*
X106384285Y-104444761D01*
X106336666Y-104397142D01*
%TO.C,C7*%
X91273333Y-131327142D02*
X91225714Y-131374761D01*
X91082857Y-131422380D01*
X90987619Y-131422380D01*
X90844761Y-131374761D01*
X90749523Y-131279523D01*
X90701904Y-131184285D01*
X90654285Y-130993809D01*
X90654285Y-130850952D01*
X90701904Y-130660476D01*
X90749523Y-130565238D01*
X90844761Y-130470000D01*
X90987619Y-130422380D01*
X91082857Y-130422380D01*
X91225714Y-130470000D01*
X91273333Y-130517619D01*
X91606666Y-130422380D02*
X92273333Y-130422380D01*
X91844761Y-131422380D01*
%TO.C,R2*%
X93262380Y-109386666D02*
X92786190Y-109720000D01*
X93262380Y-109958095D02*
X92262380Y-109958095D01*
X92262380Y-109577142D01*
X92310000Y-109481904D01*
X92357619Y-109434285D01*
X92452857Y-109386666D01*
X92595714Y-109386666D01*
X92690952Y-109434285D01*
X92738571Y-109481904D01*
X92786190Y-109577142D01*
X92786190Y-109958095D01*
X92357619Y-109005714D02*
X92310000Y-108958095D01*
X92262380Y-108862857D01*
X92262380Y-108624761D01*
X92310000Y-108529523D01*
X92357619Y-108481904D01*
X92452857Y-108434285D01*
X92548095Y-108434285D01*
X92690952Y-108481904D01*
X93262380Y-109053333D01*
X93262380Y-108434285D01*
D12*
%TO.C,C9*%
X92175000Y-49791252D02*
X92175000Y-49268748D01*
X90705000Y-49791252D02*
X90705000Y-49268748D01*
%TO.C,C8*%
X95985000Y-35821252D02*
X95985000Y-35298748D01*
X94515000Y-35821252D02*
X94515000Y-35298748D01*
D13*
%TO.C,A1*%
X89790000Y-35560000D02*
G75*
G03*
X89790000Y-35560000I-100000J0D01*
G01*
D12*
%TO.C,D3*%
X141280000Y-86775000D02*
X143200000Y-86775000D01*
X141280000Y-84090000D02*
X141280000Y-86775000D01*
X143200000Y-86775000D02*
X143200000Y-84090000D01*
%TO.C,TP2*%
X127480000Y-85090000D02*
G75*
G03*
X127480000Y-85090000I-1750000J0D01*
G01*
%TO.C,R12*%
X140613641Y-95630000D02*
X140306359Y-95630000D01*
X140613641Y-94870000D02*
X140306359Y-94870000D01*
%TO.C,C2*%
X102234420Y-102360000D02*
X102515580Y-102360000D01*
X102234420Y-103380000D02*
X102515580Y-103380000D01*
%TO.C,R14*%
X142620000Y-90016359D02*
X142620000Y-90323641D01*
X141860000Y-90016359D02*
X141860000Y-90323641D01*
%TO.C,R19*%
X92863641Y-71500000D02*
X92556359Y-71500000D01*
X92863641Y-70740000D02*
X92556359Y-70740000D01*
D13*
%TO.C,IC2*%
X92090000Y-125930000D02*
X91640000Y-126380000D01*
X91640000Y-126380000D02*
X90790000Y-126380000D01*
X90790000Y-125080000D02*
X92090000Y-125080000D01*
X92090000Y-125080000D02*
X92090000Y-125930000D01*
X90790000Y-126380000D02*
X90790000Y-125080000D01*
X92190000Y-126380000D02*
G75*
G03*
X92190000Y-126380000I-100000J0D01*
G01*
D12*
%TO.C,JP2*%
X185720000Y-82680000D02*
X185120000Y-82680000D01*
X186420000Y-80580000D02*
X186420000Y-81980000D01*
X184420000Y-81980000D02*
X184420000Y-80580000D01*
X185120000Y-79880000D02*
X185720000Y-79880000D01*
X186420000Y-80580000D02*
G75*
G03*
X185720000Y-79880000I-699999J1D01*
G01*
X184420000Y-81980000D02*
G75*
G03*
X185120000Y-82680000I699999J-1D01*
G01*
X185720000Y-82680000D02*
G75*
G03*
X186420000Y-81980000I1J699999D01*
G01*
X185120000Y-79880000D02*
G75*
G03*
X184420000Y-80580000I-1J-699999D01*
G01*
%TO.C,JP3*%
X93930000Y-128540000D02*
X95330000Y-128540000D01*
X95330000Y-130540000D02*
X93930000Y-130540000D01*
X96030000Y-129240000D02*
X96030000Y-129840000D01*
X93230000Y-129840000D02*
X93230000Y-129240000D01*
X95330000Y-130540000D02*
G75*
G03*
X96030000Y-129840000I1J699999D01*
G01*
X96030000Y-129240000D02*
G75*
G03*
X95330000Y-128540000I-699999J1D01*
G01*
X93230000Y-129840000D02*
G75*
G03*
X93930000Y-130540000I699999J-1D01*
G01*
X93930000Y-128540000D02*
G75*
G03*
X93230000Y-129240000I-1J-699999D01*
G01*
%TO.C,TP1*%
X119860000Y-107950000D02*
G75*
G03*
X119860000Y-107950000I-1750000J0D01*
G01*
D14*
%TO.C,U2*%
X119920000Y-63485000D02*
X123920000Y-63485000D01*
X119920000Y-58435000D02*
X123920000Y-58435000D01*
D13*
X117575000Y-58455000D02*
G75*
G03*
X117575000Y-58455000I-100000J0D01*
G01*
D12*
%TO.C,J7*%
X88750000Y-94300000D02*
X89150000Y-94300000D01*
X91120000Y-94300000D02*
X93100000Y-94300000D01*
X89150000Y-101820000D02*
X88750000Y-101820000D01*
X93100000Y-94300000D02*
X93100000Y-94720000D01*
X91120000Y-101820000D02*
X93100000Y-101820000D01*
X93330000Y-96300000D02*
X93780000Y-96300000D01*
X93780000Y-96750000D02*
X93780000Y-96300000D01*
X93100000Y-101820000D02*
X93100000Y-101400000D01*
D13*
%TO.C,IC1*%
X112085000Y-100510000D02*
X111435000Y-100510000D01*
X113585000Y-100660000D02*
X112435000Y-100660000D01*
X111435000Y-100510000D02*
X111435000Y-97610000D01*
X112085000Y-97610000D02*
X112085000Y-100510000D01*
X111435000Y-97610000D02*
X112085000Y-97610000D01*
D12*
%TO.C,JP6*%
X89870000Y-83690000D02*
X90470000Y-83690000D01*
X89170000Y-85790000D02*
X89170000Y-84390000D01*
X90470000Y-86490000D02*
X89870000Y-86490000D01*
X91170000Y-84390000D02*
X91170000Y-85790000D01*
X89870000Y-83690000D02*
G75*
G03*
X89170000Y-84390000I-1J-699999D01*
G01*
X89170000Y-85790000D02*
G75*
G03*
X89870000Y-86490000I699999J-1D01*
G01*
X91170000Y-84390000D02*
G75*
G03*
X90470000Y-83690000I-699999J1D01*
G01*
X90470000Y-86490000D02*
G75*
G03*
X91170000Y-85790000I1J699999D01*
G01*
%TO.C,C5*%
X119915000Y-103131252D02*
X119915000Y-102608748D01*
X121385000Y-103131252D02*
X121385000Y-102608748D01*
%TO.C,BT1*%
X182150000Y-35280000D02*
X104870000Y-35280000D01*
X187260000Y-39720000D02*
X184760000Y-39720000D01*
X182150000Y-56160000D02*
X104870000Y-56160000D01*
X182150000Y-49160000D02*
X182150000Y-56160000D01*
X101010000Y-40970000D02*
X101010000Y-38470000D01*
X104870000Y-35280000D02*
X104870000Y-42280000D01*
X99760000Y-39720000D02*
X102260000Y-39720000D01*
X104870000Y-42280000D02*
X100510000Y-42280000D01*
X104870000Y-56160000D02*
X104870000Y-49160000D01*
X182150000Y-42280000D02*
X182150000Y-35300000D01*
%TO.C,J4*%
X181595000Y-126940000D02*
X100255000Y-126940000D01*
X184195000Y-126940000D02*
X184195000Y-128270000D01*
X182865000Y-126940000D02*
X184195000Y-126940000D01*
X100255000Y-126940000D02*
X100255000Y-129600000D01*
X181595000Y-129600000D02*
X100255000Y-129600000D01*
X181595000Y-126940000D02*
X181595000Y-129600000D01*
%TO.C,R17*%
X94870000Y-38706359D02*
X94870000Y-39013641D01*
X95630000Y-38706359D02*
X95630000Y-39013641D01*
%TO.C,LED1*%
X89755000Y-104450000D02*
X89755000Y-106370000D01*
X89755000Y-106370000D02*
X92440000Y-106370000D01*
X92440000Y-104450000D02*
X89755000Y-104450000D01*
%TO.C,J3*%
X181595000Y-116805000D02*
X181595000Y-119465000D01*
X184195000Y-119465000D02*
X182865000Y-119465000D01*
X181595000Y-119465000D02*
X100255000Y-119465000D01*
X100255000Y-116805000D02*
X100255000Y-119465000D01*
X184195000Y-118135000D02*
X184195000Y-119465000D01*
X181595000Y-116805000D02*
X100255000Y-116805000D01*
%TO.C,C4*%
X105428748Y-98325000D02*
X105951252Y-98325000D01*
X105428748Y-99795000D02*
X105951252Y-99795000D01*
%TO.C,R13*%
X142620000Y-92556359D02*
X142620000Y-92863641D01*
X141860000Y-92556359D02*
X141860000Y-92863641D01*
%TO.C,C1*%
X92075580Y-112270000D02*
X91794420Y-112270000D01*
X92075580Y-111250000D02*
X91794420Y-111250000D01*
%TO.C,C11*%
X91178748Y-56415000D02*
X91701252Y-56415000D01*
X91178748Y-57885000D02*
X91701252Y-57885000D01*
%TO.C,R9*%
X138810000Y-87783641D02*
X138810000Y-87476359D01*
X138050000Y-87783641D02*
X138050000Y-87476359D01*
%TO.C,D6*%
X89210000Y-70120000D02*
X89210000Y-72805000D01*
X89210000Y-72805000D02*
X91130000Y-72805000D01*
X91130000Y-72805000D02*
X91130000Y-70120000D01*
%TO.C,R5*%
X120043641Y-98170000D02*
X119736359Y-98170000D01*
X120043641Y-97410000D02*
X119736359Y-97410000D01*
%TO.C,J1*%
X181595000Y-65980000D02*
X100255000Y-65980000D01*
X181595000Y-65980000D02*
X181595000Y-68640000D01*
X182865000Y-65980000D02*
X184195000Y-65980000D01*
X181595000Y-68640000D02*
X100255000Y-68640000D01*
X100255000Y-65980000D02*
X100255000Y-68640000D01*
X184195000Y-65980000D02*
X184195000Y-67310000D01*
%TO.C,TP5*%
X110970000Y-59690000D02*
G75*
G03*
X110970000Y-59690000I-1750000J0D01*
G01*
%TO.C,C3*%
X102234420Y-99570000D02*
X102515580Y-99570000D01*
X102234420Y-98550000D02*
X102515580Y-98550000D01*
%TO.C,R1*%
X94360000Y-105563641D02*
X94360000Y-105256359D01*
X93600000Y-105563641D02*
X93600000Y-105256359D01*
%TO.C,R18*%
X185800000Y-97433641D02*
X185800000Y-97126359D01*
X185040000Y-97433641D02*
X185040000Y-97126359D01*
D14*
%TO.C,U1*%
X106140000Y-110500000D02*
X102140000Y-110500000D01*
X106140000Y-105400000D02*
X102140000Y-105400000D01*
D13*
X108685000Y-110455000D02*
G75*
G03*
X108685000Y-110455000I-100000J0D01*
G01*
D12*
%TO.C,U3*%
X97790000Y-53360000D02*
X99740000Y-53360000D01*
X97790000Y-63480000D02*
X95840000Y-63480000D01*
X97790000Y-63480000D02*
X99740000Y-63480000D01*
X97790000Y-53360000D02*
X94340000Y-53360000D01*
D15*
%TO.C,D4*%
X117070000Y-90170000D02*
G75*
G03*
X117070000Y-90170000I-50000J0D01*
G01*
D12*
%TO.C,C10*%
X94740000Y-49670580D02*
X94740000Y-49389420D01*
X95760000Y-49670580D02*
X95760000Y-49389420D01*
%TO.C,R10*%
X138810000Y-90016359D02*
X138810000Y-90323641D01*
X138050000Y-90016359D02*
X138050000Y-90323641D01*
%TO.C,R16*%
X95096359Y-123570000D02*
X95403641Y-123570000D01*
X95096359Y-122810000D02*
X95403641Y-122810000D01*
%TO.C,TP4*%
X103350000Y-36830000D02*
G75*
G03*
X103350000Y-36830000I-1750000J0D01*
G01*
%TO.C,J5*%
X163770000Y-59690000D02*
X163770000Y-58360000D01*
X163770000Y-63560000D02*
X166430000Y-63560000D01*
X163770000Y-58360000D02*
X165100000Y-58360000D01*
X163770000Y-60960000D02*
X163770000Y-63560000D01*
X166430000Y-60960000D02*
X166430000Y-63560000D01*
X163770000Y-60960000D02*
X166430000Y-60960000D01*
%TO.C,R8*%
X138050000Y-85243641D02*
X138050000Y-84936359D01*
X138810000Y-85243641D02*
X138810000Y-84936359D01*
%TO.C,R15*%
X95096359Y-125350000D02*
X95403641Y-125350000D01*
X95096359Y-126110000D02*
X95403641Y-126110000D01*
%TO.C,JP4*%
X90440000Y-40070000D02*
X90440000Y-38670000D01*
X92440000Y-38670000D02*
X92440000Y-40070000D01*
X91740000Y-40770000D02*
X91140000Y-40770000D01*
X91140000Y-37970000D02*
X91740000Y-37970000D01*
X91740000Y-40770000D02*
G75*
G03*
X92440000Y-40070000I1J699999D01*
G01*
X91140000Y-37970000D02*
G75*
G03*
X90440000Y-38670000I-1J-699999D01*
G01*
X92440000Y-38670000D02*
G75*
G03*
X91740000Y-37970000I-699999J1D01*
G01*
X90440000Y-40070000D02*
G75*
G03*
X91140000Y-40770000I699999J-1D01*
G01*
%TO.C,J6*%
X180340000Y-61020000D02*
X179010000Y-61020000D01*
X181610000Y-61020000D02*
X181610000Y-58360000D01*
X179010000Y-61020000D02*
X179010000Y-59690000D01*
X181610000Y-58360000D02*
X184210000Y-58360000D01*
X181610000Y-61020000D02*
X184210000Y-61020000D01*
X184210000Y-61020000D02*
X184210000Y-58360000D01*
%TO.C,D5*%
X184460000Y-100600000D02*
X184460000Y-103285000D01*
X184460000Y-103285000D02*
X186380000Y-103285000D01*
X186380000Y-103285000D02*
X186380000Y-100600000D01*
%TO.C,R11*%
X138810000Y-92863641D02*
X138810000Y-92556359D01*
X138050000Y-92863641D02*
X138050000Y-92556359D01*
%TO.C,R7*%
X115926359Y-96140000D02*
X116233641Y-96140000D01*
X115926359Y-96900000D02*
X116233641Y-96900000D01*
%TO.C,LED2*%
X92440000Y-108260000D02*
X89755000Y-108260000D01*
X89755000Y-108260000D02*
X89755000Y-110180000D01*
X89755000Y-110180000D02*
X92440000Y-110180000D01*
%TO.C,JP1*%
X95950000Y-91170000D02*
X94550000Y-91170000D01*
X94550000Y-89170000D02*
X95950000Y-89170000D01*
X96650000Y-89870000D02*
X96650000Y-90470000D01*
X93850000Y-90470000D02*
X93850000Y-89870000D01*
X94550000Y-89170000D02*
G75*
G03*
X93850000Y-89870000I-1J-699999D01*
G01*
X96650000Y-89870000D02*
G75*
G03*
X95950000Y-89170000I-699999J1D01*
G01*
X95950000Y-91170000D02*
G75*
G03*
X96650000Y-90470000I1J699999D01*
G01*
X93850000Y-90470000D02*
G75*
G03*
X94550000Y-91170000I699999J-1D01*
G01*
%TO.C,D1*%
X109510000Y-106950000D02*
X109510000Y-108950000D01*
X109510000Y-106950000D02*
X113410000Y-106950000D01*
X109510000Y-108950000D02*
X113410000Y-108950000D01*
%TO.C,Q1*%
X151770000Y-89770000D02*
X151770000Y-88510000D01*
X148010000Y-89770000D02*
X151770000Y-89770000D01*
X151770000Y-82950000D02*
X151770000Y-84210000D01*
X145760000Y-82950000D02*
X151770000Y-82950000D01*
%TO.C,R6*%
X116233641Y-97410000D02*
X115926359Y-97410000D01*
X116233641Y-98170000D02*
X115926359Y-98170000D01*
%TO.C,JP7*%
X184420000Y-94680000D02*
X184420000Y-93280000D01*
X185720000Y-95380000D02*
X185120000Y-95380000D01*
X185120000Y-92580000D02*
X185720000Y-92580000D01*
X186420000Y-93280000D02*
X186420000Y-94680000D01*
X184420000Y-94680000D02*
G75*
G03*
X185120000Y-95380000I699999J-1D01*
G01*
X185120000Y-92580000D02*
G75*
G03*
X184420000Y-93280000I-1J-699999D01*
G01*
X186420000Y-93280000D02*
G75*
G03*
X185720000Y-92580000I-699999J1D01*
G01*
X185720000Y-95380000D02*
G75*
G03*
X186420000Y-94680000I1J699999D01*
G01*
%TO.C,JP5*%
X92980000Y-85790000D02*
X92980000Y-84390000D01*
X93680000Y-83690000D02*
X94280000Y-83690000D01*
X94280000Y-86490000D02*
X93680000Y-86490000D01*
X94980000Y-84390000D02*
X94980000Y-85790000D01*
X94980000Y-84390000D02*
G75*
G03*
X94280000Y-83690000I-699999J1D01*
G01*
X94280000Y-86490000D02*
G75*
G03*
X94980000Y-85790000I1J699999D01*
G01*
X92980000Y-85790000D02*
G75*
G03*
X93680000Y-86490000I699999J-1D01*
G01*
X93680000Y-83690000D02*
G75*
G03*
X92980000Y-84390000I-1J-699999D01*
G01*
%TO.C,C6*%
X116330000Y-103505580D02*
X116330000Y-103224420D01*
X117350000Y-103505580D02*
X117350000Y-103224420D01*
%TO.C,J2*%
X181595000Y-78825000D02*
X100255000Y-78825000D01*
X181595000Y-76165000D02*
X100255000Y-76165000D01*
X184195000Y-78825000D02*
X182865000Y-78825000D01*
X181595000Y-76165000D02*
X181595000Y-78825000D01*
X100255000Y-76165000D02*
X100255000Y-78825000D01*
X184195000Y-77495000D02*
X184195000Y-78825000D01*
%TO.C,D2*%
X123260000Y-89170000D02*
X127160000Y-89170000D01*
X123260000Y-89170000D02*
X123260000Y-91170000D01*
X123260000Y-91170000D02*
X127160000Y-91170000D01*
%TO.C,R4*%
X116176359Y-99950000D02*
X116483641Y-99950000D01*
X116176359Y-100710000D02*
X116483641Y-100710000D01*
%TO.C,JP8*%
X93710000Y-74230000D02*
X93710000Y-75630000D01*
X91710000Y-75630000D02*
X91710000Y-74230000D01*
X93010000Y-76330000D02*
X92410000Y-76330000D01*
X92410000Y-73530000D02*
X93010000Y-73530000D01*
X91710000Y-75630000D02*
G75*
G03*
X92410000Y-76330000I699999J-1D01*
G01*
X93710000Y-74230000D02*
G75*
G03*
X93010000Y-73530000I-699999J1D01*
G01*
X93010000Y-76330000D02*
G75*
G03*
X93710000Y-75630000I1J699999D01*
G01*
X92410000Y-73530000D02*
G75*
G03*
X91710000Y-74230000I-1J-699999D01*
G01*
%TO.C,TP3*%
X119860000Y-85090000D02*
G75*
G03*
X119860000Y-85090000I-1750000J0D01*
G01*
%TO.C,L1*%
X111597221Y-102360000D02*
X111922779Y-102360000D01*
X111597221Y-103380000D02*
X111922779Y-103380000D01*
%TO.C,R3*%
X106323641Y-102490000D02*
X106016359Y-102490000D01*
X106323641Y-103250000D02*
X106016359Y-103250000D01*
%TO.C,C7*%
X91580580Y-130050000D02*
X91299420Y-130050000D01*
X91580580Y-129030000D02*
X91299420Y-129030000D01*
%TO.C,R2*%
X93600000Y-109373641D02*
X93600000Y-109066359D01*
X94360000Y-109373641D02*
X94360000Y-109066359D01*
%TD*%
%LPC*%
D16*
%TO.C,C9*%
X91440000Y-50480000D03*
X91440000Y-48580000D03*
%TD*%
%TO.C,C8*%
X95250000Y-36510000D03*
X95250000Y-34610000D03*
%TD*%
D17*
%TO.C,A1*%
X90690000Y-35560000D03*
X92190000Y-35560000D03*
%TD*%
D18*
%TO.C,D3*%
X142240000Y-86027500D03*
X142240000Y-84152500D03*
%TD*%
D19*
%TO.C,TP2*%
X125730000Y-85090000D03*
%TD*%
D20*
%TO.C,R12*%
X140970000Y-95250000D03*
X139950000Y-95250000D03*
%TD*%
D21*
%TO.C,C2*%
X101600000Y-102870000D03*
X103150000Y-102870000D03*
%TD*%
D22*
%TO.C,R14*%
X142240000Y-89660000D03*
X142240000Y-90680000D03*
%TD*%
D20*
%TO.C,R19*%
X93220000Y-71120000D03*
X92200000Y-71120000D03*
%TD*%
D23*
%TO.C,IC2*%
X91640000Y-125930000D03*
X91240000Y-125930000D03*
X91640000Y-125530000D03*
X91240000Y-125530000D03*
%TD*%
D24*
%TO.C,JP2*%
X185420000Y-80630000D03*
D25*
X185420000Y-81930000D03*
%TD*%
D26*
%TO.C,JP3*%
X93980000Y-129540000D03*
D27*
X95280000Y-129540000D03*
%TD*%
D19*
%TO.C,TP1*%
X118110000Y-107950000D03*
%TD*%
D28*
%TO.C,U2*%
X119445000Y-59055000D03*
X119445000Y-60325000D03*
X119445000Y-61595000D03*
X119445000Y-62865000D03*
X124395000Y-62865000D03*
X124395000Y-61595000D03*
X124395000Y-60325000D03*
X124395000Y-59055000D03*
%TD*%
D29*
%TO.C,J7*%
X92840000Y-96760000D03*
X92840000Y-97410000D03*
X92840000Y-98060000D03*
X92840000Y-98710000D03*
X92840000Y-99360000D03*
D30*
X92840000Y-100560000D03*
D31*
X90140000Y-95160000D03*
D32*
X90140000Y-97060000D03*
X90140000Y-99060000D03*
D33*
X90140000Y-101560000D03*
D30*
X92840000Y-95560000D03*
D33*
X90140000Y-94560000D03*
D31*
X90140000Y-100960000D03*
%TD*%
D34*
%TO.C,IC1*%
X113010000Y-100010000D03*
X113010000Y-99060000D03*
X113010000Y-98110000D03*
X110510000Y-98110000D03*
X110510000Y-99060000D03*
X110510000Y-100010000D03*
%TD*%
D35*
%TO.C,JP6*%
X90170000Y-85740000D03*
D36*
X90170000Y-84440000D03*
%TD*%
D16*
%TO.C,C5*%
X120650000Y-103820000D03*
X120650000Y-101920000D03*
%TD*%
D37*
%TO.C,BT1*%
X115910000Y-53720000D03*
D38*
X107580000Y-37720000D03*
D37*
X171110000Y-37720000D03*
D39*
X104180000Y-45720000D03*
X182840000Y-45720000D03*
%TD*%
D40*
%TO.C,J4*%
X182865000Y-128270000D03*
D41*
X180325000Y-128270000D03*
X177785000Y-128270000D03*
X175245000Y-128270000D03*
X172705000Y-128270000D03*
X170165000Y-128270000D03*
X167625000Y-128270000D03*
X165085000Y-128270000D03*
X162545000Y-128270000D03*
X160005000Y-128270000D03*
X157465000Y-128270000D03*
X154925000Y-128270000D03*
X152385000Y-128270000D03*
X149845000Y-128270000D03*
X147305000Y-128270000D03*
X144765000Y-128270000D03*
X142225000Y-128270000D03*
X139685000Y-128270000D03*
X137145000Y-128270000D03*
X134605000Y-128270000D03*
X132065000Y-128270000D03*
X129525000Y-128270000D03*
X126985000Y-128270000D03*
X124445000Y-128270000D03*
X121905000Y-128270000D03*
X119365000Y-128270000D03*
X116825000Y-128270000D03*
X114285000Y-128270000D03*
X111745000Y-128270000D03*
X109205000Y-128270000D03*
X106665000Y-128270000D03*
X104125000Y-128270000D03*
X101585000Y-128270000D03*
%TD*%
D22*
%TO.C,R17*%
X95250000Y-38350000D03*
X95250000Y-39370000D03*
%TD*%
D42*
%TO.C,LED1*%
X90502500Y-105410000D03*
X92377500Y-105410000D03*
%TD*%
D40*
%TO.C,J3*%
X182865000Y-118135000D03*
D41*
X180325000Y-118135000D03*
X177785000Y-118135000D03*
X175245000Y-118135000D03*
X172705000Y-118135000D03*
X170165000Y-118135000D03*
X167625000Y-118135000D03*
X165085000Y-118135000D03*
X162545000Y-118135000D03*
X160005000Y-118135000D03*
X157465000Y-118135000D03*
X154925000Y-118135000D03*
X152385000Y-118135000D03*
X149845000Y-118135000D03*
X147305000Y-118135000D03*
X144765000Y-118135000D03*
X142225000Y-118135000D03*
X139685000Y-118135000D03*
X137145000Y-118135000D03*
X134605000Y-118135000D03*
X132065000Y-118135000D03*
X129525000Y-118135000D03*
X126985000Y-118135000D03*
X124445000Y-118135000D03*
X121905000Y-118135000D03*
X119365000Y-118135000D03*
X116825000Y-118135000D03*
X114285000Y-118135000D03*
X111745000Y-118135000D03*
X109205000Y-118135000D03*
X106665000Y-118135000D03*
X104125000Y-118135000D03*
X101585000Y-118135000D03*
%TD*%
D43*
%TO.C,C4*%
X104740000Y-99060000D03*
X106640000Y-99060000D03*
%TD*%
D22*
%TO.C,R13*%
X142240000Y-92200000D03*
X142240000Y-93220000D03*
%TD*%
D44*
%TO.C,C1*%
X92710000Y-111760000D03*
X91160000Y-111760000D03*
%TD*%
D43*
%TO.C,C11*%
X90490000Y-57150000D03*
X92390000Y-57150000D03*
%TD*%
D45*
%TO.C,R9*%
X138430000Y-88140000D03*
X138430000Y-87120000D03*
%TD*%
D18*
%TO.C,D6*%
X90170000Y-72057500D03*
X90170000Y-70182500D03*
%TD*%
D20*
%TO.C,R5*%
X120400000Y-97790000D03*
X119380000Y-97790000D03*
%TD*%
D40*
%TO.C,J1*%
X182865000Y-67310000D03*
D41*
X180325000Y-67310000D03*
X177785000Y-67310000D03*
X175245000Y-67310000D03*
X172705000Y-67310000D03*
X170165000Y-67310000D03*
X167625000Y-67310000D03*
X165085000Y-67310000D03*
X162545000Y-67310000D03*
X160005000Y-67310000D03*
X157465000Y-67310000D03*
X154925000Y-67310000D03*
X152385000Y-67310000D03*
X149845000Y-67310000D03*
X147305000Y-67310000D03*
X144765000Y-67310000D03*
X142225000Y-67310000D03*
X139685000Y-67310000D03*
X137145000Y-67310000D03*
X134605000Y-67310000D03*
X132065000Y-67310000D03*
X129525000Y-67310000D03*
X126985000Y-67310000D03*
X124445000Y-67310000D03*
X121905000Y-67310000D03*
X119365000Y-67310000D03*
X116825000Y-67310000D03*
X114285000Y-67310000D03*
X111745000Y-67310000D03*
X109205000Y-67310000D03*
X106665000Y-67310000D03*
X104125000Y-67310000D03*
X101585000Y-67310000D03*
%TD*%
D19*
%TO.C,TP5*%
X109220000Y-59690000D03*
%TD*%
D21*
%TO.C,C3*%
X101600000Y-99060000D03*
X103150000Y-99060000D03*
%TD*%
D45*
%TO.C,R1*%
X93980000Y-105920000D03*
X93980000Y-104900000D03*
%TD*%
%TO.C,R18*%
X185420000Y-97790000D03*
X185420000Y-96770000D03*
%TD*%
D46*
%TO.C,U1*%
X106615000Y-109855000D03*
X106615000Y-108585000D03*
X106615000Y-107315000D03*
X106615000Y-106045000D03*
X101665000Y-106045000D03*
X101665000Y-107315000D03*
X101665000Y-108585000D03*
X101665000Y-109855000D03*
D47*
X104140000Y-107950000D03*
%TD*%
D48*
%TO.C,U3*%
X100265000Y-53975000D03*
X100265000Y-55245000D03*
X100265000Y-56515000D03*
X100265000Y-57785000D03*
X100265000Y-59055000D03*
X100265000Y-60325000D03*
X100265000Y-61595000D03*
X100265000Y-62865000D03*
X95315000Y-62865000D03*
X95315000Y-61595000D03*
X95315000Y-60325000D03*
X95315000Y-59055000D03*
X95315000Y-57785000D03*
X95315000Y-56515000D03*
X95315000Y-55245000D03*
X95315000Y-53975000D03*
%TD*%
D49*
%TO.C,D4*%
X117625000Y-90170000D03*
X118595000Y-90170000D03*
%TD*%
D50*
%TO.C,C10*%
X95250000Y-50305000D03*
X95250000Y-48755000D03*
%TD*%
D22*
%TO.C,R10*%
X138430000Y-89660000D03*
X138430000Y-90680000D03*
%TD*%
D51*
%TO.C,R16*%
X94740000Y-123190000D03*
X95760000Y-123190000D03*
%TD*%
D19*
%TO.C,TP4*%
X101600000Y-36830000D03*
%TD*%
D40*
%TO.C,J5*%
X165100000Y-59690000D03*
D41*
X165100000Y-62230000D03*
%TD*%
D45*
%TO.C,R8*%
X138430000Y-85600000D03*
X138430000Y-84580000D03*
%TD*%
D51*
%TO.C,R15*%
X94740000Y-125730000D03*
X95760000Y-125730000D03*
%TD*%
D35*
%TO.C,JP4*%
X91440000Y-40020000D03*
D36*
X91440000Y-38720000D03*
%TD*%
D40*
%TO.C,J6*%
X180340000Y-59690000D03*
D41*
X182880000Y-59690000D03*
%TD*%
D18*
%TO.C,D5*%
X185420000Y-102537500D03*
X185420000Y-100662500D03*
%TD*%
D45*
%TO.C,R11*%
X138430000Y-93220000D03*
X138430000Y-92200000D03*
%TD*%
D51*
%TO.C,R7*%
X115570000Y-96520000D03*
X116590000Y-96520000D03*
%TD*%
D42*
%TO.C,LED2*%
X90502500Y-109220000D03*
X92377500Y-109220000D03*
%TD*%
D26*
%TO.C,JP1*%
X94600000Y-90170000D03*
D27*
X95900000Y-90170000D03*
%TD*%
D52*
%TO.C,D1*%
X110110000Y-107950000D03*
X113410000Y-107950000D03*
%TD*%
D53*
%TO.C,Q1*%
X146710000Y-84060000D03*
X146710000Y-86360000D03*
X146710000Y-88660000D03*
D54*
X153010000Y-86360000D03*
%TD*%
D20*
%TO.C,R6*%
X116590000Y-97790000D03*
X115570000Y-97790000D03*
%TD*%
D24*
%TO.C,JP7*%
X185420000Y-93330000D03*
D25*
X185420000Y-94630000D03*
%TD*%
D35*
%TO.C,JP5*%
X93980000Y-85740000D03*
D36*
X93980000Y-84440000D03*
%TD*%
D50*
%TO.C,C6*%
X116840000Y-104140000D03*
X116840000Y-102590000D03*
%TD*%
D40*
%TO.C,J2*%
X182865000Y-77495000D03*
D41*
X180325000Y-77495000D03*
X177785000Y-77495000D03*
X175245000Y-77495000D03*
X172705000Y-77495000D03*
X170165000Y-77495000D03*
X167625000Y-77495000D03*
X165085000Y-77495000D03*
X162545000Y-77495000D03*
X160005000Y-77495000D03*
X157465000Y-77495000D03*
X154925000Y-77495000D03*
X152385000Y-77495000D03*
X149845000Y-77495000D03*
X147305000Y-77495000D03*
X144765000Y-77495000D03*
X142225000Y-77495000D03*
X139685000Y-77495000D03*
X137145000Y-77495000D03*
X134605000Y-77495000D03*
X132065000Y-77495000D03*
X129525000Y-77495000D03*
X126985000Y-77495000D03*
X124445000Y-77495000D03*
X121905000Y-77495000D03*
X119365000Y-77495000D03*
X116825000Y-77495000D03*
X114285000Y-77495000D03*
X111745000Y-77495000D03*
X109205000Y-77495000D03*
X106665000Y-77495000D03*
X104125000Y-77495000D03*
X101585000Y-77495000D03*
%TD*%
D52*
%TO.C,D2*%
X123860000Y-90170000D03*
X127160000Y-90170000D03*
%TD*%
D51*
%TO.C,R4*%
X115820000Y-100330000D03*
X116840000Y-100330000D03*
%TD*%
D24*
%TO.C,JP8*%
X92710000Y-74280000D03*
D25*
X92710000Y-75580000D03*
%TD*%
D19*
%TO.C,TP3*%
X118110000Y-85090000D03*
%TD*%
D55*
%TO.C,L1*%
X110972500Y-102870000D03*
X112547500Y-102870000D03*
%TD*%
D20*
%TO.C,R3*%
X106680000Y-102870000D03*
X105660000Y-102870000D03*
%TD*%
D44*
%TO.C,C7*%
X92215000Y-129540000D03*
X90665000Y-129540000D03*
%TD*%
D45*
%TO.C,R2*%
X93980000Y-109730000D03*
X93980000Y-108710000D03*
%TD*%
M02*
