(module "BGA4C40P2X2_76X76X62" (layer F.Cu)
  (descr "YFF0004_")
  (tags "Integrated Circuit")
  (attr smd)
  (fp_text reference IC** (at 0 0) (layer F.SilkS)
    (effects (font (size 1.27 1.27) (thickness 0.254)))
  )
  (fp_text user %R (at 0 0) (layer F.Fab)
    (effects (font (size 1.27 1.27) (thickness 0.254)))
  )
  (fp_text value "BGA4C40P2X2_76X76X62" (at 0 0) (layer F.SilkS) hide
    (effects (font (size 1.27 1.27) (thickness 0.254)))
  )
  (fp_line (start -1.395 -1.395) (end 1.395 -1.395) (layer F.CrtYd) (width 0.05))
  (fp_line (start 1.395 -1.395) (end 1.395 1.395) (layer F.CrtYd) (width 0.05))
  (fp_line (start 1.395 1.395) (end -1.395 1.395) (layer F.CrtYd) (width 0.05))
  (fp_line (start -1.395 1.395) (end -1.395 -1.395) (layer F.CrtYd) (width 0.05))
  (fp_line (start -0.38 -0.38) (end 0.38 -0.38) (layer F.Fab) (width 0.1))
  (fp_line (start 0.38 -0.38) (end 0.38 0.38) (layer F.Fab) (width 0.1))
  (fp_line (start 0.38 0.38) (end -0.38 0.38) (layer F.Fab) (width 0.1))
  (fp_line (start -0.38 0.38) (end -0.38 -0.38) (layer F.Fab) (width 0.1))
  (fp_line (start -0.38 -0.182) (end -0.182 -0.38) (layer F.Fab) (width 0.1))
  (fp_line (start -0.2 -0.65) (end 0.65 -0.65) (layer F.SilkS) (width 0.2))
  (fp_line (start 0.65 -0.65) (end 0.65 0.65) (layer F.SilkS) (width 0.2))
  (fp_line (start 0.65 0.65) (end -0.65 0.65) (layer F.SilkS) (width 0.2))
  (fp_line (start -0.65 0.65) (end -0.65 -0.2) (layer F.SilkS) (width 0.2))
  (fp_line (start -0.65 -0.2) (end -0.2 -0.65) (layer F.SilkS) (width 0.2))
  (fp_circle (center -0.65 -0.65) (end -0.65 -0.55) (layer F.SilkS) (width 0.2))
  (pad A1 smd circle (at -0.2 -0.2 90) (size 0.2 0.2) (layers F.Cu F.Paste F.Mask))
  (pad A2 smd circle (at 0.2 -0.2 90) (size 0.2 0.2) (layers F.Cu F.Paste F.Mask))
  (pad B1 smd circle (at -0.2 0.2 90) (size 0.2 0.2) (layers F.Cu F.Paste F.Mask))
  (pad B2 smd circle (at 0.2 0.2 90) (size 0.2 0.2) (layers F.Cu F.Paste F.Mask))
  (model TMP103FYFFT.stp
    (at (xyz 0 0 0))
    (scale (xyz 1 1 1))
    (rotate (xyz 0 0 0))
  )
)
