
(module BAT_1042 (layer F.Cu) (tedit 62346834)
  (descr "")
  (fp_text reference REF** (at -34.73635 -11.53881 0) (layer F.SilkS)
    (effects (font (size 1.00033070866 1.00033070866) (thickness 0.15)))
  )
  (fp_text value BAT_1042 (at -32.95932 11.57884 0) (layer F.Fab)
    (effects (font (size 1.00119685039 1.00119685039) (thickness 0.15)))
  )
  (pad - smd rect (at -39.33 0.0) (size 7.35 6.35) (layers F.Cu F.Mask F.Paste))
  (pad + smd rect (at 39.33 0.0) (size 7.35 6.35) (layers F.Cu F.Mask F.Paste))
  (pad P$1 thru_hole circle (at -27.6 8.0) (size 4.466 4.466) (drill 3.45) (layers *.Cu *.Mask))
  (pad P$2 thru_hole circle (at 27.6 -8.0) (size 4.466 4.466) (drill 3.45) (layers *.Cu *.Mask))
  (pad P$3 thru_hole circle (at 35.93 8.0) (size 3.406 3.406) (drill 2.39) (layers *.Cu *.Mask))
  (fp_line (start -38.525 -10.325) (end 38.525 -10.325) (layer F.SilkS) (width 0.127))
  (fp_line (start 38.525 -10.325) (end 38.525 10.325) (layer F.Fab) (width 0.127))
  (fp_line (start 38.525 10.325) (end -38.525 10.325) (layer F.SilkS) (width 0.127))
  (fp_line (start -38.525 10.325) (end -38.525 -10.325) (layer F.Fab) (width 0.127))
  (fp_poly
    (pts
      (xy 36.807 -2.2)
      (xy 42.2 -2.2)
      (xy 42.2 2.40046)
      (xy 36.807 2.40046)
    ) (layer F.Fab) (width 0.01)
  )
  (fp_poly
    (pts
      (xy -42.2464 -2.2)
      (xy -36.4 -2.2)
      (xy -36.4 2.40264)
      (xy -42.2464 2.40264)
    ) (layer F.Fab) (width 0.01)
  )
  (fp_line (start -29.4 -3.0) (end -29.4 3.5) (layer F.Fab) (width 0.127))
  (fp_line (start -29.4 3.5) (end 30.5 3.5) (layer F.Fab) (width 0.127))
  (fp_line (start 30.5 3.5) (end 30.5 -3.0) (layer F.Fab) (width 0.127))
  (fp_line (start 30.5 -3.0) (end -29.4 -3.0) (layer F.Fab) (width 0.127))
  (fp_line (start -43.3 -3.4) (end -38.9 -3.4) (layer F.CrtYd) (width 0.127))
  (fp_line (start -38.9 -3.4) (end -38.9 -10.6) (layer F.CrtYd) (width 0.127))
  (fp_line (start -38.9 -10.6) (end 38.9 -10.6) (layer F.CrtYd) (width 0.127))
  (fp_line (start 38.9 -10.6) (end 38.9 -3.5) (layer F.CrtYd) (width 0.127))
  (fp_line (start 38.9 -3.5) (end 43.3 -3.5) (layer F.CrtYd) (width 0.127))
  (fp_line (start 43.3 -3.5) (end 43.3 3.5) (layer F.CrtYd) (width 0.127))
  (fp_line (start 43.3 3.5) (end 38.8 3.5) (layer F.CrtYd) (width 0.127))
  (fp_line (start 38.8 3.5) (end 38.8 10.6) (layer F.CrtYd) (width 0.127))
  (fp_line (start 38.8 10.6) (end -38.8 10.6) (layer F.CrtYd) (width 0.127))
  (fp_line (start -38.8 10.6) (end -38.8 3.4) (layer F.CrtYd) (width 0.127))
  (fp_line (start -38.8 3.4) (end -43.3 3.4) (layer F.CrtYd) (width 0.127))
  (fp_line (start -43.3 3.4) (end -43.3 -3.4) (layer F.CrtYd) (width 0.127))
)