
(module XDCR_ALS-PT19-315C/L177/TR8 (layer F.Cu) (tedit 625C5CDF)
  (descr "")
  (fp_text reference REF** (at 0.032 -1.4064 0) (layer F.SilkS)
    (effects (font (size 0.64 0.64) (thickness 0.15)))
  )
  (fp_text value XDCR_ALS-PT19-315C/L177/TR8 (at 8.9728 1.4064 0) (layer F.Fab)
    (effects (font (size 0.64 0.64) (thickness 0.15)))
  )
  (pad 1 smd rect (at -0.75 0.0) (size 0.8 0.8) (layers F.Cu F.Mask F.Paste))
  (pad 2 smd rect (at 0.75 0.0) (size 0.8 0.8) (layers F.Cu F.Mask F.Paste))
  (fp_line (start -0.85 0.4) (end 0.85 0.4) (layer F.Fab) (width 0.127))
  (fp_line (start 0.85 -0.4) (end -0.85 -0.4) (layer F.Fab) (width 0.127))
  (fp_line (start -0.85 -0.4) (end -0.85 0.4) (layer F.Fab) (width 0.127))
  (fp_line (start 0.85 0.4) (end 0.85 -0.4) (layer F.Fab) (width 0.127))
  (fp_line (start -1.4 -0.65) (end -1.4 0.65) (layer F.CrtYd) (width 0.05))
  (fp_line (start -1.4 0.65) (end 1.4 0.65) (layer F.CrtYd) (width 0.05))
  (fp_line (start 1.4 0.65) (end 1.4 -0.65) (layer F.CrtYd) (width 0.05))
  (fp_line (start 1.4 -0.65) (end -1.4 -0.65) (layer F.CrtYd) (width 0.05))
  (fp_circle (center -1.75 0.0) (end -1.65 0.0) (layer F.SilkS) (width 0.2))
  (fp_circle (center -1.75 0.0) (end -1.65 0.0) (layer F.Fab) (width 0.2))
)