PCBNEW-LibModule-V1  2022-02-20 17:59:04
# encoding utf-8
Units mm
$INDEX
SOIC127P600X175-8N
$EndINDEX
$MODULE SOIC127P600X175-8N
Po 0 0 0 15 62128168 00000000 ~~
Li SOIC127P600X175-8N
Cd D
Kw Integrated Circuit
Sc 0
At SMD
AR 
Op 0 0 0
T0 0 0 1.27 1.27 0 0.254 N V 21 N "IC**"
T1 0 0 1.27 1.27 0 0.254 N I 21 N "SOIC127P600X175-8N"
DS -3.725 -2.75 3.725 -2.75 0.05 24
DS 3.725 -2.75 3.725 2.75 0.05 24
DS 3.725 2.75 -3.725 2.75 0.05 24
DS -3.725 2.75 -3.725 -2.75 0.05 24
DS -1.948 -2.452 1.948 -2.452 0.1 24
DS 1.948 -2.452 1.948 2.452 0.1 24
DS 1.948 2.452 -1.948 2.452 0.1 24
DS -1.948 2.452 -1.948 -2.452 0.1 24
DS -1.948 -1.182 -0.678 -2.452 0.1 24
DS -1.598 -2.452 1.598 -2.452 0.2 21
DS 1.598 -2.452 1.598 2.452 0.2 21
DS 1.598 2.452 -1.598 2.452 0.2 21
DS -1.598 2.452 -1.598 -2.452 0.2 21
DS -3.475 -2.58 -1.948 -2.58 0.2 21
$PAD
Po -2.711 -1.905
Sh "1" R 0.65 1.528 0 0 900
At SMD N 00888000
Ne 0 ""
$EndPAD
$PAD
Po -2.711 -0.635
Sh "2" R 0.65 1.528 0 0 900
At SMD N 00888000
Ne 0 ""
$EndPAD
$PAD
Po -2.711 0.635
Sh "3" R 0.65 1.528 0 0 900
At SMD N 00888000
Ne 0 ""
$EndPAD
$PAD
Po -2.711 1.905
Sh "4" R 0.65 1.528 0 0 900
At SMD N 00888000
Ne 0 ""
$EndPAD
$PAD
Po 2.711 1.905
Sh "5" R 0.65 1.528 0 0 900
At SMD N 00888000
Ne 0 ""
$EndPAD
$PAD
Po 2.711 0.635
Sh "6" R 0.65 1.528 0 0 900
At SMD N 00888000
Ne 0 ""
$EndPAD
$PAD
Po 2.711 -0.635
Sh "7" R 0.65 1.528 0 0 900
At SMD N 00888000
Ne 0 ""
$EndPAD
$PAD
Po 2.711 -1.905
Sh "8" R 0.65 1.528 0 0 900
At SMD N 00888000
Ne 0 ""
$EndPAD
$EndMODULE SOIC127P600X175-8N
$EndLIBRARY
