PCBNEW-LibModule-V1  2022-03-17 15:16:24
# encoding utf-8
Units mm
$INDEX
BGA4C40P2X2_76X76X62
$EndINDEX
$MODULE BGA4C40P2X2_76X76X62
Po 0 0 0 15 623350c8 00000000 ~~
Li BGA4C40P2X2_76X76X62
Cd YFF0004_
Kw Integrated Circuit
Sc 0
At SMD
AR 
Op 0 0 0
T0 0 0 1.27 1.27 0 0.254 N V 21 N "IC**"
T1 0 0 1.27 1.27 0 0.254 N I 21 N "BGA4C40P2X2_76X76X62"
DS -1.395 -1.395 1.395 -1.395 0.05 24
DS 1.395 -1.395 1.395 1.395 0.05 24
DS 1.395 1.395 -1.395 1.395 0.05 24
DS -1.395 1.395 -1.395 -1.395 0.05 24
DS -0.38 -0.38 0.38 -0.38 0.1 24
DS 0.38 -0.38 0.38 0.38 0.1 24
DS 0.38 0.38 -0.38 0.38 0.1 24
DS -0.38 0.38 -0.38 -0.38 0.1 24
DS -0.38 -0.182 -0.182 -0.38 0.1 24
DS -0.2 -0.65 0.65 -0.65 0.2 21
DS 0.65 -0.65 0.65 0.65 0.2 21
DS 0.65 0.65 -0.65 0.65 0.2 21
DS -0.65 0.65 -0.65 -0.2 0.2 21
DS -0.65 -0.2 -0.2 -0.65 0.2 21
DC -0.65 -0.65 -0.55 -0.65 0.254 21
$PAD
Po -0.2 -0.2
Sh "A1" C 0.2 0.2 0 0 900
At SMD N 00888000
Ne 0 ""
$EndPAD
$PAD
Po 0.2 -0.2
Sh "A2" C 0.2 0.2 0 0 900
At SMD N 00888000
Ne 0 ""
$EndPAD
$PAD
Po -0.2 0.2
Sh "B1" C 0.2 0.2 0 0 900
At SMD N 00888000
Ne 0 ""
$EndPAD
$PAD
Po 0.2 0.2
Sh "B2" C 0.2 0.2 0 0 900
At SMD N 00888000
Ne 0 ""
$EndPAD
$EndMODULE BGA4C40P2X2_76X76X62
$EndLIBRARY
