PCBNEW-LibModule-V1  2022-03-18 11:59:41
# encoding utf-8
Units mm
$INDEX
SOT95P280X145-6N
$EndINDEX
$MODULE SOT95P280X145-6N
Po 0 0 0 15 6234742d 00000000 ~~
Li SOT95P280X145-6N
Cd FP6291LR-G1
Kw Integrated Circuit
Sc 0
At SMD
AR 
Op 0 0 0
T0 0 0 1.27 1.27 0 0.254 N V 21 N "IC**"
T1 0 0 1.27 1.27 0 0.254 N I 21 N "SOT95P280X145-6N"
DS -2.075 -1.7 2.075 -1.7 0.05 24
DS 2.075 -1.7 2.075 1.7 0.05 24
DS 2.075 1.7 -2.075 1.7 0.05 24
DS -2.075 1.7 -2.075 -1.7 0.05 24
DS -0.8 -1.45 0.8 -1.45 0.1 24
DS 0.8 -1.45 0.8 1.45 0.1 24
DS 0.8 1.45 -0.8 1.45 0.1 24
DS -0.8 1.45 -0.8 -1.45 0.1 24
DS -0.8 -0.5 0.15 -1.45 0.1 24
DS -0.325 -1.45 0.325 -1.45 0.2 21
DS 0.325 -1.45 0.325 1.45 0.2 21
DS 0.325 1.45 -0.325 1.45 0.2 21
DS -0.325 1.45 -0.325 -1.45 0.2 21
DS -1.825 -1.6 -0.675 -1.6 0.2 21
$PAD
Po -1.25 -0.95
Sh "1" R 0.6 1.15 0 0 900
At SMD N 00888000
Ne 0 ""
$EndPAD
$PAD
Po -1.25 0
Sh "2" R 0.6 1.15 0 0 900
At SMD N 00888000
Ne 0 ""
$EndPAD
$PAD
Po -1.25 0.95
Sh "3" R 0.6 1.15 0 0 900
At SMD N 00888000
Ne 0 ""
$EndPAD
$PAD
Po 1.25 0.95
Sh "4" R 0.6 1.15 0 0 900
At SMD N 00888000
Ne 0 ""
$EndPAD
$PAD
Po 1.25 0
Sh "5" R 0.6 1.15 0 0 900
At SMD N 00888000
Ne 0 ""
$EndPAD
$PAD
Po 1.25 -0.95
Sh "6" R 0.6 1.15 0 0 900
At SMD N 00888000
Ne 0 ""
$EndPAD
$EndMODULE SOT95P280X145-6N
$EndLIBRARY
