%!PS-Adobe-3.0
%%Creator: PCBNEW
%%CreationDate: Mon Apr 11 22:09:58 2022
%%Title: ()
%%Pages: 1
%%PageOrder: Ascend
%%BoundingBox: 0 0 596 842
%%DocumentMedia: A4 595 842 0 () ()
%%Orientation: Landscape
%%EndComments
%%BeginProlog
/line { newpath moveto lineto stroke } bind def
/cir0 { newpath 0 360 arc stroke } bind def
/cir1 { newpath 0 360 arc gsave fill grestore stroke } bind def
/cir2 { newpath 0 360 arc gsave fill grestore stroke } bind def
/arc0 { newpath arc stroke } bind def
/arc1 { newpath 4 index 4 index moveto arc closepath gsave fill
    grestore stroke } bind def
/arc2 { newpath 4 index 4 index moveto arc closepath gsave fill
    grestore stroke } bind def
/poly0 { stroke } bind def
/poly1 { closepath gsave fill grestore stroke } bind def
/poly2 { closepath gsave fill grestore stroke } bind def
/rect0 { rectstroke } bind def
/rect1 { rectfill } bind def
/rect2 { rectfill } bind def
/linemode0 { 0 setlinecap 0 setlinejoin 0 setlinewidth } bind def
/linemode1 { 1 setlinecap 1 setlinejoin } bind def
/dashedline { [200] 100 setdash } bind def
/solidline { [] 0 setdash } bind def
/phantomshow { moveto
    /KicadFont findfont 0.000001 scalefont setfont
    show } bind def
/textshow { gsave
    findfont exch scalefont setfont concat 1 scale 0 0 moveto show
    } bind def
/reencodefont {
  findfont dup length dict begin
  { 1 index /FID ne
    { def }
    { pop pop } ifelse
  } forall
  /Encoding ISOLatin1Encoding def
  currentdict
  end } bind def
/KicadFont /Helvetica reencodefont definefont pop
/KicadFont-Bold /Helvetica-Bold reencodefont definefont pop
/KicadFont-Oblique /Helvetica-Oblique reencodefont definefont pop
/KicadFont-BoldOblique /Helvetica-BoldOblique reencodefont definefont pop
%%EndProlog
%%Page: 1 1
%%BeginPageSetup
gsave
0.0072 0.0072 scale
linemode1
82680 0 translate 90 rotate
236.22 setlinewidth
%%EndPageSetup
236.22 setlinewidth
282.283 setlinewidth
newpath
184117 14736.2 moveto
186939 11913.4 lineto
stroke
newpath
186939 14736.2 moveto
184117 11913.4 lineto
stroke
407.48 setlinewidth
195367 -5572.82 2037.4 cir0
260563 13324.8 2037.4 cir0
236.22 setlinewidth
78.7406 setlinewidth
0 0 0 setrgbcolor
0 0 0 setrgbcolor
newpath
59479.2 56653.7 moveto
59479.2 57441.1 lineto
59666.7 57441.1 lineto
59779.2 57403.6 lineto
59854.2 57328.6 lineto
59891.7 57253.6 lineto
59929.2 57103.6 lineto
59929.2 56991.1 lineto
59891.7 56841.1 lineto
59854.2 56766.1 lineto
59779.2 56691.1 lineto
59666.7 56653.7 lineto
59479.2 56653.7 lineto
stroke
newpath
60266.7 56653.7 moveto
60266.7 57178.6 lineto
stroke
newpath
60266.7 57028.6 moveto
60304.1 57103.6 lineto
60341.6 57141.1 lineto
60416.6 57178.6 lineto
60491.6 57178.6 lineto
stroke
newpath
60754.1 56653.7 moveto
60754.1 57178.6 lineto
stroke
newpath
60754.1 57441.1 moveto
60716.6 57403.6 lineto
60754.1 57366.1 lineto
60791.6 57403.6 lineto
60754.1 57441.1 lineto
60754.1 57366.1 lineto
stroke
newpath
61241.5 56653.7 moveto
61166.5 56691.1 lineto
61129 56766.1 lineto
61129 57441.1 lineto
stroke
newpath
61654 56653.7 moveto
61579 56691.1 lineto
61541.5 56766.1 lineto
61541.5 57441.1 lineto
stroke
newpath
62553.9 56653.7 moveto
62553.9 57441.1 lineto
62816.3 56878.6 lineto
63078.8 57441.1 lineto
63078.8 56653.7 lineto
stroke
newpath
63791.2 56653.7 moveto
63791.2 57066.1 lineto
63753.7 57141.1 lineto
63678.7 57178.6 lineto
63528.7 57178.6 lineto
63453.8 57141.1 lineto
stroke
newpath
63791.2 56691.1 moveto
63716.2 56653.7 lineto
63528.7 56653.7 lineto
63453.8 56691.1 lineto
63416.3 56766.1 lineto
63416.3 56841.1 lineto
63453.8 56916.1 lineto
63528.7 56953.6 lineto
63716.2 56953.6 lineto
63791.2 56991.1 lineto
stroke
newpath
64166.2 57178.6 moveto
64166.2 56391.2 lineto
stroke
newpath
64166.2 57141.1 moveto
64241.2 57178.6 lineto
64391.1 57178.6 lineto
64466.1 57141.1 lineto
64503.6 57103.6 lineto
64541.1 57028.6 lineto
64541.1 56803.6 lineto
64503.6 56728.6 lineto
64466.1 56691.1 lineto
64391.1 56653.7 lineto
64241.2 56653.7 lineto
64166.2 56691.1 lineto
stroke
newpath
64878.6 56728.6 moveto
64916.1 56691.1 lineto
64878.6 56653.7 lineto
64841.1 56691.1 lineto
64878.6 56728.6 lineto
64878.6 56653.7 lineto
stroke
newpath
64878.6 57141.1 moveto
64916.1 57103.6 lineto
64878.6 57066.1 lineto
64841.1 57103.6 lineto
64878.6 57141.1 lineto
64878.6 57066.1 lineto
stroke
78.7394 setlinewidth
newpath
57677.6 55750 moveto
58465 54962.6 lineto
stroke
newpath
58465 55750 moveto
57677.6 54962.6 lineto
stroke
236.22 setlinewidth
78.7406 setlinewidth
0 0 0 setrgbcolor
0 0 0 setrgbcolor
newpath
59441.8 55712.5 moveto
59479.2 55750 lineto
59554.2 55787.5 lineto
59741.7 55787.5 lineto
59816.7 55750 lineto
59854.2 55712.5 lineto
59891.7 55637.5 lineto
59891.7 55562.5 lineto
59854.2 55450.1 lineto
59404.3 55000.1 lineto
59891.7 55000.1 lineto
stroke
newpath
60229.2 55075.1 moveto
60266.7 55037.6 lineto
60229.2 55000.1 lineto
60191.7 55037.6 lineto
60229.2 55075.1 lineto
60229.2 55000.1 lineto
stroke
newpath
60529.1 55787.5 moveto
61016.6 55787.5 lineto
60754.1 55487.5 lineto
60866.6 55487.5 lineto
60941.6 55450.1 lineto
60979.1 55412.6 lineto
61016.6 55337.6 lineto
61016.6 55150.1 lineto
60979.1 55075.1 lineto
60941.6 55037.6 lineto
60866.6 55000.1 lineto
60641.6 55000.1 lineto
60566.6 55037.6 lineto
60529.1 55075.1 lineto
stroke
newpath
61391.5 55000.1 moveto
61541.5 55000.1 lineto
61616.5 55037.6 lineto
61654 55075.1 lineto
61729 55187.6 lineto
61766.5 55337.6 lineto
61766.5 55637.5 lineto
61729 55712.5 lineto
61691.5 55750 lineto
61616.5 55787.5 lineto
61466.5 55787.5 lineto
61391.5 55750 lineto
61354 55712.5 lineto
61316.5 55637.5 lineto
61316.5 55450.1 lineto
61354 55375.1 lineto
61391.5 55337.6 lineto
61466.5 55300.1 lineto
61616.5 55300.1 lineto
61691.5 55337.6 lineto
61729 55375.1 lineto
61766.5 55450.1 lineto
stroke
newpath
62253.9 55787.5 moveto
62328.9 55787.5 lineto
62403.9 55750 lineto
62441.4 55712.5 lineto
62478.9 55637.5 lineto
62516.4 55487.5 lineto
62516.4 55300.1 lineto
62478.9 55150.1 lineto
62441.4 55075.1 lineto
62403.9 55037.6 lineto
62328.9 55000.1 lineto
62253.9 55000.1 lineto
62178.9 55037.6 lineto
62141.4 55075.1 lineto
62103.9 55150.1 lineto
62066.4 55300.1 lineto
62066.4 55487.5 lineto
62103.9 55637.5 lineto
62141.4 55712.5 lineto
62178.9 55750 lineto
62253.9 55787.5 lineto
stroke
newpath
62853.8 55000.1 moveto
62853.8 55525 lineto
stroke
newpath
62853.8 55450.1 moveto
62891.3 55487.5 lineto
62966.3 55525 lineto
63078.8 55525 lineto
63153.8 55487.5 lineto
63191.3 55412.6 lineto
63191.3 55000.1 lineto
stroke
newpath
63191.3 55412.6 moveto
63228.8 55487.5 lineto
63303.8 55525 lineto
63416.3 55525 lineto
63491.2 55487.5 lineto
63528.7 55412.6 lineto
63528.7 55000.1 lineto
stroke
newpath
63903.7 55000.1 moveto
63903.7 55525 lineto
stroke
newpath
63903.7 55450.1 moveto
63941.2 55487.5 lineto
64016.2 55525 lineto
64128.7 55525 lineto
64203.7 55487.5 lineto
64241.2 55412.6 lineto
64241.2 55000.1 lineto
stroke
newpath
64241.2 55412.6 moveto
64278.7 55487.5 lineto
64353.6 55525 lineto
64466.1 55525 lineto
64541.1 55487.5 lineto
64578.6 55412.6 lineto
64578.6 55000.1 lineto
stroke
newpath
66115.9 55825 moveto
65441 54812.6 lineto
stroke
newpath
67128.3 55787.5 moveto
67203.3 55787.5 lineto
67278.3 55750 lineto
67315.8 55712.5 lineto
67353.3 55637.5 lineto
67390.8 55487.5 lineto
67390.8 55300.1 lineto
67353.3 55150.1 lineto
67315.8 55075.1 lineto
67278.3 55037.6 lineto
67203.3 55000.1 lineto
67128.3 55000.1 lineto
67053.3 55037.6 lineto
67015.8 55075.1 lineto
66978.3 55150.1 lineto
66940.8 55300.1 lineto
66940.8 55487.5 lineto
66978.3 55637.5 lineto
67015.8 55712.5 lineto
67053.3 55750 lineto
67128.3 55787.5 lineto
stroke
newpath
67728.2 55075.1 moveto
67765.7 55037.6 lineto
67728.2 55000.1 lineto
67690.7 55037.6 lineto
67728.2 55075.1 lineto
67728.2 55000.1 lineto
stroke
newpath
68253.2 55787.5 moveto
68328.1 55787.5 lineto
68403.1 55750 lineto
68440.6 55712.5 lineto
68478.1 55637.5 lineto
68515.6 55487.5 lineto
68515.6 55300.1 lineto
68478.1 55150.1 lineto
68440.6 55075.1 lineto
68403.1 55037.6 lineto
68328.1 55000.1 lineto
68253.2 55000.1 lineto
68178.2 55037.6 lineto
68140.7 55075.1 lineto
68103.2 55150.1 lineto
68065.7 55300.1 lineto
68065.7 55487.5 lineto
68103.2 55637.5 lineto
68140.7 55712.5 lineto
68178.2 55750 lineto
68253.2 55787.5 lineto
stroke
newpath
68890.6 55000.1 moveto
69040.6 55000.1 lineto
69115.5 55037.6 lineto
69153 55075.1 lineto
69228 55187.6 lineto
69265.5 55337.6 lineto
69265.5 55637.5 lineto
69228 55712.5 lineto
69190.5 55750 lineto
69115.5 55787.5 lineto
68965.6 55787.5 lineto
68890.6 55750 lineto
68853.1 55712.5 lineto
68815.6 55637.5 lineto
68815.6 55450.1 lineto
68853.1 55375.1 lineto
68890.6 55337.6 lineto
68965.6 55300.1 lineto
69115.5 55300.1 lineto
69190.5 55337.6 lineto
69228 55375.1 lineto
69265.5 55450.1 lineto
stroke
newpath
69940.4 55525 moveto
69940.4 55000.1 lineto
stroke
newpath
69753 55825 moveto
69565.5 55262.6 lineto
70052.9 55262.6 lineto
stroke
newpath
70765.3 55000.1 moveto
70315.4 55000.1 lineto
stroke
newpath
70540.4 55000.1 moveto
70540.4 55787.5 lineto
70465.4 55675 lineto
70390.4 55600 lineto
70315.4 55562.5 lineto
stroke
newpath
71065.3 55787.5 moveto
71065.3 55637.5 lineto
stroke
newpath
71365.3 55787.5 moveto
71365.3 55637.5 lineto
stroke
newpath
72527.6 54700.1 moveto
72490.1 54737.6 lineto
72415.1 54850.1 lineto
72377.6 54925.1 lineto
72340.1 55037.6 lineto
72302.7 55225.1 lineto
72302.7 55375.1 lineto
72340.1 55562.5 lineto
72377.6 55675 lineto
72415.1 55750 lineto
72490.1 55862.5 lineto
72527.6 55900 lineto
stroke
newpath
73240 55000.1 moveto
72790.1 55000.1 lineto
stroke
newpath
73015.1 55000.1 moveto
73015.1 55787.5 lineto
72940.1 55675 lineto
72865.1 55600 lineto
72790.1 55562.5 lineto
stroke
newpath
74177.4 55000.1 moveto
74177.4 55787.5 lineto
stroke
newpath
74514.9 55000.1 moveto
74514.9 55412.6 lineto
74477.4 55487.5 lineto
74402.4 55525 lineto
74289.9 55525 lineto
74214.9 55487.5 lineto
74177.4 55450.1 lineto
stroke
newpath
75002.3 55000.1 moveto
74927.3 55037.6 lineto
74889.8 55075.1 lineto
74852.3 55150.1 lineto
74852.3 55375.1 lineto
74889.8 55450.1 lineto
74927.3 55487.5 lineto
75002.3 55525 lineto
75114.8 55525 lineto
75189.8 55487.5 lineto
75227.3 55450.1 lineto
75264.8 55375.1 lineto
75264.8 55150.1 lineto
75227.3 55075.1 lineto
75189.8 55037.6 lineto
75114.8 55000.1 lineto
75002.3 55000.1 lineto
stroke
newpath
75714.7 55000.1 moveto
75639.7 55037.6 lineto
75602.2 55112.6 lineto
75602.2 55787.5 lineto
stroke
newpath
76314.7 55037.6 moveto
76239.7 55000.1 lineto
76089.7 55000.1 lineto
76014.7 55037.6 lineto
75977.2 55112.6 lineto
75977.2 55412.6 lineto
76014.7 55487.5 lineto
76089.7 55525 lineto
76239.7 55525 lineto
76314.7 55487.5 lineto
76352.1 55412.6 lineto
76352.1 55337.6 lineto
75977.2 55262.6 lineto
stroke
newpath
76614.6 54700.1 moveto
76652.1 54737.6 lineto
76727.1 54850.1 lineto
76764.6 54925.1 lineto
76802.1 55037.6 lineto
76839.6 55225.1 lineto
76839.6 55375.1 lineto
76802.1 55562.5 lineto
76764.6 55675 lineto
76727.1 55750 lineto
76652.1 55862.5 lineto
76614.6 55900 lineto
stroke
newpath
78039.4 54700.1 moveto
78001.9 54737.6 lineto
77927 54850.1 lineto
77889.5 54925.1 lineto
77852 55037.6 lineto
77814.5 55225.1 lineto
77814.5 55375.1 lineto
77852 55562.5 lineto
77889.5 55675 lineto
77927 55750 lineto
78001.9 55862.5 lineto
78039.4 55900 lineto
stroke
newpath
78339.4 55525 moveto
78339.4 55000.1 lineto
stroke
newpath
78339.4 55450.1 moveto
78376.9 55487.5 lineto
78451.9 55525 lineto
78564.4 55525 lineto
78639.4 55487.5 lineto
78676.9 55412.6 lineto
78676.9 55000.1 lineto
stroke
newpath
79164.3 55000.1 moveto
79089.3 55037.6 lineto
79051.8 55075.1 lineto
79014.3 55150.1 lineto
79014.3 55375.1 lineto
79051.8 55450.1 lineto
79089.3 55487.5 lineto
79164.3 55525 lineto
79276.8 55525 lineto
79351.8 55487.5 lineto
79389.3 55450.1 lineto
79426.8 55375.1 lineto
79426.8 55150.1 lineto
79389.3 55075.1 lineto
79351.8 55037.6 lineto
79276.8 55000.1 lineto
79164.3 55000.1 lineto
stroke
newpath
79651.7 55525 moveto
79951.7 55525 lineto
stroke
newpath
79764.2 55787.5 moveto
79764.2 55112.6 lineto
79801.7 55037.6 lineto
79876.7 55000.1 lineto
79951.7 55000.1 lineto
stroke
newpath
80814.1 55525 moveto
80814.1 54737.6 lineto
stroke
newpath
80814.1 55487.5 moveto
80889.1 55525 lineto
81039.1 55525 lineto
81114.1 55487.5 lineto
81151.6 55450.1 lineto
81189 55375.1 lineto
81189 55150.1 lineto
81151.6 55075.1 lineto
81114.1 55037.6 lineto
81039.1 55000.1 lineto
80889.1 55000.1 lineto
80814.1 55037.6 lineto
stroke
newpath
81639 55000.1 moveto
81564 55037.6 lineto
81526.5 55112.6 lineto
81526.5 55787.5 lineto
stroke
newpath
82276.4 55000.1 moveto
82276.4 55412.6 lineto
82238.9 55487.5 lineto
82163.9 55525 lineto
82013.9 55525 lineto
81939 55487.5 lineto
stroke
newpath
82276.4 55037.6 moveto
82201.4 55000.1 lineto
82013.9 55000.1 lineto
81939 55037.6 lineto
81901.5 55112.6 lineto
81901.5 55187.6 lineto
81939 55262.6 lineto
82013.9 55300.1 lineto
82201.4 55300.1 lineto
82276.4 55337.6 lineto
stroke
newpath
82538.9 55525 moveto
82838.8 55525 lineto
stroke
newpath
82651.4 55787.5 moveto
82651.4 55112.6 lineto
82688.9 55037.6 lineto
82763.9 55000.1 lineto
82838.8 55000.1 lineto
stroke
newpath
83401.3 55037.6 moveto
83326.3 55000.1 lineto
83176.3 55000.1 lineto
83101.3 55037.6 lineto
83063.8 55112.6 lineto
83063.8 55412.6 lineto
83101.3 55487.5 lineto
83176.3 55525 lineto
83326.3 55525 lineto
83401.3 55487.5 lineto
83438.8 55412.6 lineto
83438.8 55337.6 lineto
83063.8 55262.6 lineto
stroke
newpath
84113.7 55000.1 moveto
84113.7 55787.5 lineto
stroke
newpath
84113.7 55037.6 moveto
84038.7 55000.1 lineto
83888.7 55000.1 lineto
83813.7 55037.6 lineto
83776.2 55075.1 lineto
83738.7 55150.1 lineto
83738.7 55375.1 lineto
83776.2 55450.1 lineto
83813.7 55487.5 lineto
83888.7 55525 lineto
84038.7 55525 lineto
84113.7 55487.5 lineto
stroke
newpath
84413.6 54700.1 moveto
84451.1 54737.6 lineto
84526.1 54850.1 lineto
84563.6 54925.1 lineto
84601.1 55037.6 lineto
84638.6 55225.1 lineto
84638.6 55375.1 lineto
84601.1 55562.5 lineto
84563.6 55675 lineto
84526.1 55750 lineto
84451.1 55862.5 lineto
84413.6 55900 lineto
stroke
78.7394 setlinewidth
58071.3 54096.5 393.7 cir0
236.22 setlinewidth
78.7406 setlinewidth
0 0 0 setrgbcolor
0 0 0 setrgbcolor
newpath
59404.3 54527.7 moveto
59891.7 54527.7 lineto
59629.2 54227.7 lineto
59741.7 54227.7 lineto
59816.7 54190.2 lineto
59854.2 54152.7 lineto
59891.7 54077.7 lineto
59891.7 53890.2 lineto
59854.2 53815.3 lineto
59816.7 53777.8 lineto
59741.7 53740.3 lineto
59516.7 53740.3 lineto
59441.8 53777.8 lineto
59404.3 53815.3 lineto
stroke
newpath
60229.2 53815.3 moveto
60266.7 53777.8 lineto
60229.2 53740.3 lineto
60191.7 53777.8 lineto
60229.2 53815.3 lineto
60229.2 53740.3 lineto
stroke
newpath
60941.6 54265.2 moveto
60941.6 53740.3 lineto
stroke
newpath
60754.1 54565.2 moveto
60566.6 54002.7 lineto
61054.1 54002.7 lineto
stroke
newpath
61729 54527.7 moveto
61354 54527.7 lineto
61316.5 54152.7 lineto
61354 54190.2 lineto
61429 54227.7 lineto
61616.5 54227.7 lineto
61691.5 54190.2 lineto
61729 54152.7 lineto
61766.5 54077.7 lineto
61766.5 53890.2 lineto
61729 53815.3 lineto
61691.5 53777.8 lineto
61616.5 53740.3 lineto
61429 53740.3 lineto
61354 53777.8 lineto
61316.5 53815.3 lineto
stroke
newpath
62253.9 54527.7 moveto
62328.9 54527.7 lineto
62403.9 54490.2 lineto
62441.4 54452.7 lineto
62478.9 54377.7 lineto
62516.4 54227.7 lineto
62516.4 54040.2 lineto
62478.9 53890.2 lineto
62441.4 53815.3 lineto
62403.9 53777.8 lineto
62328.9 53740.3 lineto
62253.9 53740.3 lineto
62178.9 53777.8 lineto
62141.4 53815.3 lineto
62103.9 53890.2 lineto
62066.4 54040.2 lineto
62066.4 54227.7 lineto
62103.9 54377.7 lineto
62141.4 54452.7 lineto
62178.9 54490.2 lineto
62253.9 54527.7 lineto
stroke
newpath
62853.8 53740.3 moveto
62853.8 54265.2 lineto
stroke
newpath
62853.8 54190.2 moveto
62891.3 54227.7 lineto
62966.3 54265.2 lineto
63078.8 54265.2 lineto
63153.8 54227.7 lineto
63191.3 54152.7 lineto
63191.3 53740.3 lineto
stroke
newpath
63191.3 54152.7 moveto
63228.8 54227.7 lineto
63303.8 54265.2 lineto
63416.3 54265.2 lineto
63491.2 54227.7 lineto
63528.7 54152.7 lineto
63528.7 53740.3 lineto
stroke
newpath
63903.7 53740.3 moveto
63903.7 54265.2 lineto
stroke
newpath
63903.7 54190.2 moveto
63941.2 54227.7 lineto
64016.2 54265.2 lineto
64128.7 54265.2 lineto
64203.7 54227.7 lineto
64241.2 54152.7 lineto
64241.2 53740.3 lineto
stroke
newpath
64241.2 54152.7 moveto
64278.7 54227.7 lineto
64353.6 54265.2 lineto
64466.1 54265.2 lineto
64541.1 54227.7 lineto
64578.6 54152.7 lineto
64578.6 53740.3 lineto
stroke
newpath
66115.9 54565.2 moveto
65441 53552.8 lineto
stroke
newpath
67128.3 54527.7 moveto
67203.3 54527.7 lineto
67278.3 54490.2 lineto
67315.8 54452.7 lineto
67353.3 54377.7 lineto
67390.8 54227.7 lineto
67390.8 54040.2 lineto
67353.3 53890.2 lineto
67315.8 53815.3 lineto
67278.3 53777.8 lineto
67203.3 53740.3 lineto
67128.3 53740.3 lineto
67053.3 53777.8 lineto
67015.8 53815.3 lineto
66978.3 53890.2 lineto
66940.8 54040.2 lineto
66940.8 54227.7 lineto
66978.3 54377.7 lineto
67015.8 54452.7 lineto
67053.3 54490.2 lineto
67128.3 54527.7 lineto
stroke
newpath
67728.2 53815.3 moveto
67765.7 53777.8 lineto
67728.2 53740.3 lineto
67690.7 53777.8 lineto
67728.2 53815.3 lineto
67728.2 53740.3 lineto
stroke
newpath
68515.6 53740.3 moveto
68065.7 53740.3 lineto
stroke
newpath
68290.7 53740.3 moveto
68290.7 54527.7 lineto
68215.7 54415.2 lineto
68140.7 54340.2 lineto
68065.7 54302.7 lineto
stroke
newpath
68778.1 54527.7 moveto
69265.5 54527.7 lineto
69003.1 54227.7 lineto
69115.5 54227.7 lineto
69190.5 54190.2 lineto
69228 54152.7 lineto
69265.5 54077.7 lineto
69265.5 53890.2 lineto
69228 53815.3 lineto
69190.5 53777.8 lineto
69115.5 53740.3 lineto
68890.6 53740.3 lineto
68815.6 53777.8 lineto
68778.1 53815.3 lineto
stroke
newpath
69977.9 54527.7 moveto
69603 54527.7 lineto
69565.5 54152.7 lineto
69603 54190.2 lineto
69678 54227.7 lineto
69865.5 54227.7 lineto
69940.4 54190.2 lineto
69977.9 54152.7 lineto
70015.4 54077.7 lineto
70015.4 53890.2 lineto
69977.9 53815.3 lineto
69940.4 53777.8 lineto
69865.5 53740.3 lineto
69678 53740.3 lineto
69603 53777.8 lineto
69565.5 53815.3 lineto
stroke
newpath
70465.4 54190.2 moveto
70390.4 54227.7 lineto
70352.9 54265.2 lineto
70315.4 54340.2 lineto
70315.4 54377.7 lineto
70352.9 54452.7 lineto
70390.4 54490.2 lineto
70465.4 54527.7 lineto
70615.4 54527.7 lineto
70690.4 54490.2 lineto
70727.8 54452.7 lineto
70765.3 54377.7 lineto
70765.3 54340.2 lineto
70727.8 54265.2 lineto
70690.4 54227.7 lineto
70615.4 54190.2 lineto
70465.4 54190.2 lineto
70390.4 54152.7 lineto
70352.9 54115.2 lineto
70315.4 54040.2 lineto
70315.4 53890.2 lineto
70352.9 53815.3 lineto
70390.4 53777.8 lineto
70465.4 53740.3 lineto
70615.4 53740.3 lineto
70690.4 53777.8 lineto
70727.8 53815.3 lineto
70765.3 53890.2 lineto
70765.3 54040.2 lineto
70727.8 54115.2 lineto
70690.4 54152.7 lineto
70615.4 54190.2 lineto
stroke
newpath
71065.3 54527.7 moveto
71065.3 54377.7 lineto
stroke
newpath
71365.3 54527.7 moveto
71365.3 54377.7 lineto
stroke
newpath
72527.6 53440.3 moveto
72490.1 53477.8 lineto
72415.1 53590.3 lineto
72377.6 53665.3 lineto
72340.1 53777.8 lineto
72302.7 53965.2 lineto
72302.7 54115.2 lineto
72340.1 54302.7 lineto
72377.6 54415.2 lineto
72415.1 54490.2 lineto
72490.1 54602.7 lineto
72527.6 54640.2 lineto
stroke
newpath
72790.1 54452.7 moveto
72827.6 54490.2 lineto
72902.6 54527.7 lineto
73090.1 54527.7 lineto
73165 54490.2 lineto
73202.5 54452.7 lineto
73240 54377.7 lineto
73240 54302.7 lineto
73202.5 54190.2 lineto
72752.6 53740.3 lineto
73240 53740.3 lineto
stroke
newpath
74177.4 53740.3 moveto
74177.4 54527.7 lineto
stroke
newpath
74514.9 53740.3 moveto
74514.9 54152.7 lineto
74477.4 54227.7 lineto
74402.4 54265.2 lineto
74289.9 54265.2 lineto
74214.9 54227.7 lineto
74177.4 54190.2 lineto
stroke
newpath
75002.3 53740.3 moveto
74927.3 53777.8 lineto
74889.8 53815.3 lineto
74852.3 53890.2 lineto
74852.3 54115.2 lineto
74889.8 54190.2 lineto
74927.3 54227.7 lineto
75002.3 54265.2 lineto
75114.8 54265.2 lineto
75189.8 54227.7 lineto
75227.3 54190.2 lineto
75264.8 54115.2 lineto
75264.8 53890.2 lineto
75227.3 53815.3 lineto
75189.8 53777.8 lineto
75114.8 53740.3 lineto
75002.3 53740.3 lineto
stroke
newpath
75714.7 53740.3 moveto
75639.7 53777.8 lineto
75602.2 53852.8 lineto
75602.2 54527.7 lineto
stroke
newpath
76314.7 53777.8 moveto
76239.7 53740.3 lineto
76089.7 53740.3 lineto
76014.7 53777.8 lineto
75977.2 53852.8 lineto
75977.2 54152.7 lineto
76014.7 54227.7 lineto
76089.7 54265.2 lineto
76239.7 54265.2 lineto
76314.7 54227.7 lineto
76352.1 54152.7 lineto
76352.1 54077.7 lineto
75977.2 54002.7 lineto
stroke
newpath
76652.1 53777.8 moveto
76727.1 53740.3 lineto
76877.1 53740.3 lineto
76952.1 53777.8 lineto
76989.6 53852.8 lineto
76989.6 53890.2 lineto
76952.1 53965.2 lineto
76877.1 54002.7 lineto
76764.6 54002.7 lineto
76689.6 54040.2 lineto
76652.1 54115.2 lineto
76652.1 54152.7 lineto
76689.6 54227.7 lineto
76764.6 54265.2 lineto
76877.1 54265.2 lineto
76952.1 54227.7 lineto
stroke
newpath
77252 53440.3 moveto
77289.5 53477.8 lineto
77364.5 53590.3 lineto
77402 53665.3 lineto
77439.5 53777.8 lineto
77477 53965.2 lineto
77477 54115.2 lineto
77439.5 54302.7 lineto
77402 54415.2 lineto
77364.5 54490.2 lineto
77289.5 54602.7 lineto
77252 54640.2 lineto
stroke
newpath
78676.9 53440.3 moveto
78639.4 53477.8 lineto
78564.4 53590.3 lineto
78526.9 53665.3 lineto
78489.4 53777.8 lineto
78451.9 53965.2 lineto
78451.9 54115.2 lineto
78489.4 54302.7 lineto
78526.9 54415.2 lineto
78564.4 54490.2 lineto
78639.4 54602.7 lineto
78676.9 54640.2 lineto
stroke
newpath
78976.8 54265.2 moveto
78976.8 53740.3 lineto
stroke
newpath
78976.8 54190.2 moveto
79014.3 54227.7 lineto
79089.3 54265.2 lineto
79201.8 54265.2 lineto
79276.8 54227.7 lineto
79314.3 54152.7 lineto
79314.3 53740.3 lineto
stroke
newpath
79801.7 53740.3 moveto
79726.7 53777.8 lineto
79689.2 53815.3 lineto
79651.7 53890.2 lineto
79651.7 54115.2 lineto
79689.2 54190.2 lineto
79726.7 54227.7 lineto
79801.7 54265.2 lineto
79914.2 54265.2 lineto
79989.2 54227.7 lineto
80026.7 54190.2 lineto
80064.2 54115.2 lineto
80064.2 53890.2 lineto
80026.7 53815.3 lineto
79989.2 53777.8 lineto
79914.2 53740.3 lineto
79801.7 53740.3 lineto
stroke
newpath
80289.2 54265.2 moveto
80589.1 54265.2 lineto
stroke
newpath
80401.6 54527.7 moveto
80401.6 53852.8 lineto
80439.1 53777.8 lineto
80514.1 53740.3 lineto
80589.1 53740.3 lineto
stroke
newpath
81451.5 54265.2 moveto
81451.5 53477.8 lineto
stroke
newpath
81451.5 54227.7 moveto
81526.5 54265.2 lineto
81676.5 54265.2 lineto
81751.5 54227.7 lineto
81789 54190.2 lineto
81826.5 54115.2 lineto
81826.5 53890.2 lineto
81789 53815.3 lineto
81751.5 53777.8 lineto
81676.5 53740.3 lineto
81526.5 53740.3 lineto
81451.5 53777.8 lineto
stroke
newpath
82276.4 53740.3 moveto
82201.4 53777.8 lineto
82163.9 53852.8 lineto
82163.9 54527.7 lineto
stroke
newpath
82913.8 53740.3 moveto
82913.8 54152.7 lineto
82876.3 54227.7 lineto
82801.3 54265.2 lineto
82651.4 54265.2 lineto
82576.4 54227.7 lineto
stroke
newpath
82913.8 53777.8 moveto
82838.8 53740.3 lineto
82651.4 53740.3 lineto
82576.4 53777.8 lineto
82538.9 53852.8 lineto
82538.9 53927.7 lineto
82576.4 54002.7 lineto
82651.4 54040.2 lineto
82838.8 54040.2 lineto
82913.8 54077.7 lineto
stroke
newpath
83176.3 54265.2 moveto
83476.3 54265.2 lineto
stroke
newpath
83288.8 54527.7 moveto
83288.8 53852.8 lineto
83326.3 53777.8 lineto
83401.3 53740.3 lineto
83476.3 53740.3 lineto
stroke
newpath
84038.7 53777.8 moveto
83963.7 53740.3 lineto
83813.7 53740.3 lineto
83738.7 53777.8 lineto
83701.2 53852.8 lineto
83701.2 54152.7 lineto
83738.7 54227.7 lineto
83813.7 54265.2 lineto
83963.7 54265.2 lineto
84038.7 54227.7 lineto
84076.2 54152.7 lineto
84076.2 54077.7 lineto
83701.2 54002.7 lineto
stroke
newpath
84751.1 53740.3 moveto
84751.1 54527.7 lineto
stroke
newpath
84751.1 53777.8 moveto
84676.1 53740.3 lineto
84526.1 53740.3 lineto
84451.1 53777.8 lineto
84413.6 53815.3 lineto
84376.1 53890.2 lineto
84376.1 54115.2 lineto
84413.6 54190.2 lineto
84451.1 54227.7 lineto
84526.1 54265.2 lineto
84676.1 54265.2 lineto
84751.1 54227.7 lineto
stroke
newpath
85051.1 53440.3 moveto
85088.6 53477.8 lineto
85163.6 53590.3 lineto
85201 53665.3 lineto
85238.5 53777.8 lineto
85276 53965.2 lineto
85276 54115.2 lineto
85238.5 54302.7 lineto
85201 54415.2 lineto
85163.6 54490.2 lineto
85088.6 54602.7 lineto
85051.1 54640.2 lineto
stroke
showpage
grestore
%%EOF
