%!PS-Adobe-3.0
%%Creator: PCBNEW
%%CreationDate: Mon Apr 11 22:09:58 2022
%%Title: ()
%%Pages: 1
%%PageOrder: Ascend
%%BoundingBox: 0 0 596 842
%%DocumentMedia: A4 595 842 0 () ()
%%Orientation: Landscape
%%EndComments
%%BeginProlog
/line { newpath moveto lineto stroke } bind def
/cir0 { newpath 0 360 arc stroke } bind def
/cir1 { newpath 0 360 arc gsave fill grestore stroke } bind def
/cir2 { newpath 0 360 arc gsave fill grestore stroke } bind def
/arc0 { newpath arc stroke } bind def
/arc1 { newpath 4 index 4 index moveto arc closepath gsave fill
    grestore stroke } bind def
/arc2 { newpath 4 index 4 index moveto arc closepath gsave fill
    grestore stroke } bind def
/poly0 { stroke } bind def
/poly1 { closepath gsave fill grestore stroke } bind def
/poly2 { closepath gsave fill grestore stroke } bind def
/rect0 { rectstroke } bind def
/rect1 { rectfill } bind def
/rect2 { rectfill } bind def
/linemode0 { 0 setlinecap 0 setlinejoin 0 setlinewidth } bind def
/linemode1 { 1 setlinecap 1 setlinejoin } bind def
/dashedline { [200] 100 setdash } bind def
/solidline { [] 0 setdash } bind def
/phantomshow { moveto
    /KicadFont findfont 0.000001 scalefont setfont
    show } bind def
/textshow { gsave
    findfont exch scalefont setfont concat 1 scale 0 0 moveto show
    } bind def
/reencodefont {
  findfont dup length dict begin
  { 1 index /FID ne
    { def }
    { pop pop } ifelse
  } forall
  /Encoding ISOLatin1Encoding def
  currentdict
  end } bind def
/KicadFont /Helvetica reencodefont definefont pop
/KicadFont-Bold /Helvetica-Bold reencodefont definefont pop
/KicadFont-Oblique /Helvetica-Oblique reencodefont definefont pop
/KicadFont-BoldOblique /Helvetica-BoldOblique reencodefont definefont pop
%%EndProlog
%%Page: 1 1
%%BeginPageSetup
gsave
0.0072 0.0072 scale
linemode1
82680 0 translate 90 rotate
236.22 setlinewidth
%%EndPageSetup
236.22 setlinewidth
47.2441 setlinewidth
newpath
164729 7112.22 moveto
165201 6639.78 lineto
stroke
newpath
165201 7112.22 moveto
164729 6639.78 lineto
stroke
newpath
164729 -51387.8 moveto
165201 -51860.2 lineto
stroke
newpath
165201 -51387.8 moveto
164729 -51860.2 lineto
stroke
newpath
164729 -63387.8 moveto
165201 -63860.2 lineto
stroke
newpath
165201 -63387.8 moveto
164729 -63860.2 lineto
stroke
newpath
165846 -48387.8 moveto
166319 -48860.2 lineto
stroke
newpath
166319 -48387.8 moveto
165846 -48860.2 lineto
stroke
newpath
166229 -69387.8 moveto
166701 -69860.2 lineto
stroke
newpath
166701 -69387.8 moveto
166229 -69860.2 lineto
stroke
newpath
166229 -72387.8 moveto
166701 -72860.2 lineto
stroke
newpath
166701 -72387.8 moveto
166229 -72860.2 lineto
stroke
newpath
167729 7112.22 moveto
168201 6639.78 lineto
stroke
newpath
168201 7112.22 moveto
167729 6639.78 lineto
stroke
newpath
167729 -3387.78 moveto
168201 -3860.22 lineto
stroke
newpath
168201 -3387.78 moveto
167729 -3860.22 lineto
stroke
newpath
167729 -17483.1 moveto
168201 -17955.5 lineto
stroke
newpath
168201 -17483.1 moveto
167729 -17955.5 lineto
stroke
newpath
167729 -19243.5 moveto
168201 -19715.9 lineto
stroke
newpath
168201 -19243.5 moveto
167729 -19715.9 lineto
stroke
newpath
167729 -48387.8 moveto
168201 -48860.2 lineto
stroke
newpath
168201 -48387.8 moveto
167729 -48860.2 lineto
stroke
newpath
169152 -13893.2 moveto
169624 -14365.7 lineto
stroke
newpath
169624 -13893.2 moveto
169152 -14365.7 lineto
stroke
newpath
169210 -69148.3 moveto
169683 -69620.7 lineto
stroke
newpath
169683 -69148.3 moveto
169210 -69620.7 lineto
stroke
newpath
169229 1383.28 moveto
169701 910.843 lineto
stroke
newpath
169701 1383.28 moveto
169229 910.843 lineto
stroke
newpath
169229 -387.78 moveto
169701 -860.22 lineto
stroke
newpath
169701 -387.78 moveto
169229 -860.22 lineto
stroke
newpath
169229 -49887.8 moveto
169701 -50360.2 lineto
stroke
newpath
169701 -49887.8 moveto
169229 -50360.2 lineto
stroke
newpath
169229 -76887.8 moveto
169701 -77360.2 lineto
stroke
newpath
169701 -76887.8 moveto
169229 -77360.2 lineto
stroke
newpath
169229 -88887.8 moveto
169701 -89360.2 lineto
stroke
newpath
169701 -88887.8 moveto
169229 -89360.2 lineto
stroke
newpath
169353 -58928 moveto
169826 -59400.4 lineto
stroke
newpath
169826 -58928 moveto
169353 -59400.4 lineto
stroke
newpath
170519 10205.7 moveto
170992 9733.28 lineto
stroke
newpath
170992 10205.7 moveto
170519 9733.28 lineto
stroke
newpath
170729 11612.2 moveto
171201 11139.8 lineto
stroke
newpath
171201 11612.2 moveto
170729 11139.8 lineto
stroke
newpath
170729 -4887.78 moveto
171201 -5360.22 lineto
stroke
newpath
171201 -4887.78 moveto
170729 -5360.22 lineto
stroke
newpath
170729 -55887.8 moveto
171201 -56360.2 lineto
stroke
newpath
171201 -55887.8 moveto
170729 -56360.2 lineto
stroke
newpath
170729 -72387.8 moveto
171201 -72860.2 lineto
stroke
newpath
171201 -72387.8 moveto
170729 -72860.2 lineto
stroke
newpath
170806 -16137.8 moveto
171278 -16610.2 lineto
stroke
newpath
171278 -16137.8 moveto
170806 -16610.2 lineto
stroke
newpath
172229 -75387.8 moveto
172701 -75860.2 lineto
stroke
newpath
172701 -75387.8 moveto
172229 -75860.2 lineto
stroke
newpath
173729 -60387.8 moveto
174201 -60860.2 lineto
stroke
newpath
174201 -60387.8 moveto
173729 -60860.2 lineto
stroke
newpath
173729 -67887.8 moveto
174201 -68360.2 lineto
stroke
newpath
174201 -67887.8 moveto
173729 -68360.2 lineto
stroke
newpath
173729 -72387.8 moveto
174201 -72860.2 lineto
stroke
newpath
174201 -72387.8 moveto
173729 -72860.2 lineto
stroke
newpath
175229 11612.2 moveto
175701 11139.8 lineto
stroke
newpath
175701 11612.2 moveto
175229 11139.8 lineto
stroke
newpath
175229 10112.2 moveto
175701 9639.78 lineto
stroke
newpath
175701 10112.2 moveto
175229 9639.78 lineto
stroke
newpath
176646 -67967.7 moveto
177118 -68440.2 lineto
stroke
newpath
177118 -67967.7 moveto
176646 -68440.2 lineto
stroke
newpath
178293 -36323.9 moveto
178765 -36796.4 lineto
stroke
newpath
178765 -36323.9 moveto
178293 -36796.4 lineto
stroke
newpath
179729 -19887.8 moveto
180201 -20360.2 lineto
stroke
newpath
180201 -19887.8 moveto
179729 -20360.2 lineto
stroke
newpath
179729 -60387.8 moveto
180201 -60860.2 lineto
stroke
newpath
180201 -60387.8 moveto
179729 -60860.2 lineto
stroke
newpath
182729 -61887.8 moveto
183201 -62360.2 lineto
stroke
newpath
183201 -61887.8 moveto
182729 -62360.2 lineto
stroke
newpath
182729 -64887.8 moveto
183201 -65360.2 lineto
stroke
newpath
183201 -64887.8 moveto
182729 -65360.2 lineto
stroke
newpath
185729 -55887.8 moveto
186201 -56360.2 lineto
stroke
newpath
186201 -55887.8 moveto
185729 -56360.2 lineto
stroke
newpath
185729 -61887.8 moveto
186201 -62360.2 lineto
stroke
newpath
186201 -61887.8 moveto
185729 -62360.2 lineto
stroke
newpath
188729 -51387.8 moveto
189201 -51860.2 lineto
stroke
newpath
189201 -51387.8 moveto
188729 -51860.2 lineto
stroke
newpath
190229 7112.22 moveto
190701 6639.78 lineto
stroke
newpath
190701 7112.22 moveto
190229 6639.78 lineto
stroke
newpath
190229 -46887.8 moveto
190701 -47360.2 lineto
stroke
newpath
190701 -46887.8 moveto
190229 -47360.2 lineto
stroke
newpath
190229 -55887.8 moveto
190701 -56360.2 lineto
stroke
newpath
190701 -55887.8 moveto
190229 -56360.2 lineto
stroke
newpath
191729 -15387.8 moveto
192201 -15860.2 lineto
stroke
newpath
192201 -15387.8 moveto
191729 -15860.2 lineto
stroke
newpath
191729 -30387.8 moveto
192201 -30860.2 lineto
stroke
newpath
192201 -30387.8 moveto
191729 -30860.2 lineto
stroke
newpath
191729 -37887.8 moveto
192201 -38360.2 lineto
stroke
newpath
192201 -37887.8 moveto
191729 -38360.2 lineto
stroke
newpath
194729 -387.78 moveto
195201 -860.22 lineto
stroke
newpath
195201 -387.78 moveto
194729 -860.22 lineto
stroke
newpath
194729 -27387.8 moveto
195201 -27860.2 lineto
stroke
newpath
195201 -27387.8 moveto
194729 -27860.2 lineto
stroke
newpath
196229 -13887.8 moveto
196701 -14360.2 lineto
stroke
newpath
196701 -13887.8 moveto
196229 -14360.2 lineto
stroke
newpath
196229 -16887.8 moveto
196701 -17360.2 lineto
stroke
newpath
196701 -16887.8 moveto
196229 -17360.2 lineto
stroke
newpath
196229 -48387.8 moveto
196701 -48860.2 lineto
stroke
newpath
196701 -48387.8 moveto
196229 -48860.2 lineto
stroke
newpath
196229 -54387.8 moveto
196701 -54860.2 lineto
stroke
newpath
196701 -54387.8 moveto
196229 -54860.2 lineto
stroke
newpath
197729 -60387.8 moveto
198201 -60860.2 lineto
stroke
newpath
198201 -60387.8 moveto
197729 -60860.2 lineto
stroke
newpath
197729 -64887.8 moveto
198201 -65360.2 lineto
stroke
newpath
198201 -64887.8 moveto
197729 -65360.2 lineto
stroke
newpath
199229 -58887.8 moveto
199701 -59360.2 lineto
stroke
newpath
199701 -58887.8 moveto
199229 -59360.2 lineto
stroke
newpath
202229 -54387.8 moveto
202701 -54860.2 lineto
stroke
newpath
202701 -54387.8 moveto
202229 -54860.2 lineto
stroke
newpath
203729 -54387.8 moveto
204201 -54860.2 lineto
stroke
newpath
204201 -54387.8 moveto
203729 -54860.2 lineto
stroke
newpath
203729 -63387.8 moveto
204201 -63860.2 lineto
stroke
newpath
204201 -63387.8 moveto
203729 -63860.2 lineto
stroke
newpath
206729 -51387.8 moveto
207201 -51860.2 lineto
stroke
newpath
207201 -51387.8 moveto
206729 -51860.2 lineto
stroke
newpath
211229 -36387.8 moveto
211701 -36860.2 lineto
stroke
newpath
211701 -36387.8 moveto
211229 -36860.2 lineto
stroke
newpath
211229 -39387.8 moveto
211701 -39860.2 lineto
stroke
newpath
211701 -39387.8 moveto
211229 -39860.2 lineto
stroke
newpath
223229 -75387.8 moveto
223701 -75860.2 lineto
stroke
newpath
223701 -75387.8 moveto
223229 -75860.2 lineto
stroke
newpath
227729 -70887.8 moveto
228201 -71360.2 lineto
stroke
newpath
228201 -70887.8 moveto
227729 -71360.2 lineto
stroke
newpath
232229 -63387.8 moveto
232701 -63860.2 lineto
stroke
newpath
232701 -63387.8 moveto
232229 -63860.2 lineto
stroke
newpath
236729 -36387.8 moveto
237201 -36860.2 lineto
stroke
newpath
237201 -36387.8 moveto
236729 -36860.2 lineto
stroke
newpath
241229 -63387.8 moveto
241701 -63860.2 lineto
stroke
newpath
241701 -63387.8 moveto
241229 -63860.2 lineto
stroke
newpath
242729 -43887.8 moveto
243201 -44360.2 lineto
stroke
newpath
243201 -43887.8 moveto
242729 -44360.2 lineto
stroke
newpath
247229 -73887.8 moveto
247701 -74360.2 lineto
stroke
newpath
247701 -73887.8 moveto
247229 -74360.2 lineto
stroke
newpath
248852 -71064.7 moveto
249324 -71537.1 lineto
stroke
newpath
249324 -71064.7 moveto
248852 -71537.1 lineto
stroke
newpath
250229 -36387.8 moveto
250701 -36860.2 lineto
stroke
newpath
250701 -36387.8 moveto
250229 -36860.2 lineto
stroke
newpath
250229 -73887.8 moveto
250701 -74360.2 lineto
stroke
newpath
250701 -73887.8 moveto
250229 -74360.2 lineto
stroke
newpath
251084 -70887.8 moveto
251557 -71360.2 lineto
stroke
newpath
251557 -70887.8 moveto
251084 -71360.2 lineto
stroke
newpath
251729 -36387.8 moveto
252201 -36860.2 lineto
stroke
newpath
252201 -36387.8 moveto
251729 -36860.2 lineto
stroke
newpath
253229 -16887.8 moveto
253701 -17360.2 lineto
stroke
newpath
253701 -16887.8 moveto
253229 -17360.2 lineto
stroke
newpath
257729 -52887.8 moveto
258201 -53360.2 lineto
stroke
newpath
258201 -52887.8 moveto
257729 -53360.2 lineto
stroke
newpath
263729 -60387.8 moveto
264201 -60860.2 lineto
stroke
newpath
264201 -60387.8 moveto
263729 -60860.2 lineto
stroke
newpath
268229 -30387.8 moveto
268701 -30860.2 lineto
stroke
newpath
268701 -30387.8 moveto
268229 -30860.2 lineto
stroke
newpath
269729 -60387.8 moveto
270201 -60860.2 lineto
stroke
newpath
270201 -60387.8 moveto
269729 -60860.2 lineto
stroke
newpath
274229 -36387.8 moveto
274701 -36860.2 lineto
stroke
newpath
274701 -36387.8 moveto
274229 -36860.2 lineto
stroke
newpath
274229 -40887.8 moveto
274701 -41360.2 lineto
stroke
newpath
274701 -40887.8 moveto
274229 -41360.2 lineto
stroke
newpath
275729 -45387.8 moveto
276201 -45860.2 lineto
stroke
newpath
276201 -45387.8 moveto
275729 -45860.2 lineto
stroke
59.0551 setlinewidth
164930 -53809 295.276 cir0
236.22 setlinewidth
newpath
165313 -53631.9 moveto
164546 -53631.9 lineto
stroke
newpath
165313 -53986.2 moveto
164546 -53986.2 lineto
stroke
164546 -53809 177.165 450 630 arc0
165313 -53809 177.165 270 450 arc0
59.0551 setlinewidth
164930 -62076.8 295.276 cir0
236.22 setlinewidth
newpath
165313 -61899.6 moveto
164546 -61899.6 lineto
stroke
newpath
165313 -62253.9 moveto
164546 -62253.9 lineto
stroke
164546 -62076.8 177.165 450 630 arc0
165313 -62076.8 177.165 270 450 arc0
64.9606 setlinewidth
newpath
168119 -54665.3 moveto
168119 -55314.9 lineto
stroke
newpath
167794 -54990.1 moveto
168443 -54990.1 lineto
stroke
236.22 setlinewidth
newpath
167912 -54813 moveto
167912 -55167.3 lineto
stroke
newpath
168325 -54813 moveto
168325 -55167.3 lineto
stroke
168119 -55167.3 206.693 180 360 arc0
168119 -54813 206.693 0 180 arc0
64.9606 setlinewidth
newpath
168119 -60570.9 moveto
168119 -61220.5 lineto
stroke
newpath
167794 -60895.7 moveto
168443 -60895.7 lineto
stroke
236.22 setlinewidth
newpath
167912 -60718.5 moveto
167912 -61072.8 lineto
stroke
newpath
168325 -60718.5 moveto
168325 -61072.8 lineto
stroke
168119 -61072.8 206.693 180 360 arc0
168119 -60718.5 206.693 0 180 arc0
118.11 setlinewidth
newpath
178865 -22041.6 moveto
178865 -21206.4 lineto
178030 -21206.4 lineto
178030 -22041.6 lineto
178865 -22041.6 lineto
poly0
newpath
178865 -34071.1 moveto
178865 -33235.9 lineto
178030 -33235.9 lineto
178030 -34071.1 lineto
178865 -34071.1 lineto
poly0
newpath
178865 -82071.1 moveto
178865 -81235.9 lineto
178030 -81235.9 lineto
178030 -82071.1 lineto
178865 -82071.1 lineto
poly0
newpath
178865 -94041.6 moveto
178865 -93206.4 lineto
178030 -93206.4 lineto
178030 -94041.6 lineto
178865 -94041.6 lineto
poly0
newpath
181865 -22041.6 moveto
181865 -21206.4 lineto
181030 -21206.4 lineto
181030 -22041.6 lineto
181865 -22041.6 lineto
poly0
newpath
181865 -34071.1 moveto
181865 -33235.9 lineto
181030 -33235.9 lineto
181030 -34071.1 lineto
181865 -34071.1 lineto
poly0
newpath
181865 -82071.1 moveto
181865 -81235.9 lineto
181030 -81235.9 lineto
181030 -82071.1 lineto
181865 -82071.1 lineto
poly0
newpath
181865 -94041.6 moveto
181865 -93206.4 lineto
181030 -93206.4 lineto
181030 -94041.6 lineto
181865 -94041.6 lineto
poly0
newpath
184865 -22041.6 moveto
184865 -21206.4 lineto
184030 -21206.4 lineto
184030 -22041.6 lineto
184865 -22041.6 lineto
poly0
newpath
184865 -34071.1 moveto
184865 -33235.9 lineto
184030 -33235.9 lineto
184030 -34071.1 lineto
184865 -34071.1 lineto
poly0
newpath
184865 -82071.1 moveto
184865 -81235.9 lineto
184030 -81235.9 lineto
184030 -82071.1 lineto
184865 -82071.1 lineto
poly0
newpath
184865 -94041.6 moveto
184865 -93206.4 lineto
184030 -93206.4 lineto
184030 -94041.6 lineto
184865 -94041.6 lineto
poly0
newpath
187865 -22041.6 moveto
187865 -21206.4 lineto
187030 -21206.4 lineto
187030 -22041.6 lineto
187865 -22041.6 lineto
poly0
newpath
187865 -34071.1 moveto
187865 -33235.9 lineto
187030 -33235.9 lineto
187030 -34071.1 lineto
187865 -34071.1 lineto
poly0
newpath
187865 -82071.1 moveto
187865 -81235.9 lineto
187030 -81235.9 lineto
187030 -82071.1 lineto
187865 -82071.1 lineto
poly0
newpath
187865 -94041.6 moveto
187865 -93206.4 lineto
187030 -93206.4 lineto
187030 -94041.6 lineto
187865 -94041.6 lineto
poly0
newpath
190865 -22041.6 moveto
190865 -21206.4 lineto
190030 -21206.4 lineto
190030 -22041.6 lineto
190865 -22041.6 lineto
poly0
newpath
190865 -34071.1 moveto
190865 -33235.9 lineto
190030 -33235.9 lineto
190030 -34071.1 lineto
190865 -34071.1 lineto
poly0
newpath
190865 -82071.1 moveto
190865 -81235.9 lineto
190030 -81235.9 lineto
190030 -82071.1 lineto
190865 -82071.1 lineto
poly0
newpath
190865 -94041.6 moveto
190865 -93206.4 lineto
190030 -93206.4 lineto
190030 -94041.6 lineto
190865 -94041.6 lineto
poly0
newpath
193865 -22041.6 moveto
193865 -21206.4 lineto
193030 -21206.4 lineto
193030 -22041.6 lineto
193865 -22041.6 lineto
poly0
newpath
193865 -34071.1 moveto
193865 -33235.9 lineto
193030 -33235.9 lineto
193030 -34071.1 lineto
193865 -34071.1 lineto
poly0
newpath
193865 -82071.1 moveto
193865 -81235.9 lineto
193030 -81235.9 lineto
193030 -82071.1 lineto
193865 -82071.1 lineto
poly0
newpath
193865 -94041.6 moveto
193865 -93206.4 lineto
193030 -93206.4 lineto
193030 -94041.6 lineto
193865 -94041.6 lineto
poly0
newpath
196865 -22041.6 moveto
196865 -21206.4 lineto
196030 -21206.4 lineto
196030 -22041.6 lineto
196865 -22041.6 lineto
poly0
newpath
196865 -34071.1 moveto
196865 -33235.9 lineto
196030 -33235.9 lineto
196030 -34071.1 lineto
196865 -34071.1 lineto
poly0
newpath
196865 -82071.1 moveto
196865 -81235.9 lineto
196030 -81235.9 lineto
196030 -82071.1 lineto
196865 -82071.1 lineto
poly0
newpath
196865 -94041.6 moveto
196865 -93206.4 lineto
196030 -93206.4 lineto
196030 -94041.6 lineto
196865 -94041.6 lineto
poly0
newpath
199865 -22041.6 moveto
199865 -21206.4 lineto
199030 -21206.4 lineto
199030 -22041.6 lineto
199865 -22041.6 lineto
poly0
newpath
199865 -34071.1 moveto
199865 -33235.9 lineto
199030 -33235.9 lineto
199030 -34071.1 lineto
199865 -34071.1 lineto
poly0
newpath
199865 -82071.1 moveto
199865 -81235.9 lineto
199030 -81235.9 lineto
199030 -82071.1 lineto
199865 -82071.1 lineto
poly0
newpath
199865 -94041.6 moveto
199865 -93206.4 lineto
199030 -93206.4 lineto
199030 -94041.6 lineto
199865 -94041.6 lineto
poly0
newpath
202865 -22041.6 moveto
202865 -21206.4 lineto
202030 -21206.4 lineto
202030 -22041.6 lineto
202865 -22041.6 lineto
poly0
newpath
202865 -34071.1 moveto
202865 -33235.9 lineto
202030 -33235.9 lineto
202030 -34071.1 lineto
202865 -34071.1 lineto
poly0
newpath
202865 -82071.1 moveto
202865 -81235.9 lineto
202030 -81235.9 lineto
202030 -82071.1 lineto
202865 -82071.1 lineto
poly0
newpath
202865 -94041.6 moveto
202865 -93206.4 lineto
202030 -93206.4 lineto
202030 -94041.6 lineto
202865 -94041.6 lineto
poly0
newpath
205865 -22041.6 moveto
205865 -21206.4 lineto
205030 -21206.4 lineto
205030 -22041.6 lineto
205865 -22041.6 lineto
poly0
newpath
205865 -34071.1 moveto
205865 -33235.9 lineto
205030 -33235.9 lineto
205030 -34071.1 lineto
205865 -34071.1 lineto
poly0
newpath
205865 -82071.1 moveto
205865 -81235.9 lineto
205030 -81235.9 lineto
205030 -82071.1 lineto
205865 -82071.1 lineto
poly0
newpath
205865 -94041.6 moveto
205865 -93206.4 lineto
205030 -93206.4 lineto
205030 -94041.6 lineto
205865 -94041.6 lineto
poly0
newpath
208865 -22041.6 moveto
208865 -21206.4 lineto
208030 -21206.4 lineto
208030 -22041.6 lineto
208865 -22041.6 lineto
poly0
newpath
208865 -34071.1 moveto
208865 -33235.9 lineto
208030 -33235.9 lineto
208030 -34071.1 lineto
208865 -34071.1 lineto
poly0
newpath
208865 -82071.1 moveto
208865 -81235.9 lineto
208030 -81235.9 lineto
208030 -82071.1 lineto
208865 -82071.1 lineto
poly0
newpath
208865 -94041.6 moveto
208865 -93206.4 lineto
208030 -93206.4 lineto
208030 -94041.6 lineto
208865 -94041.6 lineto
poly0
newpath
211865 -22041.6 moveto
211865 -21206.4 lineto
211030 -21206.4 lineto
211030 -22041.6 lineto
211865 -22041.6 lineto
poly0
newpath
211865 -34071.1 moveto
211865 -33235.9 lineto
211030 -33235.9 lineto
211030 -34071.1 lineto
211865 -34071.1 lineto
poly0
newpath
211865 -82071.1 moveto
211865 -81235.9 lineto
211030 -81235.9 lineto
211030 -82071.1 lineto
211865 -82071.1 lineto
poly0
newpath
211865 -94041.6 moveto
211865 -93206.4 lineto
211030 -93206.4 lineto
211030 -94041.6 lineto
211865 -94041.6 lineto
poly0
newpath
214865 -22041.6 moveto
214865 -21206.4 lineto
214030 -21206.4 lineto
214030 -22041.6 lineto
214865 -22041.6 lineto
poly0
newpath
214865 -34071.1 moveto
214865 -33235.9 lineto
214030 -33235.9 lineto
214030 -34071.1 lineto
214865 -34071.1 lineto
poly0
newpath
214865 -82071.1 moveto
214865 -81235.9 lineto
214030 -81235.9 lineto
214030 -82071.1 lineto
214865 -82071.1 lineto
poly0
newpath
214865 -94041.6 moveto
214865 -93206.4 lineto
214030 -93206.4 lineto
214030 -94041.6 lineto
214865 -94041.6 lineto
poly0
newpath
217865 -22041.6 moveto
217865 -21206.4 lineto
217030 -21206.4 lineto
217030 -22041.6 lineto
217865 -22041.6 lineto
poly0
newpath
217865 -34071.1 moveto
217865 -33235.9 lineto
217030 -33235.9 lineto
217030 -34071.1 lineto
217865 -34071.1 lineto
poly0
newpath
217865 -82071.1 moveto
217865 -81235.9 lineto
217030 -81235.9 lineto
217030 -82071.1 lineto
217865 -82071.1 lineto
poly0
newpath
217865 -94041.6 moveto
217865 -93206.4 lineto
217030 -93206.4 lineto
217030 -94041.6 lineto
217865 -94041.6 lineto
poly0
newpath
220865 -22041.6 moveto
220865 -21206.4 lineto
220030 -21206.4 lineto
220030 -22041.6 lineto
220865 -22041.6 lineto
poly0
newpath
220865 -34071.1 moveto
220865 -33235.9 lineto
220030 -33235.9 lineto
220030 -34071.1 lineto
220865 -34071.1 lineto
poly0
newpath
220865 -82071.1 moveto
220865 -81235.9 lineto
220030 -81235.9 lineto
220030 -82071.1 lineto
220865 -82071.1 lineto
poly0
newpath
220865 -94041.6 moveto
220865 -93206.4 lineto
220030 -93206.4 lineto
220030 -94041.6 lineto
220865 -94041.6 lineto
poly0
newpath
223865 -22041.6 moveto
223865 -21206.4 lineto
223030 -21206.4 lineto
223030 -22041.6 lineto
223865 -22041.6 lineto
poly0
newpath
223865 -34071.1 moveto
223865 -33235.9 lineto
223030 -33235.9 lineto
223030 -34071.1 lineto
223865 -34071.1 lineto
poly0
newpath
223865 -82071.1 moveto
223865 -81235.9 lineto
223030 -81235.9 lineto
223030 -82071.1 lineto
223865 -82071.1 lineto
poly0
newpath
223865 -94041.6 moveto
223865 -93206.4 lineto
223030 -93206.4 lineto
223030 -94041.6 lineto
223865 -94041.6 lineto
poly0
newpath
226865 -22041.6 moveto
226865 -21206.4 lineto
226030 -21206.4 lineto
226030 -22041.6 lineto
226865 -22041.6 lineto
poly0
newpath
226865 -34071.1 moveto
226865 -33235.9 lineto
226030 -33235.9 lineto
226030 -34071.1 lineto
226865 -34071.1 lineto
poly0
newpath
226865 -82071.1 moveto
226865 -81235.9 lineto
226030 -81235.9 lineto
226030 -82071.1 lineto
226865 -82071.1 lineto
poly0
newpath
226865 -94041.6 moveto
226865 -93206.4 lineto
226030 -93206.4 lineto
226030 -94041.6 lineto
226865 -94041.6 lineto
poly0
newpath
229865 -22041.6 moveto
229865 -21206.4 lineto
229030 -21206.4 lineto
229030 -22041.6 lineto
229865 -22041.6 lineto
poly0
newpath
229865 -34071.1 moveto
229865 -33235.9 lineto
229030 -33235.9 lineto
229030 -34071.1 lineto
229865 -34071.1 lineto
poly0
newpath
229865 -82071.1 moveto
229865 -81235.9 lineto
229030 -81235.9 lineto
229030 -82071.1 lineto
229865 -82071.1 lineto
poly0
newpath
229865 -94041.6 moveto
229865 -93206.4 lineto
229030 -93206.4 lineto
229030 -94041.6 lineto
229865 -94041.6 lineto
poly0
newpath
232865 -22041.6 moveto
232865 -21206.4 lineto
232030 -21206.4 lineto
232030 -22041.6 lineto
232865 -22041.6 lineto
poly0
newpath
232865 -34071.1 moveto
232865 -33235.9 lineto
232030 -33235.9 lineto
232030 -34071.1 lineto
232865 -34071.1 lineto
poly0
newpath
232865 -82071.1 moveto
232865 -81235.9 lineto
232030 -81235.9 lineto
232030 -82071.1 lineto
232865 -82071.1 lineto
poly0
newpath
232865 -94041.6 moveto
232865 -93206.4 lineto
232030 -93206.4 lineto
232030 -94041.6 lineto
232865 -94041.6 lineto
poly0
newpath
235865 -22041.6 moveto
235865 -21206.4 lineto
235030 -21206.4 lineto
235030 -22041.6 lineto
235865 -22041.6 lineto
poly0
newpath
235865 -34071.1 moveto
235865 -33235.9 lineto
235030 -33235.9 lineto
235030 -34071.1 lineto
235865 -34071.1 lineto
poly0
newpath
235865 -82071.1 moveto
235865 -81235.9 lineto
235030 -81235.9 lineto
235030 -82071.1 lineto
235865 -82071.1 lineto
poly0
newpath
235865 -94041.6 moveto
235865 -93206.4 lineto
235030 -93206.4 lineto
235030 -94041.6 lineto
235865 -94041.6 lineto
poly0
newpath
238865 -22041.6 moveto
238865 -21206.4 lineto
238030 -21206.4 lineto
238030 -22041.6 lineto
238865 -22041.6 lineto
poly0
newpath
238865 -34071.1 moveto
238865 -33235.9 lineto
238030 -33235.9 lineto
238030 -34071.1 lineto
238865 -34071.1 lineto
poly0
newpath
238865 -82071.1 moveto
238865 -81235.9 lineto
238030 -81235.9 lineto
238030 -82071.1 lineto
238865 -82071.1 lineto
poly0
newpath
238865 -94041.6 moveto
238865 -93206.4 lineto
238030 -93206.4 lineto
238030 -94041.6 lineto
238865 -94041.6 lineto
poly0
newpath
241865 -22041.6 moveto
241865 -21206.4 lineto
241030 -21206.4 lineto
241030 -22041.6 lineto
241865 -22041.6 lineto
poly0
newpath
241865 -34071.1 moveto
241865 -33235.9 lineto
241030 -33235.9 lineto
241030 -34071.1 lineto
241865 -34071.1 lineto
poly0
newpath
241865 -82071.1 moveto
241865 -81235.9 lineto
241030 -81235.9 lineto
241030 -82071.1 lineto
241865 -82071.1 lineto
poly0
newpath
241865 -94041.6 moveto
241865 -93206.4 lineto
241030 -93206.4 lineto
241030 -94041.6 lineto
241865 -94041.6 lineto
poly0
newpath
244865 -22041.6 moveto
244865 -21206.4 lineto
244030 -21206.4 lineto
244030 -22041.6 lineto
244865 -22041.6 lineto
poly0
newpath
244865 -34071.1 moveto
244865 -33235.9 lineto
244030 -33235.9 lineto
244030 -34071.1 lineto
244865 -34071.1 lineto
poly0
newpath
244865 -82071.1 moveto
244865 -81235.9 lineto
244030 -81235.9 lineto
244030 -82071.1 lineto
244865 -82071.1 lineto
poly0
newpath
244865 -94041.6 moveto
244865 -93206.4 lineto
244030 -93206.4 lineto
244030 -94041.6 lineto
244865 -94041.6 lineto
poly0
newpath
247865 -22041.6 moveto
247865 -21206.4 lineto
247030 -21206.4 lineto
247030 -22041.6 lineto
247865 -22041.6 lineto
poly0
newpath
247865 -34071.1 moveto
247865 -33235.9 lineto
247030 -33235.9 lineto
247030 -34071.1 lineto
247865 -34071.1 lineto
poly0
newpath
247865 -82071.1 moveto
247865 -81235.9 lineto
247030 -81235.9 lineto
247030 -82071.1 lineto
247865 -82071.1 lineto
poly0
newpath
247865 -94041.6 moveto
247865 -93206.4 lineto
247030 -93206.4 lineto
247030 -94041.6 lineto
247865 -94041.6 lineto
poly0
newpath
250865 -22041.6 moveto
250865 -21206.4 lineto
250030 -21206.4 lineto
250030 -22041.6 lineto
250865 -22041.6 lineto
poly0
newpath
250865 -34071.1 moveto
250865 -33235.9 lineto
250030 -33235.9 lineto
250030 -34071.1 lineto
250865 -34071.1 lineto
poly0
newpath
250865 -82071.1 moveto
250865 -81235.9 lineto
250030 -81235.9 lineto
250030 -82071.1 lineto
250865 -82071.1 lineto
poly0
newpath
250865 -94041.6 moveto
250865 -93206.4 lineto
250030 -93206.4 lineto
250030 -94041.6 lineto
250865 -94041.6 lineto
poly0
newpath
253865 -22041.6 moveto
253865 -21206.4 lineto
253030 -21206.4 lineto
253030 -22041.6 lineto
253865 -22041.6 lineto
poly0
newpath
253865 -34071.1 moveto
253865 -33235.9 lineto
253030 -33235.9 lineto
253030 -34071.1 lineto
253865 -34071.1 lineto
poly0
newpath
253865 -82071.1 moveto
253865 -81235.9 lineto
253030 -81235.9 lineto
253030 -82071.1 lineto
253865 -82071.1 lineto
poly0
newpath
253865 -94041.6 moveto
253865 -93206.4 lineto
253030 -93206.4 lineto
253030 -94041.6 lineto
253865 -94041.6 lineto
poly0
newpath
253883 -13041.6 moveto
253883 -12206.4 lineto
253047 -12206.4 lineto
253047 -13041.6 lineto
253883 -13041.6 lineto
poly0
newpath
253883 -16041.6 moveto
253883 -15206.4 lineto
253047 -15206.4 lineto
253047 -16041.6 lineto
253883 -16041.6 lineto
poly0
newpath
256865 -22041.6 moveto
256865 -21206.4 lineto
256030 -21206.4 lineto
256030 -22041.6 lineto
256865 -22041.6 lineto
poly0
newpath
256865 -34071.1 moveto
256865 -33235.9 lineto
256030 -33235.9 lineto
256030 -34071.1 lineto
256865 -34071.1 lineto
poly0
newpath
256865 -82071.1 moveto
256865 -81235.9 lineto
256030 -81235.9 lineto
256030 -82071.1 lineto
256865 -82071.1 lineto
poly0
newpath
256865 -94041.6 moveto
256865 -93206.4 lineto
256030 -93206.4 lineto
256030 -94041.6 lineto
256865 -94041.6 lineto
poly0
newpath
259865 -22041.6 moveto
259865 -21206.4 lineto
259030 -21206.4 lineto
259030 -22041.6 lineto
259865 -22041.6 lineto
poly0
newpath
259865 -34071.1 moveto
259865 -33235.9 lineto
259030 -33235.9 lineto
259030 -34071.1 lineto
259865 -34071.1 lineto
poly0
newpath
259865 -82071.1 moveto
259865 -81235.9 lineto
259030 -81235.9 lineto
259030 -82071.1 lineto
259865 -82071.1 lineto
poly0
newpath
259865 -94041.6 moveto
259865 -93206.4 lineto
259030 -93206.4 lineto
259030 -94041.6 lineto
259865 -94041.6 lineto
poly0
newpath
262865 -22041.6 moveto
262865 -21206.4 lineto
262030 -21206.4 lineto
262030 -22041.6 lineto
262865 -22041.6 lineto
poly0
newpath
262865 -34071.1 moveto
262865 -33235.9 lineto
262030 -33235.9 lineto
262030 -34071.1 lineto
262865 -34071.1 lineto
poly0
newpath
262865 -82071.1 moveto
262865 -81235.9 lineto
262030 -81235.9 lineto
262030 -82071.1 lineto
262865 -82071.1 lineto
poly0
newpath
262865 -94041.6 moveto
262865 -93206.4 lineto
262030 -93206.4 lineto
262030 -94041.6 lineto
262865 -94041.6 lineto
poly0
newpath
265865 -22041.6 moveto
265865 -21206.4 lineto
265030 -21206.4 lineto
265030 -22041.6 lineto
265865 -22041.6 lineto
poly0
newpath
265865 -34071.1 moveto
265865 -33235.9 lineto
265030 -33235.9 lineto
265030 -34071.1 lineto
265865 -34071.1 lineto
poly0
newpath
265865 -82071.1 moveto
265865 -81235.9 lineto
265030 -81235.9 lineto
265030 -82071.1 lineto
265865 -82071.1 lineto
poly0
newpath
265865 -94041.6 moveto
265865 -93206.4 lineto
265030 -93206.4 lineto
265030 -94041.6 lineto
265865 -94041.6 lineto
poly0
newpath
268865 -22041.6 moveto
268865 -21206.4 lineto
268030 -21206.4 lineto
268030 -22041.6 lineto
268865 -22041.6 lineto
poly0
newpath
268865 -34071.1 moveto
268865 -33235.9 lineto
268030 -33235.9 lineto
268030 -34071.1 lineto
268865 -34071.1 lineto
poly0
newpath
268865 -82071.1 moveto
268865 -81235.9 lineto
268030 -81235.9 lineto
268030 -82071.1 lineto
268865 -82071.1 lineto
poly0
newpath
268865 -94041.6 moveto
268865 -93206.4 lineto
268030 -93206.4 lineto
268030 -94041.6 lineto
268865 -94041.6 lineto
poly0
newpath
271865 -22041.6 moveto
271865 -21206.4 lineto
271030 -21206.4 lineto
271030 -22041.6 lineto
271865 -22041.6 lineto
poly0
newpath
271865 -34071.1 moveto
271865 -33235.9 lineto
271030 -33235.9 lineto
271030 -34071.1 lineto
271865 -34071.1 lineto
poly0
newpath
271865 -82071.1 moveto
271865 -81235.9 lineto
271030 -81235.9 lineto
271030 -82071.1 lineto
271865 -82071.1 lineto
poly0
newpath
271865 -94041.6 moveto
271865 -93206.4 lineto
271030 -93206.4 lineto
271030 -94041.6 lineto
271865 -94041.6 lineto
poly0
newpath
271883 -13041.6 moveto
271883 -12206.4 lineto
271047 -12206.4 lineto
271047 -13041.6 lineto
271883 -13041.6 lineto
poly0
newpath
274865 -22041.6 moveto
274865 -21206.4 lineto
274030 -21206.4 lineto
274030 -22041.6 lineto
274865 -22041.6 lineto
poly0
newpath
274865 -34071.1 moveto
274865 -33235.9 lineto
274030 -33235.9 lineto
274030 -34071.1 lineto
274865 -34071.1 lineto
poly0
newpath
274865 -82071.1 moveto
274865 -81235.9 lineto
274030 -81235.9 lineto
274030 -82071.1 lineto
274865 -82071.1 lineto
poly0
newpath
274865 -94041.6 moveto
274865 -93206.4 lineto
274030 -93206.4 lineto
274030 -94041.6 lineto
274865 -94041.6 lineto
poly0
newpath
274883 -13041.6 moveto
274883 -12206.4 lineto
274047 -12206.4 lineto
274047 -13041.6 lineto
274883 -13041.6 lineto
poly0
236.22 setlinewidth
78.7406 setlinewidth
0 0 0 setrgbcolor
0 0 0 setrgbcolor
newpath
59479.2 56653.7 moveto
59479.2 57441.1 lineto
59666.7 57441.1 lineto
59779.2 57403.6 lineto
59854.2 57328.6 lineto
59891.7 57253.6 lineto
59929.2 57103.6 lineto
59929.2 56991.1 lineto
59891.7 56841.1 lineto
59854.2 56766.1 lineto
59779.2 56691.1 lineto
59666.7 56653.7 lineto
59479.2 56653.7 lineto
stroke
newpath
60266.7 56653.7 moveto
60266.7 57178.6 lineto
stroke
newpath
60266.7 57028.6 moveto
60304.1 57103.6 lineto
60341.6 57141.1 lineto
60416.6 57178.6 lineto
60491.6 57178.6 lineto
stroke
newpath
60754.1 56653.7 moveto
60754.1 57178.6 lineto
stroke
newpath
60754.1 57441.1 moveto
60716.6 57403.6 lineto
60754.1 57366.1 lineto
60791.6 57403.6 lineto
60754.1 57441.1 lineto
60754.1 57366.1 lineto
stroke
newpath
61241.5 56653.7 moveto
61166.5 56691.1 lineto
61129 56766.1 lineto
61129 57441.1 lineto
stroke
newpath
61654 56653.7 moveto
61579 56691.1 lineto
61541.5 56766.1 lineto
61541.5 57441.1 lineto
stroke
newpath
62553.9 56653.7 moveto
62553.9 57441.1 lineto
62816.3 56878.6 lineto
63078.8 57441.1 lineto
63078.8 56653.7 lineto
stroke
newpath
63791.2 56653.7 moveto
63791.2 57066.1 lineto
63753.7 57141.1 lineto
63678.7 57178.6 lineto
63528.7 57178.6 lineto
63453.8 57141.1 lineto
stroke
newpath
63791.2 56691.1 moveto
63716.2 56653.7 lineto
63528.7 56653.7 lineto
63453.8 56691.1 lineto
63416.3 56766.1 lineto
63416.3 56841.1 lineto
63453.8 56916.1 lineto
63528.7 56953.6 lineto
63716.2 56953.6 lineto
63791.2 56991.1 lineto
stroke
newpath
64166.2 57178.6 moveto
64166.2 56391.2 lineto
stroke
newpath
64166.2 57141.1 moveto
64241.2 57178.6 lineto
64391.1 57178.6 lineto
64466.1 57141.1 lineto
64503.6 57103.6 lineto
64541.1 57028.6 lineto
64541.1 56803.6 lineto
64503.6 56728.6 lineto
64466.1 56691.1 lineto
64391.1 56653.7 lineto
64241.2 56653.7 lineto
64166.2 56691.1 lineto
stroke
newpath
64878.6 56728.6 moveto
64916.1 56691.1 lineto
64878.6 56653.7 lineto
64841.1 56691.1 lineto
64878.6 56728.6 lineto
64878.6 56653.7 lineto
stroke
newpath
64878.6 57141.1 moveto
64916.1 57103.6 lineto
64878.6 57066.1 lineto
64841.1 57103.6 lineto
64878.6 57141.1 lineto
64878.6 57066.1 lineto
stroke
47.2441 setlinewidth
newpath
57992.6 55592.5 moveto
58465 55120.1 lineto
stroke
newpath
58465 55592.5 moveto
57992.6 55120.1 lineto
stroke
236.22 setlinewidth
78.7406 setlinewidth
0 0 0 setrgbcolor
0 0 0 setrgbcolor
newpath
59629.2 55787.5 moveto
59704.2 55787.5 lineto
59779.2 55750 lineto
59816.7 55712.5 lineto
59854.2 55637.5 lineto
59891.7 55487.5 lineto
59891.7 55300.1 lineto
59854.2 55150.1 lineto
59816.7 55075.1 lineto
59779.2 55037.6 lineto
59704.2 55000.1 lineto
59629.2 55000.1 lineto
59554.2 55037.6 lineto
59516.7 55075.1 lineto
59479.2 55150.1 lineto
59441.8 55300.1 lineto
59441.8 55487.5 lineto
59479.2 55637.5 lineto
59516.7 55712.5 lineto
59554.2 55750 lineto
59629.2 55787.5 lineto
stroke
newpath
60229.2 55075.1 moveto
60266.7 55037.6 lineto
60229.2 55000.1 lineto
60191.7 55037.6 lineto
60229.2 55075.1 lineto
60229.2 55000.1 lineto
stroke
newpath
60941.6 55525 moveto
60941.6 55000.1 lineto
stroke
newpath
60754.1 55825 moveto
60566.6 55262.6 lineto
61054.1 55262.6 lineto
stroke
newpath
61504 55787.5 moveto
61579 55787.5 lineto
61654 55750 lineto
61691.5 55712.5 lineto
61729 55637.5 lineto
61766.5 55487.5 lineto
61766.5 55300.1 lineto
61729 55150.1 lineto
61691.5 55075.1 lineto
61654 55037.6 lineto
61579 55000.1 lineto
61504 55000.1 lineto
61429 55037.6 lineto
61391.5 55075.1 lineto
61354 55150.1 lineto
61316.5 55300.1 lineto
61316.5 55487.5 lineto
61354 55637.5 lineto
61391.5 55712.5 lineto
61429 55750 lineto
61504 55787.5 lineto
stroke
newpath
62253.9 55787.5 moveto
62328.9 55787.5 lineto
62403.9 55750 lineto
62441.4 55712.5 lineto
62478.9 55637.5 lineto
62516.4 55487.5 lineto
62516.4 55300.1 lineto
62478.9 55150.1 lineto
62441.4 55075.1 lineto
62403.9 55037.6 lineto
62328.9 55000.1 lineto
62253.9 55000.1 lineto
62178.9 55037.6 lineto
62141.4 55075.1 lineto
62103.9 55150.1 lineto
62066.4 55300.1 lineto
62066.4 55487.5 lineto
62103.9 55637.5 lineto
62141.4 55712.5 lineto
62178.9 55750 lineto
62253.9 55787.5 lineto
stroke
newpath
62853.8 55000.1 moveto
62853.8 55525 lineto
stroke
newpath
62853.8 55450.1 moveto
62891.3 55487.5 lineto
62966.3 55525 lineto
63078.8 55525 lineto
63153.8 55487.5 lineto
63191.3 55412.6 lineto
63191.3 55000.1 lineto
stroke
newpath
63191.3 55412.6 moveto
63228.8 55487.5 lineto
63303.8 55525 lineto
63416.3 55525 lineto
63491.2 55487.5 lineto
63528.7 55412.6 lineto
63528.7 55000.1 lineto
stroke
newpath
63903.7 55000.1 moveto
63903.7 55525 lineto
stroke
newpath
63903.7 55450.1 moveto
63941.2 55487.5 lineto
64016.2 55525 lineto
64128.7 55525 lineto
64203.7 55487.5 lineto
64241.2 55412.6 lineto
64241.2 55000.1 lineto
stroke
newpath
64241.2 55412.6 moveto
64278.7 55487.5 lineto
64353.6 55525 lineto
64466.1 55525 lineto
64541.1 55487.5 lineto
64578.6 55412.6 lineto
64578.6 55000.1 lineto
stroke
newpath
66115.9 55825 moveto
65441 54812.6 lineto
stroke
newpath
67128.3 55787.5 moveto
67203.3 55787.5 lineto
67278.3 55750 lineto
67315.8 55712.5 lineto
67353.3 55637.5 lineto
67390.8 55487.5 lineto
67390.8 55300.1 lineto
67353.3 55150.1 lineto
67315.8 55075.1 lineto
67278.3 55037.6 lineto
67203.3 55000.1 lineto
67128.3 55000.1 lineto
67053.3 55037.6 lineto
67015.8 55075.1 lineto
66978.3 55150.1 lineto
66940.8 55300.1 lineto
66940.8 55487.5 lineto
66978.3 55637.5 lineto
67015.8 55712.5 lineto
67053.3 55750 lineto
67128.3 55787.5 lineto
stroke
newpath
67728.2 55075.1 moveto
67765.7 55037.6 lineto
67728.2 55000.1 lineto
67690.7 55037.6 lineto
67728.2 55075.1 lineto
67728.2 55000.1 lineto
stroke
newpath
68253.2 55787.5 moveto
68328.1 55787.5 lineto
68403.1 55750 lineto
68440.6 55712.5 lineto
68478.1 55637.5 lineto
68515.6 55487.5 lineto
68515.6 55300.1 lineto
68478.1 55150.1 lineto
68440.6 55075.1 lineto
68403.1 55037.6 lineto
68328.1 55000.1 lineto
68253.2 55000.1 lineto
68178.2 55037.6 lineto
68140.7 55075.1 lineto
68103.2 55150.1 lineto
68065.7 55300.1 lineto
68065.7 55487.5 lineto
68103.2 55637.5 lineto
68140.7 55712.5 lineto
68178.2 55750 lineto
68253.2 55787.5 lineto
stroke
newpath
69265.5 55000.1 moveto
68815.6 55000.1 lineto
stroke
newpath
69040.6 55000.1 moveto
69040.6 55787.5 lineto
68965.6 55675 lineto
68890.6 55600 lineto
68815.6 55562.5 lineto
stroke
newpath
69977.9 55787.5 moveto
69603 55787.5 lineto
69565.5 55412.6 lineto
69603 55450.1 lineto
69678 55487.5 lineto
69865.5 55487.5 lineto
69940.4 55450.1 lineto
69977.9 55412.6 lineto
70015.4 55337.6 lineto
70015.4 55150.1 lineto
69977.9 55075.1 lineto
69940.4 55037.6 lineto
69865.5 55000.1 lineto
69678 55000.1 lineto
69603 55037.6 lineto
69565.5 55075.1 lineto
stroke
newpath
70277.9 55787.5 moveto
70802.8 55787.5 lineto
70465.4 55000.1 lineto
stroke
newpath
71065.3 55787.5 moveto
71065.3 55637.5 lineto
stroke
newpath
71365.3 55787.5 moveto
71365.3 55637.5 lineto
stroke
newpath
72527.6 54700.1 moveto
72490.1 54737.6 lineto
72415.1 54850.1 lineto
72377.6 54925.1 lineto
72340.1 55037.6 lineto
72302.7 55225.1 lineto
72302.7 55375.1 lineto
72340.1 55562.5 lineto
72377.6 55675 lineto
72415.1 55750 lineto
72490.1 55862.5 lineto
72527.6 55900 lineto
stroke
newpath
72940.1 55450.1 moveto
72865.1 55487.5 lineto
72827.6 55525 lineto
72790.1 55600 lineto
72790.1 55637.5 lineto
72827.6 55712.5 lineto
72865.1 55750 lineto
72940.1 55787.5 lineto
73090.1 55787.5 lineto
73165 55750 lineto
73202.5 55712.5 lineto
73240 55637.5 lineto
73240 55600 lineto
73202.5 55525 lineto
73165 55487.5 lineto
73090.1 55450.1 lineto
72940.1 55450.1 lineto
72865.1 55412.6 lineto
72827.6 55375.1 lineto
72790.1 55300.1 lineto
72790.1 55150.1 lineto
72827.6 55075.1 lineto
72865.1 55037.6 lineto
72940.1 55000.1 lineto
73090.1 55000.1 lineto
73165 55037.6 lineto
73202.5 55075.1 lineto
73240 55150.1 lineto
73240 55300.1 lineto
73202.5 55375.1 lineto
73165 55412.6 lineto
73090.1 55450.1 lineto
stroke
newpath
73989.9 55000.1 moveto
73540 55000.1 lineto
stroke
newpath
73765 55000.1 moveto
73765 55787.5 lineto
73690 55675 lineto
73615 55600 lineto
73540 55562.5 lineto
stroke
newpath
74927.3 55000.1 moveto
74927.3 55787.5 lineto
stroke
newpath
75264.8 55000.1 moveto
75264.8 55412.6 lineto
75227.3 55487.5 lineto
75152.3 55525 lineto
75039.8 55525 lineto
74964.8 55487.5 lineto
74927.3 55450.1 lineto
stroke
newpath
75752.2 55000.1 moveto
75677.2 55037.6 lineto
75639.7 55075.1 lineto
75602.2 55150.1 lineto
75602.2 55375.1 lineto
75639.7 55450.1 lineto
75677.2 55487.5 lineto
75752.2 55525 lineto
75864.7 55525 lineto
75939.7 55487.5 lineto
75977.2 55450.1 lineto
76014.7 55375.1 lineto
76014.7 55150.1 lineto
75977.2 55075.1 lineto
75939.7 55037.6 lineto
75864.7 55000.1 lineto
75752.2 55000.1 lineto
stroke
newpath
76464.6 55000.1 moveto
76389.6 55037.6 lineto
76352.1 55112.6 lineto
76352.1 55787.5 lineto
stroke
newpath
77064.6 55037.6 moveto
76989.6 55000.1 lineto
76839.6 55000.1 lineto
76764.6 55037.6 lineto
76727.1 55112.6 lineto
76727.1 55412.6 lineto
76764.6 55487.5 lineto
76839.6 55525 lineto
76989.6 55525 lineto
77064.6 55487.5 lineto
77102.1 55412.6 lineto
77102.1 55337.6 lineto
76727.1 55262.6 lineto
stroke
newpath
77402 55037.6 moveto
77477 55000.1 lineto
77627 55000.1 lineto
77702 55037.6 lineto
77739.5 55112.6 lineto
77739.5 55150.1 lineto
77702 55225.1 lineto
77627 55262.6 lineto
77514.5 55262.6 lineto
77439.5 55300.1 lineto
77402 55375.1 lineto
77402 55412.6 lineto
77439.5 55487.5 lineto
77514.5 55525 lineto
77627 55525 lineto
77702 55487.5 lineto
stroke
newpath
78001.9 54700.1 moveto
78039.4 54737.6 lineto
78114.4 54850.1 lineto
78151.9 54925.1 lineto
78189.4 55037.6 lineto
78226.9 55225.1 lineto
78226.9 55375.1 lineto
78189.4 55562.5 lineto
78151.9 55675 lineto
78114.4 55750 lineto
78039.4 55862.5 lineto
78001.9 55900 lineto
stroke
59.0551 setlinewidth
58169.7 54316.9 295.276 cir0
236.22 setlinewidth
78.7406 setlinewidth
0 0 0 setrgbcolor
0 0 0 setrgbcolor
newpath
59629.2 54748.1 moveto
59704.2 54748.1 lineto
59779.2 54710.6 lineto
59816.7 54673.1 lineto
59854.2 54598.2 lineto
59891.7 54448.2 lineto
59891.7 54260.7 lineto
59854.2 54110.7 lineto
59816.7 54035.7 lineto
59779.2 53998.2 lineto
59704.2 53960.7 lineto
59629.2 53960.7 lineto
59554.2 53998.2 lineto
59516.7 54035.7 lineto
59479.2 54110.7 lineto
59441.8 54260.7 lineto
59441.8 54448.2 lineto
59479.2 54598.2 lineto
59516.7 54673.1 lineto
59554.2 54710.6 lineto
59629.2 54748.1 lineto
stroke
newpath
60229.2 54035.7 moveto
60266.7 53998.2 lineto
60229.2 53960.7 lineto
60191.7 53998.2 lineto
60229.2 54035.7 lineto
60229.2 53960.7 lineto
stroke
newpath
60979.1 54748.1 moveto
60604.1 54748.1 lineto
60566.6 54373.2 lineto
60604.1 54410.7 lineto
60679.1 54448.2 lineto
60866.6 54448.2 lineto
60941.6 54410.7 lineto
60979.1 54373.2 lineto
61016.6 54298.2 lineto
61016.6 54110.7 lineto
60979.1 54035.7 lineto
60941.6 53998.2 lineto
60866.6 53960.7 lineto
60679.1 53960.7 lineto
60604.1 53998.2 lineto
60566.6 54035.7 lineto
stroke
newpath
61504 54748.1 moveto
61579 54748.1 lineto
61654 54710.6 lineto
61691.5 54673.1 lineto
61729 54598.2 lineto
61766.5 54448.2 lineto
61766.5 54260.7 lineto
61729 54110.7 lineto
61691.5 54035.7 lineto
61654 53998.2 lineto
61579 53960.7 lineto
61504 53960.7 lineto
61429 53998.2 lineto
61391.5 54035.7 lineto
61354 54110.7 lineto
61316.5 54260.7 lineto
61316.5 54448.2 lineto
61354 54598.2 lineto
61391.5 54673.1 lineto
61429 54710.6 lineto
61504 54748.1 lineto
stroke
newpath
62253.9 54748.1 moveto
62328.9 54748.1 lineto
62403.9 54710.6 lineto
62441.4 54673.1 lineto
62478.9 54598.2 lineto
62516.4 54448.2 lineto
62516.4 54260.7 lineto
62478.9 54110.7 lineto
62441.4 54035.7 lineto
62403.9 53998.2 lineto
62328.9 53960.7 lineto
62253.9 53960.7 lineto
62178.9 53998.2 lineto
62141.4 54035.7 lineto
62103.9 54110.7 lineto
62066.4 54260.7 lineto
62066.4 54448.2 lineto
62103.9 54598.2 lineto
62141.4 54673.1 lineto
62178.9 54710.6 lineto
62253.9 54748.1 lineto
stroke
newpath
62853.8 53960.7 moveto
62853.8 54485.7 lineto
stroke
newpath
62853.8 54410.7 moveto
62891.3 54448.2 lineto
62966.3 54485.7 lineto
63078.8 54485.7 lineto
63153.8 54448.2 lineto
63191.3 54373.2 lineto
63191.3 53960.7 lineto
stroke
newpath
63191.3 54373.2 moveto
63228.8 54448.2 lineto
63303.8 54485.7 lineto
63416.3 54485.7 lineto
63491.2 54448.2 lineto
63528.7 54373.2 lineto
63528.7 53960.7 lineto
stroke
newpath
63903.7 53960.7 moveto
63903.7 54485.7 lineto
stroke
newpath
63903.7 54410.7 moveto
63941.2 54448.2 lineto
64016.2 54485.7 lineto
64128.7 54485.7 lineto
64203.7 54448.2 lineto
64241.2 54373.2 lineto
64241.2 53960.7 lineto
stroke
newpath
64241.2 54373.2 moveto
64278.7 54448.2 lineto
64353.6 54485.7 lineto
64466.1 54485.7 lineto
64541.1 54448.2 lineto
64578.6 54373.2 lineto
64578.6 53960.7 lineto
stroke
newpath
66115.9 54785.6 moveto
65441 53773.3 lineto
stroke
newpath
67128.3 54748.1 moveto
67203.3 54748.1 lineto
67278.3 54710.6 lineto
67315.8 54673.1 lineto
67353.3 54598.2 lineto
67390.8 54448.2 lineto
67390.8 54260.7 lineto
67353.3 54110.7 lineto
67315.8 54035.7 lineto
67278.3 53998.2 lineto
67203.3 53960.7 lineto
67128.3 53960.7 lineto
67053.3 53998.2 lineto
67015.8 54035.7 lineto
66978.3 54110.7 lineto
66940.8 54260.7 lineto
66940.8 54448.2 lineto
66978.3 54598.2 lineto
67015.8 54673.1 lineto
67053.3 54710.6 lineto
67128.3 54748.1 lineto
stroke
newpath
67728.2 54035.7 moveto
67765.7 53998.2 lineto
67728.2 53960.7 lineto
67690.7 53998.2 lineto
67728.2 54035.7 lineto
67728.2 53960.7 lineto
stroke
newpath
68253.2 54748.1 moveto
68328.1 54748.1 lineto
68403.1 54710.6 lineto
68440.6 54673.1 lineto
68478.1 54598.2 lineto
68515.6 54448.2 lineto
68515.6 54260.7 lineto
68478.1 54110.7 lineto
68440.6 54035.7 lineto
68403.1 53998.2 lineto
68328.1 53960.7 lineto
68253.2 53960.7 lineto
68178.2 53998.2 lineto
68140.7 54035.7 lineto
68103.2 54110.7 lineto
68065.7 54260.7 lineto
68065.7 54448.2 lineto
68103.2 54598.2 lineto
68140.7 54673.1 lineto
68178.2 54710.6 lineto
68253.2 54748.1 lineto
stroke
newpath
69265.5 53960.7 moveto
68815.6 53960.7 lineto
stroke
newpath
69040.6 53960.7 moveto
69040.6 54748.1 lineto
68965.6 54635.7 lineto
68890.6 54560.7 lineto
68815.6 54523.2 lineto
stroke
newpath
69640.5 53960.7 moveto
69790.5 53960.7 lineto
69865.5 53998.2 lineto
69903 54035.7 lineto
69977.9 54148.2 lineto
70015.4 54298.2 lineto
70015.4 54598.2 lineto
69977.9 54673.1 lineto
69940.4 54710.6 lineto
69865.5 54748.1 lineto
69715.5 54748.1 lineto
69640.5 54710.6 lineto
69603 54673.1 lineto
69565.5 54598.2 lineto
69565.5 54410.7 lineto
69603 54335.7 lineto
69640.5 54298.2 lineto
69715.5 54260.7 lineto
69865.5 54260.7 lineto
69940.4 54298.2 lineto
69977.9 54335.7 lineto
70015.4 54410.7 lineto
stroke
newpath
70277.9 54748.1 moveto
70802.8 54748.1 lineto
70465.4 53960.7 lineto
stroke
newpath
71065.3 54748.1 moveto
71065.3 54598.2 lineto
stroke
newpath
71365.3 54748.1 moveto
71365.3 54598.2 lineto
stroke
newpath
72527.6 53660.8 moveto
72490.1 53698.3 lineto
72415.1 53810.8 lineto
72377.6 53885.7 lineto
72340.1 53998.2 lineto
72302.7 54185.7 lineto
72302.7 54335.7 lineto
72340.1 54523.2 lineto
72377.6 54635.7 lineto
72415.1 54710.6 lineto
72490.1 54823.1 lineto
72527.6 54860.6 lineto
stroke
newpath
72977.6 54748.1 moveto
73052.6 54748.1 lineto
73127.6 54710.6 lineto
73165 54673.1 lineto
73202.5 54598.2 lineto
73240 54448.2 lineto
73240 54260.7 lineto
73202.5 54110.7 lineto
73165 54035.7 lineto
73127.6 53998.2 lineto
73052.6 53960.7 lineto
72977.6 53960.7 lineto
72902.6 53998.2 lineto
72865.1 54035.7 lineto
72827.6 54110.7 lineto
72790.1 54260.7 lineto
72790.1 54448.2 lineto
72827.6 54598.2 lineto
72865.1 54673.1 lineto
72902.6 54710.6 lineto
72977.6 54748.1 lineto
stroke
newpath
74177.4 53960.7 moveto
74177.4 54748.1 lineto
stroke
newpath
74514.9 53960.7 moveto
74514.9 54373.2 lineto
74477.4 54448.2 lineto
74402.4 54485.7 lineto
74289.9 54485.7 lineto
74214.9 54448.2 lineto
74177.4 54410.7 lineto
stroke
newpath
75002.3 53960.7 moveto
74927.3 53998.2 lineto
74889.8 54035.7 lineto
74852.3 54110.7 lineto
74852.3 54335.7 lineto
74889.8 54410.7 lineto
74927.3 54448.2 lineto
75002.3 54485.7 lineto
75114.8 54485.7 lineto
75189.8 54448.2 lineto
75227.3 54410.7 lineto
75264.8 54335.7 lineto
75264.8 54110.7 lineto
75227.3 54035.7 lineto
75189.8 53998.2 lineto
75114.8 53960.7 lineto
75002.3 53960.7 lineto
stroke
newpath
75714.7 53960.7 moveto
75639.7 53998.2 lineto
75602.2 54073.2 lineto
75602.2 54748.1 lineto
stroke
newpath
76314.7 53998.2 moveto
76239.7 53960.7 lineto
76089.7 53960.7 lineto
76014.7 53998.2 lineto
75977.2 54073.2 lineto
75977.2 54373.2 lineto
76014.7 54448.2 lineto
76089.7 54485.7 lineto
76239.7 54485.7 lineto
76314.7 54448.2 lineto
76352.1 54373.2 lineto
76352.1 54298.2 lineto
75977.2 54223.2 lineto
stroke
newpath
76652.1 53998.2 moveto
76727.1 53960.7 lineto
76877.1 53960.7 lineto
76952.1 53998.2 lineto
76989.6 54073.2 lineto
76989.6 54110.7 lineto
76952.1 54185.7 lineto
76877.1 54223.2 lineto
76764.6 54223.2 lineto
76689.6 54260.7 lineto
76652.1 54335.7 lineto
76652.1 54373.2 lineto
76689.6 54448.2 lineto
76764.6 54485.7 lineto
76877.1 54485.7 lineto
76952.1 54448.2 lineto
stroke
newpath
77927 54260.7 moveto
78526.9 54260.7 lineto
stroke
newpath
78226.9 53960.7 moveto
78226.9 54560.7 lineto
stroke
newpath
79464.3 54673.1 moveto
79501.8 54710.6 lineto
79576.7 54748.1 lineto
79764.2 54748.1 lineto
79839.2 54710.6 lineto
79876.7 54673.1 lineto
79914.2 54598.2 lineto
79914.2 54523.2 lineto
79876.7 54410.7 lineto
79426.8 53960.7 lineto
79914.2 53960.7 lineto
stroke
newpath
80814.1 53998.2 moveto
80889.1 53960.7 lineto
81039.1 53960.7 lineto
81114.1 53998.2 lineto
81151.6 54073.2 lineto
81151.6 54110.7 lineto
81114.1 54185.7 lineto
81039.1 54223.2 lineto
80926.6 54223.2 lineto
80851.6 54260.7 lineto
80814.1 54335.7 lineto
80814.1 54373.2 lineto
80851.6 54448.2 lineto
80926.6 54485.7 lineto
81039.1 54485.7 lineto
81114.1 54448.2 lineto
stroke
newpath
81601.5 53960.7 moveto
81526.5 53998.2 lineto
81489 54073.2 lineto
81489 54748.1 lineto
stroke
newpath
82013.9 53960.7 moveto
81939 53998.2 lineto
81901.5 54035.7 lineto
81864 54110.7 lineto
81864 54335.7 lineto
81901.5 54410.7 lineto
81939 54448.2 lineto
82013.9 54485.7 lineto
82126.4 54485.7 lineto
82201.4 54448.2 lineto
82238.9 54410.7 lineto
82276.4 54335.7 lineto
82276.4 54110.7 lineto
82238.9 54035.7 lineto
82201.4 53998.2 lineto
82126.4 53960.7 lineto
82013.9 53960.7 lineto
stroke
newpath
82501.4 54485.7 moveto
82801.3 54485.7 lineto
stroke
newpath
82613.9 54748.1 moveto
82613.9 54073.2 lineto
82651.4 53998.2 lineto
82726.4 53960.7 lineto
82801.3 53960.7 lineto
stroke
newpath
83026.3 53998.2 moveto
83101.3 53960.7 lineto
83251.3 53960.7 lineto
83326.3 53998.2 lineto
83363.8 54073.2 lineto
83363.8 54110.7 lineto
83326.3 54185.7 lineto
83251.3 54223.2 lineto
83138.8 54223.2 lineto
83063.8 54260.7 lineto
83026.3 54335.7 lineto
83026.3 54373.2 lineto
83063.8 54448.2 lineto
83138.8 54485.7 lineto
83251.3 54485.7 lineto
83326.3 54448.2 lineto
stroke
newpath
83626.2 53660.8 moveto
83663.7 53698.3 lineto
83738.7 53810.8 lineto
83776.2 53885.7 lineto
83813.7 53998.2 lineto
83851.2 54185.7 lineto
83851.2 54335.7 lineto
83813.7 54523.2 lineto
83776.2 54635.7 lineto
83738.7 54710.6 lineto
83663.7 54823.1 lineto
83626.2 54860.6 lineto
stroke
64.9606 setlinewidth
newpath
58140.2 53578.8 moveto
58140.2 52929.1 lineto
stroke
newpath
57815.4 53254 moveto
58465 53254 lineto
stroke
236.22 setlinewidth
78.7406 setlinewidth
0 0 0 setrgbcolor
0 0 0 setrgbcolor
newpath
59629.2 53685.1 moveto
59704.2 53685.1 lineto
59779.2 53647.7 lineto
59816.7 53610.2 lineto
59854.2 53535.2 lineto
59891.7 53385.2 lineto
59891.7 53197.7 lineto
59854.2 53047.7 lineto
59816.7 52972.7 lineto
59779.2 52935.2 lineto
59704.2 52897.7 lineto
59629.2 52897.7 lineto
59554.2 52935.2 lineto
59516.7 52972.7 lineto
59479.2 53047.7 lineto
59441.8 53197.7 lineto
59441.8 53385.2 lineto
59479.2 53535.2 lineto
59516.7 53610.2 lineto
59554.2 53647.7 lineto
59629.2 53685.1 lineto
stroke
newpath
60229.2 52972.7 moveto
60266.7 52935.2 lineto
60229.2 52897.7 lineto
60191.7 52935.2 lineto
60229.2 52972.7 lineto
60229.2 52897.7 lineto
stroke
newpath
60979.1 53685.1 moveto
60604.1 53685.1 lineto
60566.6 53310.2 lineto
60604.1 53347.7 lineto
60679.1 53385.2 lineto
60866.6 53385.2 lineto
60941.6 53347.7 lineto
60979.1 53310.2 lineto
61016.6 53235.2 lineto
61016.6 53047.7 lineto
60979.1 52972.7 lineto
60941.6 52935.2 lineto
60866.6 52897.7 lineto
60679.1 52897.7 lineto
60604.1 52935.2 lineto
60566.6 52972.7 lineto
stroke
newpath
61729 53685.1 moveto
61354 53685.1 lineto
61316.5 53310.2 lineto
61354 53347.7 lineto
61429 53385.2 lineto
61616.5 53385.2 lineto
61691.5 53347.7 lineto
61729 53310.2 lineto
61766.5 53235.2 lineto
61766.5 53047.7 lineto
61729 52972.7 lineto
61691.5 52935.2 lineto
61616.5 52897.7 lineto
61429 52897.7 lineto
61354 52935.2 lineto
61316.5 52972.7 lineto
stroke
newpath
62253.9 53685.1 moveto
62328.9 53685.1 lineto
62403.9 53647.7 lineto
62441.4 53610.2 lineto
62478.9 53535.2 lineto
62516.4 53385.2 lineto
62516.4 53197.7 lineto
62478.9 53047.7 lineto
62441.4 52972.7 lineto
62403.9 52935.2 lineto
62328.9 52897.7 lineto
62253.9 52897.7 lineto
62178.9 52935.2 lineto
62141.4 52972.7 lineto
62103.9 53047.7 lineto
62066.4 53197.7 lineto
62066.4 53385.2 lineto
62103.9 53535.2 lineto
62141.4 53610.2 lineto
62178.9 53647.7 lineto
62253.9 53685.1 lineto
stroke
newpath
62853.8 52897.7 moveto
62853.8 53422.7 lineto
stroke
newpath
62853.8 53347.7 moveto
62891.3 53385.2 lineto
62966.3 53422.7 lineto
63078.8 53422.7 lineto
63153.8 53385.2 lineto
63191.3 53310.2 lineto
63191.3 52897.7 lineto
stroke
newpath
63191.3 53310.2 moveto
63228.8 53385.2 lineto
63303.8 53422.7 lineto
63416.3 53422.7 lineto
63491.2 53385.2 lineto
63528.7 53310.2 lineto
63528.7 52897.7 lineto
stroke
newpath
63903.7 52897.7 moveto
63903.7 53422.7 lineto
stroke
newpath
63903.7 53347.7 moveto
63941.2 53385.2 lineto
64016.2 53422.7 lineto
64128.7 53422.7 lineto
64203.7 53385.2 lineto
64241.2 53310.2 lineto
64241.2 52897.7 lineto
stroke
newpath
64241.2 53310.2 moveto
64278.7 53385.2 lineto
64353.6 53422.7 lineto
64466.1 53422.7 lineto
64541.1 53385.2 lineto
64578.6 53310.2 lineto
64578.6 52897.7 lineto
stroke
newpath
66115.9 53722.6 moveto
65441 52710.3 lineto
stroke
newpath
67128.3 53685.1 moveto
67203.3 53685.1 lineto
67278.3 53647.7 lineto
67315.8 53610.2 lineto
67353.3 53535.2 lineto
67390.8 53385.2 lineto
67390.8 53197.7 lineto
67353.3 53047.7 lineto
67315.8 52972.7 lineto
67278.3 52935.2 lineto
67203.3 52897.7 lineto
67128.3 52897.7 lineto
67053.3 52935.2 lineto
67015.8 52972.7 lineto
66978.3 53047.7 lineto
66940.8 53197.7 lineto
66940.8 53385.2 lineto
66978.3 53535.2 lineto
67015.8 53610.2 lineto
67053.3 53647.7 lineto
67128.3 53685.1 lineto
stroke
newpath
67728.2 52972.7 moveto
67765.7 52935.2 lineto
67728.2 52897.7 lineto
67690.7 52935.2 lineto
67728.2 52972.7 lineto
67728.2 52897.7 lineto
stroke
newpath
68253.2 53685.1 moveto
68328.1 53685.1 lineto
68403.1 53647.7 lineto
68440.6 53610.2 lineto
68478.1 53535.2 lineto
68515.6 53385.2 lineto
68515.6 53197.7 lineto
68478.1 53047.7 lineto
68440.6 52972.7 lineto
68403.1 52935.2 lineto
68328.1 52897.7 lineto
68253.2 52897.7 lineto
68178.2 52935.2 lineto
68140.7 52972.7 lineto
68103.2 53047.7 lineto
68065.7 53197.7 lineto
68065.7 53385.2 lineto
68103.2 53535.2 lineto
68140.7 53610.2 lineto
68178.2 53647.7 lineto
68253.2 53685.1 lineto
stroke
newpath
68815.6 53610.2 moveto
68853.1 53647.7 lineto
68928.1 53685.1 lineto
69115.5 53685.1 lineto
69190.5 53647.7 lineto
69228 53610.2 lineto
69265.5 53535.2 lineto
69265.5 53460.2 lineto
69228 53347.7 lineto
68778.1 52897.7 lineto
69265.5 52897.7 lineto
stroke
newpath
70015.4 52897.7 moveto
69565.5 52897.7 lineto
stroke
newpath
69790.5 52897.7 moveto
69790.5 53685.1 lineto
69715.5 53572.7 lineto
69640.5 53497.7 lineto
69565.5 53460.2 lineto
stroke
newpath
70277.9 53685.1 moveto
70802.8 53685.1 lineto
70465.4 52897.7 lineto
stroke
newpath
71065.3 53685.1 moveto
71065.3 53535.2 lineto
stroke
newpath
71365.3 53685.1 moveto
71365.3 53535.2 lineto
stroke
newpath
72527.6 52597.8 moveto
72490.1 52635.3 lineto
72415.1 52747.8 lineto
72377.6 52822.8 lineto
72340.1 52935.2 lineto
72302.7 53122.7 lineto
72302.7 53272.7 lineto
72340.1 53460.2 lineto
72377.6 53572.7 lineto
72415.1 53647.7 lineto
72490.1 53760.1 lineto
72527.6 53797.6 lineto
stroke
newpath
72977.6 53685.1 moveto
73052.6 53685.1 lineto
73127.6 53647.7 lineto
73165 53610.2 lineto
73202.5 53535.2 lineto
73240 53385.2 lineto
73240 53197.7 lineto
73202.5 53047.7 lineto
73165 52972.7 lineto
73127.6 52935.2 lineto
73052.6 52897.7 lineto
72977.6 52897.7 lineto
72902.6 52935.2 lineto
72865.1 52972.7 lineto
72827.6 53047.7 lineto
72790.1 53197.7 lineto
72790.1 53385.2 lineto
72827.6 53535.2 lineto
72865.1 53610.2 lineto
72902.6 53647.7 lineto
72977.6 53685.1 lineto
stroke
newpath
74177.4 52897.7 moveto
74177.4 53685.1 lineto
stroke
newpath
74514.9 52897.7 moveto
74514.9 53310.2 lineto
74477.4 53385.2 lineto
74402.4 53422.7 lineto
74289.9 53422.7 lineto
74214.9 53385.2 lineto
74177.4 53347.7 lineto
stroke
newpath
75002.3 52897.7 moveto
74927.3 52935.2 lineto
74889.8 52972.7 lineto
74852.3 53047.7 lineto
74852.3 53272.7 lineto
74889.8 53347.7 lineto
74927.3 53385.2 lineto
75002.3 53422.7 lineto
75114.8 53422.7 lineto
75189.8 53385.2 lineto
75227.3 53347.7 lineto
75264.8 53272.7 lineto
75264.8 53047.7 lineto
75227.3 52972.7 lineto
75189.8 52935.2 lineto
75114.8 52897.7 lineto
75002.3 52897.7 lineto
stroke
newpath
75714.7 52897.7 moveto
75639.7 52935.2 lineto
75602.2 53010.2 lineto
75602.2 53685.1 lineto
stroke
newpath
76314.7 52935.2 moveto
76239.7 52897.7 lineto
76089.7 52897.7 lineto
76014.7 52935.2 lineto
75977.2 53010.2 lineto
75977.2 53310.2 lineto
76014.7 53385.2 lineto
76089.7 53422.7 lineto
76239.7 53422.7 lineto
76314.7 53385.2 lineto
76352.1 53310.2 lineto
76352.1 53235.2 lineto
75977.2 53160.2 lineto
stroke
newpath
76652.1 52935.2 moveto
76727.1 52897.7 lineto
76877.1 52897.7 lineto
76952.1 52935.2 lineto
76989.6 53010.2 lineto
76989.6 53047.7 lineto
76952.1 53122.7 lineto
76877.1 53160.2 lineto
76764.6 53160.2 lineto
76689.6 53197.7 lineto
76652.1 53272.7 lineto
76652.1 53310.2 lineto
76689.6 53385.2 lineto
76764.6 53422.7 lineto
76877.1 53422.7 lineto
76952.1 53385.2 lineto
stroke
newpath
77927 53197.7 moveto
78526.9 53197.7 lineto
stroke
newpath
78226.9 52897.7 moveto
78226.9 53497.7 lineto
stroke
newpath
79464.3 53610.2 moveto
79501.8 53647.7 lineto
79576.7 53685.1 lineto
79764.2 53685.1 lineto
79839.2 53647.7 lineto
79876.7 53610.2 lineto
79914.2 53535.2 lineto
79914.2 53460.2 lineto
79876.7 53347.7 lineto
79426.8 52897.7 lineto
79914.2 52897.7 lineto
stroke
newpath
80814.1 52935.2 moveto
80889.1 52897.7 lineto
81039.1 52897.7 lineto
81114.1 52935.2 lineto
81151.6 53010.2 lineto
81151.6 53047.7 lineto
81114.1 53122.7 lineto
81039.1 53160.2 lineto
80926.6 53160.2 lineto
80851.6 53197.7 lineto
80814.1 53272.7 lineto
80814.1 53310.2 lineto
80851.6 53385.2 lineto
80926.6 53422.7 lineto
81039.1 53422.7 lineto
81114.1 53385.2 lineto
stroke
newpath
81601.5 52897.7 moveto
81526.5 52935.2 lineto
81489 53010.2 lineto
81489 53685.1 lineto
stroke
newpath
82013.9 52897.7 moveto
81939 52935.2 lineto
81901.5 52972.7 lineto
81864 53047.7 lineto
81864 53272.7 lineto
81901.5 53347.7 lineto
81939 53385.2 lineto
82013.9 53422.7 lineto
82126.4 53422.7 lineto
82201.4 53385.2 lineto
82238.9 53347.7 lineto
82276.4 53272.7 lineto
82276.4 53047.7 lineto
82238.9 52972.7 lineto
82201.4 52935.2 lineto
82126.4 52897.7 lineto
82013.9 52897.7 lineto
stroke
newpath
82501.4 53422.7 moveto
82801.3 53422.7 lineto
stroke
newpath
82613.9 53685.1 moveto
82613.9 53010.2 lineto
82651.4 52935.2 lineto
82726.4 52897.7 lineto
82801.3 52897.7 lineto
stroke
newpath
83026.3 52935.2 moveto
83101.3 52897.7 lineto
83251.3 52897.7 lineto
83326.3 52935.2 lineto
83363.8 53010.2 lineto
83363.8 53047.7 lineto
83326.3 53122.7 lineto
83251.3 53160.2 lineto
83138.8 53160.2 lineto
83063.8 53197.7 lineto
83026.3 53272.7 lineto
83026.3 53310.2 lineto
83063.8 53385.2 lineto
83138.8 53422.7 lineto
83251.3 53422.7 lineto
83326.3 53385.2 lineto
stroke
newpath
83626.2 52597.8 moveto
83663.7 52635.3 lineto
83738.7 52747.8 lineto
83776.2 52822.8 lineto
83813.7 52935.2 lineto
83851.2 53122.7 lineto
83851.2 53272.7 lineto
83813.7 53460.2 lineto
83776.2 53572.7 lineto
83738.7 53647.7 lineto
83663.7 53760.1 lineto
83626.2 53797.6 lineto
stroke
78.7394 setlinewidth
newpath
58349.7 51853.5 moveto
58349.7 52410.3 lineto
57792.9 52410.3 lineto
57792.9 51853.5 lineto
58349.7 51853.5 lineto
poly0
236.22 setlinewidth
78.7406 setlinewidth
0 0 0 setrgbcolor
0 0 0 setrgbcolor
newpath
59891.7 51775.7 moveto
59441.8 51775.7 lineto
stroke
newpath
59666.7 51775.7 moveto
59666.7 52563.1 lineto
59591.7 52450.6 lineto
59516.7 52375.6 lineto
59441.8 52338.1 lineto
stroke
newpath
60229.2 51850.7 moveto
60266.7 51813.2 lineto
60229.2 51775.7 lineto
60191.7 51813.2 lineto
60229.2 51850.7 lineto
60229.2 51775.7 lineto
stroke
newpath
60754.1 52563.1 moveto
60829.1 52563.1 lineto
60904.1 52525.6 lineto
60941.6 52488.1 lineto
60979.1 52413.1 lineto
61016.6 52263.1 lineto
61016.6 52075.7 lineto
60979.1 51925.7 lineto
60941.6 51850.7 lineto
60904.1 51813.2 lineto
60829.1 51775.7 lineto
60754.1 51775.7 lineto
60679.1 51813.2 lineto
60641.6 51850.7 lineto
60604.1 51925.7 lineto
60566.6 52075.7 lineto
60566.6 52263.1 lineto
60604.1 52413.1 lineto
60641.6 52488.1 lineto
60679.1 52525.6 lineto
60754.1 52563.1 lineto
stroke
newpath
61504 52563.1 moveto
61579 52563.1 lineto
61654 52525.6 lineto
61691.5 52488.1 lineto
61729 52413.1 lineto
61766.5 52263.1 lineto
61766.5 52075.7 lineto
61729 51925.7 lineto
61691.5 51850.7 lineto
61654 51813.2 lineto
61579 51775.7 lineto
61504 51775.7 lineto
61429 51813.2 lineto
61391.5 51850.7 lineto
61354 51925.7 lineto
61316.5 52075.7 lineto
61316.5 52263.1 lineto
61354 52413.1 lineto
61391.5 52488.1 lineto
61429 52525.6 lineto
61504 52563.1 lineto
stroke
newpath
62253.9 52563.1 moveto
62328.9 52563.1 lineto
62403.9 52525.6 lineto
62441.4 52488.1 lineto
62478.9 52413.1 lineto
62516.4 52263.1 lineto
62516.4 52075.7 lineto
62478.9 51925.7 lineto
62441.4 51850.7 lineto
62403.9 51813.2 lineto
62328.9 51775.7 lineto
62253.9 51775.7 lineto
62178.9 51813.2 lineto
62141.4 51850.7 lineto
62103.9 51925.7 lineto
62066.4 52075.7 lineto
62066.4 52263.1 lineto
62103.9 52413.1 lineto
62141.4 52488.1 lineto
62178.9 52525.6 lineto
62253.9 52563.1 lineto
stroke
newpath
62853.8 51775.7 moveto
62853.8 52300.6 lineto
stroke
newpath
62853.8 52225.6 moveto
62891.3 52263.1 lineto
62966.3 52300.6 lineto
63078.8 52300.6 lineto
63153.8 52263.1 lineto
63191.3 52188.1 lineto
63191.3 51775.7 lineto
stroke
newpath
63191.3 52188.1 moveto
63228.8 52263.1 lineto
63303.8 52300.6 lineto
63416.3 52300.6 lineto
63491.2 52263.1 lineto
63528.7 52188.1 lineto
63528.7 51775.7 lineto
stroke
newpath
63903.7 51775.7 moveto
63903.7 52300.6 lineto
stroke
newpath
63903.7 52225.6 moveto
63941.2 52263.1 lineto
64016.2 52300.6 lineto
64128.7 52300.6 lineto
64203.7 52263.1 lineto
64241.2 52188.1 lineto
64241.2 51775.7 lineto
stroke
newpath
64241.2 52188.1 moveto
64278.7 52263.1 lineto
64353.6 52300.6 lineto
64466.1 52300.6 lineto
64541.1 52263.1 lineto
64578.6 52188.1 lineto
64578.6 51775.7 lineto
stroke
newpath
66115.9 52600.6 moveto
65441 51588.2 lineto
stroke
newpath
67128.3 52563.1 moveto
67203.3 52563.1 lineto
67278.3 52525.6 lineto
67315.8 52488.1 lineto
67353.3 52413.1 lineto
67390.8 52263.1 lineto
67390.8 52075.7 lineto
67353.3 51925.7 lineto
67315.8 51850.7 lineto
67278.3 51813.2 lineto
67203.3 51775.7 lineto
67128.3 51775.7 lineto
67053.3 51813.2 lineto
67015.8 51850.7 lineto
66978.3 51925.7 lineto
66940.8 52075.7 lineto
66940.8 52263.1 lineto
66978.3 52413.1 lineto
67015.8 52488.1 lineto
67053.3 52525.6 lineto
67128.3 52563.1 lineto
stroke
newpath
67728.2 51850.7 moveto
67765.7 51813.2 lineto
67728.2 51775.7 lineto
67690.7 51813.2 lineto
67728.2 51850.7 lineto
67728.2 51775.7 lineto
stroke
newpath
68253.2 52563.1 moveto
68328.1 52563.1 lineto
68403.1 52525.6 lineto
68440.6 52488.1 lineto
68478.1 52413.1 lineto
68515.6 52263.1 lineto
68515.6 52075.7 lineto
68478.1 51925.7 lineto
68440.6 51850.7 lineto
68403.1 51813.2 lineto
68328.1 51775.7 lineto
68253.2 51775.7 lineto
68178.2 51813.2 lineto
68140.7 51850.7 lineto
68103.2 51925.7 lineto
68065.7 52075.7 lineto
68065.7 52263.1 lineto
68103.2 52413.1 lineto
68140.7 52488.1 lineto
68178.2 52525.6 lineto
68253.2 52563.1 lineto
stroke
newpath
68778.1 52563.1 moveto
69265.5 52563.1 lineto
69003.1 52263.1 lineto
69115.5 52263.1 lineto
69190.5 52225.6 lineto
69228 52188.1 lineto
69265.5 52113.2 lineto
69265.5 51925.7 lineto
69228 51850.7 lineto
69190.5 51813.2 lineto
69115.5 51775.7 lineto
68890.6 51775.7 lineto
68815.6 51813.2 lineto
68778.1 51850.7 lineto
stroke
newpath
69640.5 51775.7 moveto
69790.5 51775.7 lineto
69865.5 51813.2 lineto
69903 51850.7 lineto
69977.9 51963.2 lineto
70015.4 52113.2 lineto
70015.4 52413.1 lineto
69977.9 52488.1 lineto
69940.4 52525.6 lineto
69865.5 52563.1 lineto
69715.5 52563.1 lineto
69640.5 52525.6 lineto
69603 52488.1 lineto
69565.5 52413.1 lineto
69565.5 52225.6 lineto
69603 52150.7 lineto
69640.5 52113.2 lineto
69715.5 52075.7 lineto
69865.5 52075.7 lineto
69940.4 52113.2 lineto
69977.9 52150.7 lineto
70015.4 52225.6 lineto
stroke
newpath
70690.4 52300.6 moveto
70690.4 51775.7 lineto
stroke
newpath
70502.9 52600.6 moveto
70315.4 52038.2 lineto
70802.8 52038.2 lineto
stroke
newpath
71065.3 52563.1 moveto
71065.3 52413.1 lineto
stroke
newpath
71365.3 52563.1 moveto
71365.3 52413.1 lineto
stroke
newpath
72527.6 51475.7 moveto
72490.1 51513.2 lineto
72415.1 51625.7 lineto
72377.6 51700.7 lineto
72340.1 51813.2 lineto
72302.7 52000.7 lineto
72302.7 52150.7 lineto
72340.1 52338.1 lineto
72377.6 52450.6 lineto
72415.1 52525.6 lineto
72490.1 52638.1 lineto
72527.6 52675.6 lineto
stroke
newpath
73240 51775.7 moveto
72790.1 51775.7 lineto
stroke
newpath
73015.1 51775.7 moveto
73015.1 52563.1 lineto
72940.1 52450.6 lineto
72865.1 52375.6 lineto
72790.1 52338.1 lineto
stroke
newpath
73502.5 52563.1 moveto
73989.9 52563.1 lineto
73727.5 52263.1 lineto
73840 52263.1 lineto
73915 52225.6 lineto
73952.4 52188.1 lineto
73989.9 52113.2 lineto
73989.9 51925.7 lineto
73952.4 51850.7 lineto
73915 51813.2 lineto
73840 51775.7 lineto
73615 51775.7 lineto
73540 51813.2 lineto
73502.5 51850.7 lineto
stroke
newpath
74664.9 52563.1 moveto
74514.9 52563.1 lineto
74439.9 52525.6 lineto
74402.4 52488.1 lineto
74327.4 52375.6 lineto
74289.9 52225.6 lineto
74289.9 51925.7 lineto
74327.4 51850.7 lineto
74364.9 51813.2 lineto
74439.9 51775.7 lineto
74589.9 51775.7 lineto
74664.9 51813.2 lineto
74702.4 51850.7 lineto
74739.8 51925.7 lineto
74739.8 52113.2 lineto
74702.4 52188.1 lineto
74664.9 52225.6 lineto
74589.9 52263.1 lineto
74439.9 52263.1 lineto
74364.9 52225.6 lineto
74327.4 52188.1 lineto
74289.9 52113.2 lineto
stroke
newpath
75677.2 51775.7 moveto
75677.2 52563.1 lineto
stroke
newpath
76014.7 51775.7 moveto
76014.7 52188.1 lineto
75977.2 52263.1 lineto
75902.2 52300.6 lineto
75789.7 52300.6 lineto
75714.7 52263.1 lineto
75677.2 52225.6 lineto
stroke
newpath
76502.1 51775.7 moveto
76427.1 51813.2 lineto
76389.6 51850.7 lineto
76352.1 51925.7 lineto
76352.1 52150.7 lineto
76389.6 52225.6 lineto
76427.1 52263.1 lineto
76502.1 52300.6 lineto
76614.6 52300.6 lineto
76689.6 52263.1 lineto
76727.1 52225.6 lineto
76764.6 52150.7 lineto
76764.6 51925.7 lineto
76727.1 51850.7 lineto
76689.6 51813.2 lineto
76614.6 51775.7 lineto
76502.1 51775.7 lineto
stroke
newpath
77214.5 51775.7 moveto
77139.6 51813.2 lineto
77102.1 51888.2 lineto
77102.1 52563.1 lineto
stroke
newpath
77814.5 51813.2 moveto
77739.5 51775.7 lineto
77589.5 51775.7 lineto
77514.5 51813.2 lineto
77477 51888.2 lineto
77477 52188.1 lineto
77514.5 52263.1 lineto
77589.5 52300.6 lineto
77739.5 52300.6 lineto
77814.5 52263.1 lineto
77852 52188.1 lineto
77852 52113.2 lineto
77477 52038.2 lineto
stroke
newpath
78151.9 51813.2 moveto
78226.9 51775.7 lineto
78376.9 51775.7 lineto
78451.9 51813.2 lineto
78489.4 51888.2 lineto
78489.4 51925.7 lineto
78451.9 52000.7 lineto
78376.9 52038.2 lineto
78264.4 52038.2 lineto
78189.4 52075.7 lineto
78151.9 52150.7 lineto
78151.9 52188.1 lineto
78189.4 52263.1 lineto
78264.4 52300.6 lineto
78376.9 52300.6 lineto
78451.9 52263.1 lineto
stroke
newpath
78751.8 51475.7 moveto
78789.3 51513.2 lineto
78864.3 51625.7 lineto
78901.8 51700.7 lineto
78939.3 51813.2 lineto
78976.8 52000.7 lineto
78976.8 52150.7 lineto
78939.3 52338.1 lineto
78901.8 52450.6 lineto
78864.3 52525.6 lineto
78789.3 52638.1 lineto
78751.8 52675.6 lineto
stroke
showpage
grestore
%%EOF
