%TF.GenerationSoftware,KiCad,Pcbnew,(6.0.2)*%
%TF.CreationDate,2022-04-11T22:09:43+02:00*%
%TF.ProjectId,main,6d61696e-2e6b-4696-9361-645f70636258,rev?*%
%TF.SameCoordinates,Original*%
%TF.FileFunction,Legend,Top*%
%TF.FilePolarity,Positive*%
%FSLAX46Y46*%
G04 Gerber Fmt 4.6, Leading zero omitted, Abs format (unit mm)*
G04 Created by KiCad (PCBNEW (6.0.2)) date 2022-04-11 22:09:43*
%MOMM*%
%LPD*%
G01*
G04 APERTURE LIST*
%ADD10C,0.150000*%
%ADD11C,0.254000*%
%ADD12C,0.120000*%
%ADD13C,0.200000*%
%ADD14C,0.127000*%
%ADD15C,0.250000*%
%ADD16C,0.100000*%
G04 APERTURE END LIST*
D10*
%TO.C,D3*%
X141042380Y-85791835D02*
X140042380Y-85791835D01*
X140042380Y-85553740D01*
X140090000Y-85410882D01*
X140185238Y-85315644D01*
X140280476Y-85268025D01*
X140470952Y-85220406D01*
X140613809Y-85220406D01*
X140804285Y-85268025D01*
X140899523Y-85315644D01*
X140994761Y-85410882D01*
X141042380Y-85553740D01*
X141042380Y-85791835D01*
X140042380Y-84887073D02*
X140042380Y-84268025D01*
X140423333Y-84601359D01*
X140423333Y-84458501D01*
X140470952Y-84363263D01*
X140518571Y-84315644D01*
X140613809Y-84268025D01*
X140851904Y-84268025D01*
X140947142Y-84315644D01*
X140994761Y-84363263D01*
X141042380Y-84458501D01*
X141042380Y-84744216D01*
X140994761Y-84839454D01*
X140947142Y-84887073D01*
%TO.C,TP2*%
X124468095Y-82144380D02*
X125039523Y-82144380D01*
X124753809Y-83144380D02*
X124753809Y-82144380D01*
X125372857Y-83144380D02*
X125372857Y-82144380D01*
X125753809Y-82144380D01*
X125849047Y-82192000D01*
X125896666Y-82239619D01*
X125944285Y-82334857D01*
X125944285Y-82477714D01*
X125896666Y-82572952D01*
X125849047Y-82620571D01*
X125753809Y-82668190D01*
X125372857Y-82668190D01*
X126325238Y-82239619D02*
X126372857Y-82192000D01*
X126468095Y-82144380D01*
X126706190Y-82144380D01*
X126801428Y-82192000D01*
X126849047Y-82239619D01*
X126896666Y-82334857D01*
X126896666Y-82430095D01*
X126849047Y-82572952D01*
X126277619Y-83144380D01*
X126896666Y-83144380D01*
%TO.C,R18*%
X139817142Y-96872380D02*
X139483809Y-96396190D01*
X139245714Y-96872380D02*
X139245714Y-95872380D01*
X139626666Y-95872380D01*
X139721904Y-95920000D01*
X139769523Y-95967619D01*
X139817142Y-96062857D01*
X139817142Y-96205714D01*
X139769523Y-96300952D01*
X139721904Y-96348571D01*
X139626666Y-96396190D01*
X139245714Y-96396190D01*
X140769523Y-96872380D02*
X140198095Y-96872380D01*
X140483809Y-96872380D02*
X140483809Y-95872380D01*
X140388571Y-96015238D01*
X140293333Y-96110476D01*
X140198095Y-96158095D01*
X141340952Y-96300952D02*
X141245714Y-96253333D01*
X141198095Y-96205714D01*
X141150476Y-96110476D01*
X141150476Y-96062857D01*
X141198095Y-95967619D01*
X141245714Y-95920000D01*
X141340952Y-95872380D01*
X141531428Y-95872380D01*
X141626666Y-95920000D01*
X141674285Y-95967619D01*
X141721904Y-96062857D01*
X141721904Y-96110476D01*
X141674285Y-96205714D01*
X141626666Y-96253333D01*
X141531428Y-96300952D01*
X141340952Y-96300952D01*
X141245714Y-96348571D01*
X141198095Y-96396190D01*
X141150476Y-96491428D01*
X141150476Y-96681904D01*
X141198095Y-96777142D01*
X141245714Y-96824761D01*
X141340952Y-96872380D01*
X141531428Y-96872380D01*
X141626666Y-96824761D01*
X141674285Y-96777142D01*
X141721904Y-96681904D01*
X141721904Y-96491428D01*
X141674285Y-96396190D01*
X141626666Y-96348571D01*
X141531428Y-96300952D01*
%TO.C,C2*%
X102208333Y-101797142D02*
X102160714Y-101844761D01*
X102017857Y-101892380D01*
X101922619Y-101892380D01*
X101779761Y-101844761D01*
X101684523Y-101749523D01*
X101636904Y-101654285D01*
X101589285Y-101463809D01*
X101589285Y-101320952D01*
X101636904Y-101130476D01*
X101684523Y-101035238D01*
X101779761Y-100940000D01*
X101922619Y-100892380D01*
X102017857Y-100892380D01*
X102160714Y-100940000D01*
X102208333Y-100987619D01*
X102589285Y-100987619D02*
X102636904Y-100940000D01*
X102732142Y-100892380D01*
X102970238Y-100892380D01*
X103065476Y-100940000D01*
X103113095Y-100987619D01*
X103160714Y-101082857D01*
X103160714Y-101178095D01*
X103113095Y-101320952D01*
X102541666Y-101892380D01*
X103160714Y-101892380D01*
%TO.C,R20*%
X143862380Y-90812857D02*
X143386190Y-91146190D01*
X143862380Y-91384285D02*
X142862380Y-91384285D01*
X142862380Y-91003333D01*
X142910000Y-90908095D01*
X142957619Y-90860476D01*
X143052857Y-90812857D01*
X143195714Y-90812857D01*
X143290952Y-90860476D01*
X143338571Y-90908095D01*
X143386190Y-91003333D01*
X143386190Y-91384285D01*
X142957619Y-90431904D02*
X142910000Y-90384285D01*
X142862380Y-90289047D01*
X142862380Y-90050952D01*
X142910000Y-89955714D01*
X142957619Y-89908095D01*
X143052857Y-89860476D01*
X143148095Y-89860476D01*
X143290952Y-89908095D01*
X143862380Y-90479523D01*
X143862380Y-89860476D01*
X142862380Y-89241428D02*
X142862380Y-89146190D01*
X142910000Y-89050952D01*
X142957619Y-89003333D01*
X143052857Y-88955714D01*
X143243333Y-88908095D01*
X143481428Y-88908095D01*
X143671904Y-88955714D01*
X143767142Y-89003333D01*
X143814761Y-89050952D01*
X143862380Y-89146190D01*
X143862380Y-89241428D01*
X143814761Y-89336666D01*
X143767142Y-89384285D01*
X143671904Y-89431904D01*
X143481428Y-89479523D01*
X143243333Y-89479523D01*
X143052857Y-89431904D01*
X142957619Y-89384285D01*
X142910000Y-89336666D01*
X142862380Y-89241428D01*
%TO.C,R25*%
X184702380Y-89542857D02*
X184226190Y-89876190D01*
X184702380Y-90114285D02*
X183702380Y-90114285D01*
X183702380Y-89733333D01*
X183750000Y-89638095D01*
X183797619Y-89590476D01*
X183892857Y-89542857D01*
X184035714Y-89542857D01*
X184130952Y-89590476D01*
X184178571Y-89638095D01*
X184226190Y-89733333D01*
X184226190Y-90114285D01*
X183797619Y-89161904D02*
X183750000Y-89114285D01*
X183702380Y-89019047D01*
X183702380Y-88780952D01*
X183750000Y-88685714D01*
X183797619Y-88638095D01*
X183892857Y-88590476D01*
X183988095Y-88590476D01*
X184130952Y-88638095D01*
X184702380Y-89209523D01*
X184702380Y-88590476D01*
X183702380Y-87685714D02*
X183702380Y-88161904D01*
X184178571Y-88209523D01*
X184130952Y-88161904D01*
X184083333Y-88066666D01*
X184083333Y-87828571D01*
X184130952Y-87733333D01*
X184178571Y-87685714D01*
X184273809Y-87638095D01*
X184511904Y-87638095D01*
X184607142Y-87685714D01*
X184654761Y-87733333D01*
X184702380Y-87828571D01*
X184702380Y-88066666D01*
X184654761Y-88161904D01*
X184607142Y-88209523D01*
%TO.C,R7*%
X166203333Y-99772380D02*
X165870000Y-99296190D01*
X165631904Y-99772380D02*
X165631904Y-98772380D01*
X166012857Y-98772380D01*
X166108095Y-98820000D01*
X166155714Y-98867619D01*
X166203333Y-98962857D01*
X166203333Y-99105714D01*
X166155714Y-99200952D01*
X166108095Y-99248571D01*
X166012857Y-99296190D01*
X165631904Y-99296190D01*
X166536666Y-98772380D02*
X167203333Y-98772380D01*
X166774761Y-99772380D01*
D11*
%TO.C,IC3*%
X90200238Y-126304523D02*
X90200238Y-125034523D01*
X91530714Y-126183571D02*
X91470238Y-126244047D01*
X91288809Y-126304523D01*
X91167857Y-126304523D01*
X90986428Y-126244047D01*
X90865476Y-126123095D01*
X90805000Y-126002142D01*
X90744523Y-125760238D01*
X90744523Y-125578809D01*
X90805000Y-125336904D01*
X90865476Y-125215952D01*
X90986428Y-125095000D01*
X91167857Y-125034523D01*
X91288809Y-125034523D01*
X91470238Y-125095000D01*
X91530714Y-125155476D01*
X91954047Y-125034523D02*
X92740238Y-125034523D01*
X92316904Y-125518333D01*
X92498333Y-125518333D01*
X92619285Y-125578809D01*
X92679761Y-125639285D01*
X92740238Y-125760238D01*
X92740238Y-126062619D01*
X92679761Y-126183571D01*
X92619285Y-126244047D01*
X92498333Y-126304523D01*
X92135476Y-126304523D01*
X92014523Y-126244047D01*
X91954047Y-126183571D01*
D10*
%TO.C,JP4*%
X186672380Y-82113333D02*
X187386666Y-82113333D01*
X187529523Y-82160952D01*
X187624761Y-82256190D01*
X187672380Y-82399047D01*
X187672380Y-82494285D01*
X187672380Y-81637142D02*
X186672380Y-81637142D01*
X186672380Y-81256190D01*
X186720000Y-81160952D01*
X186767619Y-81113333D01*
X186862857Y-81065714D01*
X187005714Y-81065714D01*
X187100952Y-81113333D01*
X187148571Y-81160952D01*
X187196190Y-81256190D01*
X187196190Y-81637142D01*
X187005714Y-80208571D02*
X187672380Y-80208571D01*
X186624761Y-80446666D02*
X187339047Y-80684761D01*
X187339047Y-80065714D01*
%TO.C,L2*%
X90882380Y-36996666D02*
X90882380Y-37472857D01*
X89882380Y-37472857D01*
X89977619Y-36710952D02*
X89930000Y-36663333D01*
X89882380Y-36568095D01*
X89882380Y-36330000D01*
X89930000Y-36234761D01*
X89977619Y-36187142D01*
X90072857Y-36139523D01*
X90168095Y-36139523D01*
X90310952Y-36187142D01*
X90882380Y-36758571D01*
X90882380Y-36139523D01*
%TO.C,JP5*%
X93796666Y-127192380D02*
X93796666Y-127906666D01*
X93749047Y-128049523D01*
X93653809Y-128144761D01*
X93510952Y-128192380D01*
X93415714Y-128192380D01*
X94272857Y-128192380D02*
X94272857Y-127192380D01*
X94653809Y-127192380D01*
X94749047Y-127240000D01*
X94796666Y-127287619D01*
X94844285Y-127382857D01*
X94844285Y-127525714D01*
X94796666Y-127620952D01*
X94749047Y-127668571D01*
X94653809Y-127716190D01*
X94272857Y-127716190D01*
X95749047Y-127192380D02*
X95272857Y-127192380D01*
X95225238Y-127668571D01*
X95272857Y-127620952D01*
X95368095Y-127573333D01*
X95606190Y-127573333D01*
X95701428Y-127620952D01*
X95749047Y-127668571D01*
X95796666Y-127763809D01*
X95796666Y-128001904D01*
X95749047Y-128097142D01*
X95701428Y-128144761D01*
X95606190Y-128192380D01*
X95368095Y-128192380D01*
X95272857Y-128144761D01*
X95225238Y-128097142D01*
%TO.C,TP1*%
X116848095Y-105004380D02*
X117419523Y-105004380D01*
X117133809Y-106004380D02*
X117133809Y-105004380D01*
X117752857Y-106004380D02*
X117752857Y-105004380D01*
X118133809Y-105004380D01*
X118229047Y-105052000D01*
X118276666Y-105099619D01*
X118324285Y-105194857D01*
X118324285Y-105337714D01*
X118276666Y-105432952D01*
X118229047Y-105480571D01*
X118133809Y-105528190D01*
X117752857Y-105528190D01*
X119276666Y-106004380D02*
X118705238Y-106004380D01*
X118990952Y-106004380D02*
X118990952Y-105004380D01*
X118895714Y-105147238D01*
X118800476Y-105242476D01*
X118705238Y-105290095D01*
%TO.C,U2*%
X120363095Y-57075380D02*
X120363095Y-57884904D01*
X120410714Y-57980142D01*
X120458333Y-58027761D01*
X120553571Y-58075380D01*
X120744047Y-58075380D01*
X120839285Y-58027761D01*
X120886904Y-57980142D01*
X120934523Y-57884904D01*
X120934523Y-57075380D01*
X121363095Y-57170619D02*
X121410714Y-57123000D01*
X121505952Y-57075380D01*
X121744047Y-57075380D01*
X121839285Y-57123000D01*
X121886904Y-57170619D01*
X121934523Y-57265857D01*
X121934523Y-57361095D01*
X121886904Y-57503952D01*
X121315476Y-58075380D01*
X121934523Y-58075380D01*
%TO.C,R4*%
X157832380Y-109386666D02*
X157356190Y-109720000D01*
X157832380Y-109958095D02*
X156832380Y-109958095D01*
X156832380Y-109577142D01*
X156880000Y-109481904D01*
X156927619Y-109434285D01*
X157022857Y-109386666D01*
X157165714Y-109386666D01*
X157260952Y-109434285D01*
X157308571Y-109481904D01*
X157356190Y-109577142D01*
X157356190Y-109958095D01*
X157165714Y-108529523D02*
X157832380Y-108529523D01*
X156784761Y-108767619D02*
X157499047Y-109005714D01*
X157499047Y-108386666D01*
%TO.C,J7*%
X94392380Y-98393333D02*
X95106666Y-98393333D01*
X95249523Y-98440952D01*
X95344761Y-98536190D01*
X95392380Y-98679047D01*
X95392380Y-98774285D01*
X94392380Y-98012380D02*
X94392380Y-97345714D01*
X95392380Y-97774285D01*
D11*
%TO.C,IC2*%
X110520238Y-99634523D02*
X110520238Y-98364523D01*
X111850714Y-99513571D02*
X111790238Y-99574047D01*
X111608809Y-99634523D01*
X111487857Y-99634523D01*
X111306428Y-99574047D01*
X111185476Y-99453095D01*
X111125000Y-99332142D01*
X111064523Y-99090238D01*
X111064523Y-98908809D01*
X111125000Y-98666904D01*
X111185476Y-98545952D01*
X111306428Y-98425000D01*
X111487857Y-98364523D01*
X111608809Y-98364523D01*
X111790238Y-98425000D01*
X111850714Y-98485476D01*
X112334523Y-98485476D02*
X112395000Y-98425000D01*
X112515952Y-98364523D01*
X112818333Y-98364523D01*
X112939285Y-98425000D01*
X112999761Y-98485476D01*
X113060238Y-98606428D01*
X113060238Y-98727380D01*
X112999761Y-98908809D01*
X112274047Y-99634523D01*
X113060238Y-99634523D01*
D10*
%TO.C,JP8*%
X87822380Y-85923333D02*
X88536666Y-85923333D01*
X88679523Y-85970952D01*
X88774761Y-86066190D01*
X88822380Y-86209047D01*
X88822380Y-86304285D01*
X88822380Y-85447142D02*
X87822380Y-85447142D01*
X87822380Y-85066190D01*
X87870000Y-84970952D01*
X87917619Y-84923333D01*
X88012857Y-84875714D01*
X88155714Y-84875714D01*
X88250952Y-84923333D01*
X88298571Y-84970952D01*
X88346190Y-85066190D01*
X88346190Y-85447142D01*
X88250952Y-84304285D02*
X88203333Y-84399523D01*
X88155714Y-84447142D01*
X88060476Y-84494761D01*
X88012857Y-84494761D01*
X87917619Y-84447142D01*
X87870000Y-84399523D01*
X87822380Y-84304285D01*
X87822380Y-84113809D01*
X87870000Y-84018571D01*
X87917619Y-83970952D01*
X88012857Y-83923333D01*
X88060476Y-83923333D01*
X88155714Y-83970952D01*
X88203333Y-84018571D01*
X88250952Y-84113809D01*
X88250952Y-84304285D01*
X88298571Y-84399523D01*
X88346190Y-84447142D01*
X88441428Y-84494761D01*
X88631904Y-84494761D01*
X88727142Y-84447142D01*
X88774761Y-84399523D01*
X88822380Y-84304285D01*
X88822380Y-84113809D01*
X88774761Y-84018571D01*
X88727142Y-83970952D01*
X88631904Y-83923333D01*
X88441428Y-83923333D01*
X88346190Y-83970952D01*
X88298571Y-84018571D01*
X88250952Y-84113809D01*
%TO.C,JP2*%
X185206666Y-94172380D02*
X185206666Y-94886666D01*
X185159047Y-95029523D01*
X185063809Y-95124761D01*
X184920952Y-95172380D01*
X184825714Y-95172380D01*
X185682857Y-95172380D02*
X185682857Y-94172380D01*
X186063809Y-94172380D01*
X186159047Y-94220000D01*
X186206666Y-94267619D01*
X186254285Y-94362857D01*
X186254285Y-94505714D01*
X186206666Y-94600952D01*
X186159047Y-94648571D01*
X186063809Y-94696190D01*
X185682857Y-94696190D01*
X186635238Y-94267619D02*
X186682857Y-94220000D01*
X186778095Y-94172380D01*
X187016190Y-94172380D01*
X187111428Y-94220000D01*
X187159047Y-94267619D01*
X187206666Y-94362857D01*
X187206666Y-94458095D01*
X187159047Y-94600952D01*
X186587619Y-95172380D01*
X187206666Y-95172380D01*
%TO.C,C10*%
X90367142Y-50172857D02*
X90414761Y-50220476D01*
X90462380Y-50363333D01*
X90462380Y-50458571D01*
X90414761Y-50601428D01*
X90319523Y-50696666D01*
X90224285Y-50744285D01*
X90033809Y-50791904D01*
X89890952Y-50791904D01*
X89700476Y-50744285D01*
X89605238Y-50696666D01*
X89510000Y-50601428D01*
X89462380Y-50458571D01*
X89462380Y-50363333D01*
X89510000Y-50220476D01*
X89557619Y-50172857D01*
X90462380Y-49220476D02*
X90462380Y-49791904D01*
X90462380Y-49506190D02*
X89462380Y-49506190D01*
X89605238Y-49601428D01*
X89700476Y-49696666D01*
X89748095Y-49791904D01*
X89462380Y-48601428D02*
X89462380Y-48506190D01*
X89510000Y-48410952D01*
X89557619Y-48363333D01*
X89652857Y-48315714D01*
X89843333Y-48268095D01*
X90081428Y-48268095D01*
X90271904Y-48315714D01*
X90367142Y-48363333D01*
X90414761Y-48410952D01*
X90462380Y-48506190D01*
X90462380Y-48601428D01*
X90414761Y-48696666D01*
X90367142Y-48744285D01*
X90271904Y-48791904D01*
X90081428Y-48839523D01*
X89843333Y-48839523D01*
X89652857Y-48791904D01*
X89557619Y-48744285D01*
X89510000Y-48696666D01*
X89462380Y-48601428D01*
%TO.C,C6*%
X119327142Y-103036666D02*
X119374761Y-103084285D01*
X119422380Y-103227142D01*
X119422380Y-103322380D01*
X119374761Y-103465238D01*
X119279523Y-103560476D01*
X119184285Y-103608095D01*
X118993809Y-103655714D01*
X118850952Y-103655714D01*
X118660476Y-103608095D01*
X118565238Y-103560476D01*
X118470000Y-103465238D01*
X118422380Y-103322380D01*
X118422380Y-103227142D01*
X118470000Y-103084285D01*
X118517619Y-103036666D01*
X118422380Y-102179523D02*
X118422380Y-102370000D01*
X118470000Y-102465238D01*
X118517619Y-102512857D01*
X118660476Y-102608095D01*
X118850952Y-102655714D01*
X119231904Y-102655714D01*
X119327142Y-102608095D01*
X119374761Y-102560476D01*
X119422380Y-102465238D01*
X119422380Y-102274761D01*
X119374761Y-102179523D01*
X119327142Y-102131904D01*
X119231904Y-102084285D01*
X118993809Y-102084285D01*
X118898571Y-102131904D01*
X118850952Y-102179523D01*
X118803333Y-102274761D01*
X118803333Y-102465238D01*
X118850952Y-102560476D01*
X118898571Y-102608095D01*
X118993809Y-102655714D01*
%TO.C,BT1*%
X142724285Y-34148571D02*
X142867142Y-34196190D01*
X142914761Y-34243809D01*
X142962380Y-34339047D01*
X142962380Y-34481904D01*
X142914761Y-34577142D01*
X142867142Y-34624761D01*
X142771904Y-34672380D01*
X142390952Y-34672380D01*
X142390952Y-33672380D01*
X142724285Y-33672380D01*
X142819523Y-33720000D01*
X142867142Y-33767619D01*
X142914761Y-33862857D01*
X142914761Y-33958095D01*
X142867142Y-34053333D01*
X142819523Y-34100952D01*
X142724285Y-34148571D01*
X142390952Y-34148571D01*
X143248095Y-33672380D02*
X143819523Y-33672380D01*
X143533809Y-34672380D02*
X143533809Y-33672380D01*
X144676666Y-34672380D02*
X144105238Y-34672380D01*
X144390952Y-34672380D02*
X144390952Y-33672380D01*
X144295714Y-33815238D01*
X144200476Y-33910476D01*
X144105238Y-33958095D01*
%TO.C,JP1*%
X185236666Y-101582380D02*
X185236666Y-102296666D01*
X185189047Y-102439523D01*
X185093809Y-102534761D01*
X184950952Y-102582380D01*
X184855714Y-102582380D01*
X185712857Y-102582380D02*
X185712857Y-101582380D01*
X186093809Y-101582380D01*
X186189047Y-101630000D01*
X186236666Y-101677619D01*
X186284285Y-101772857D01*
X186284285Y-101915714D01*
X186236666Y-102010952D01*
X186189047Y-102058571D01*
X186093809Y-102106190D01*
X185712857Y-102106190D01*
X187236666Y-102582380D02*
X186665238Y-102582380D01*
X186950952Y-102582380D02*
X186950952Y-101582380D01*
X186855714Y-101725238D01*
X186760476Y-101820476D01*
X186665238Y-101868095D01*
%TO.C,J4*%
X184647380Y-128603333D02*
X185361666Y-128603333D01*
X185504523Y-128650952D01*
X185599761Y-128746190D01*
X185647380Y-128889047D01*
X185647380Y-128984285D01*
X184980714Y-127698571D02*
X185647380Y-127698571D01*
X184599761Y-127936666D02*
X185314047Y-128174761D01*
X185314047Y-127555714D01*
%TO.C,C14*%
X90797142Y-60907142D02*
X90749523Y-60954761D01*
X90606666Y-61002380D01*
X90511428Y-61002380D01*
X90368571Y-60954761D01*
X90273333Y-60859523D01*
X90225714Y-60764285D01*
X90178095Y-60573809D01*
X90178095Y-60430952D01*
X90225714Y-60240476D01*
X90273333Y-60145238D01*
X90368571Y-60050000D01*
X90511428Y-60002380D01*
X90606666Y-60002380D01*
X90749523Y-60050000D01*
X90797142Y-60097619D01*
X91749523Y-61002380D02*
X91178095Y-61002380D01*
X91463809Y-61002380D02*
X91463809Y-60002380D01*
X91368571Y-60145238D01*
X91273333Y-60240476D01*
X91178095Y-60288095D01*
X92606666Y-60335714D02*
X92606666Y-61002380D01*
X92368571Y-59954761D02*
X92130476Y-60669047D01*
X92749523Y-60669047D01*
%TO.C,R23*%
X89452380Y-41792857D02*
X88976190Y-42126190D01*
X89452380Y-42364285D02*
X88452380Y-42364285D01*
X88452380Y-41983333D01*
X88500000Y-41888095D01*
X88547619Y-41840476D01*
X88642857Y-41792857D01*
X88785714Y-41792857D01*
X88880952Y-41840476D01*
X88928571Y-41888095D01*
X88976190Y-41983333D01*
X88976190Y-42364285D01*
X88547619Y-41411904D02*
X88500000Y-41364285D01*
X88452380Y-41269047D01*
X88452380Y-41030952D01*
X88500000Y-40935714D01*
X88547619Y-40888095D01*
X88642857Y-40840476D01*
X88738095Y-40840476D01*
X88880952Y-40888095D01*
X89452380Y-41459523D01*
X89452380Y-40840476D01*
X88452380Y-40507142D02*
X88452380Y-39888095D01*
X88833333Y-40221428D01*
X88833333Y-40078571D01*
X88880952Y-39983333D01*
X88928571Y-39935714D01*
X89023809Y-39888095D01*
X89261904Y-39888095D01*
X89357142Y-39935714D01*
X89404761Y-39983333D01*
X89452380Y-40078571D01*
X89452380Y-40364285D01*
X89404761Y-40459523D01*
X89357142Y-40507142D01*
%TO.C,LED1*%
X90320952Y-104212380D02*
X89844761Y-104212380D01*
X89844761Y-103212380D01*
X90654285Y-103688571D02*
X90987619Y-103688571D01*
X91130476Y-104212380D02*
X90654285Y-104212380D01*
X90654285Y-103212380D01*
X91130476Y-103212380D01*
X91559047Y-104212380D02*
X91559047Y-103212380D01*
X91797142Y-103212380D01*
X91940000Y-103260000D01*
X92035238Y-103355238D01*
X92082857Y-103450476D01*
X92130476Y-103640952D01*
X92130476Y-103783809D01*
X92082857Y-103974285D01*
X92035238Y-104069523D01*
X91940000Y-104164761D01*
X91797142Y-104212380D01*
X91559047Y-104212380D01*
X93082857Y-104212380D02*
X92511428Y-104212380D01*
X92797142Y-104212380D02*
X92797142Y-103212380D01*
X92701904Y-103355238D01*
X92606666Y-103450476D01*
X92511428Y-103498095D01*
%TO.C,J3*%
X185087380Y-118468333D02*
X185801666Y-118468333D01*
X185944523Y-118515952D01*
X186039761Y-118611190D01*
X186087380Y-118754047D01*
X186087380Y-118849285D01*
X185087380Y-118087380D02*
X185087380Y-117468333D01*
X185468333Y-117801666D01*
X185468333Y-117658809D01*
X185515952Y-117563571D01*
X185563571Y-117515952D01*
X185658809Y-117468333D01*
X185896904Y-117468333D01*
X185992142Y-117515952D01*
X186039761Y-117563571D01*
X186087380Y-117658809D01*
X186087380Y-117944523D01*
X186039761Y-118039761D01*
X185992142Y-118087380D01*
%TO.C,C5*%
X105523333Y-97737142D02*
X105475714Y-97784761D01*
X105332857Y-97832380D01*
X105237619Y-97832380D01*
X105094761Y-97784761D01*
X104999523Y-97689523D01*
X104951904Y-97594285D01*
X104904285Y-97403809D01*
X104904285Y-97260952D01*
X104951904Y-97070476D01*
X104999523Y-96975238D01*
X105094761Y-96880000D01*
X105237619Y-96832380D01*
X105332857Y-96832380D01*
X105475714Y-96880000D01*
X105523333Y-96927619D01*
X106428095Y-96832380D02*
X105951904Y-96832380D01*
X105904285Y-97308571D01*
X105951904Y-97260952D01*
X106047142Y-97213333D01*
X106285238Y-97213333D01*
X106380476Y-97260952D01*
X106428095Y-97308571D01*
X106475714Y-97403809D01*
X106475714Y-97641904D01*
X106428095Y-97737142D01*
X106380476Y-97784761D01*
X106285238Y-97832380D01*
X106047142Y-97832380D01*
X105951904Y-97784761D01*
X105904285Y-97737142D01*
%TO.C,R19*%
X143862380Y-93352857D02*
X143386190Y-93686190D01*
X143862380Y-93924285D02*
X142862380Y-93924285D01*
X142862380Y-93543333D01*
X142910000Y-93448095D01*
X142957619Y-93400476D01*
X143052857Y-93352857D01*
X143195714Y-93352857D01*
X143290952Y-93400476D01*
X143338571Y-93448095D01*
X143386190Y-93543333D01*
X143386190Y-93924285D01*
X143862380Y-92400476D02*
X143862380Y-92971904D01*
X143862380Y-92686190D02*
X142862380Y-92686190D01*
X143005238Y-92781428D01*
X143100476Y-92876666D01*
X143148095Y-92971904D01*
X143862380Y-91924285D02*
X143862380Y-91733809D01*
X143814761Y-91638571D01*
X143767142Y-91590952D01*
X143624285Y-91495714D01*
X143433809Y-91448095D01*
X143052857Y-91448095D01*
X142957619Y-91495714D01*
X142910000Y-91543333D01*
X142862380Y-91638571D01*
X142862380Y-91829047D01*
X142910000Y-91924285D01*
X142957619Y-91971904D01*
X143052857Y-92019523D01*
X143290952Y-92019523D01*
X143386190Y-91971904D01*
X143433809Y-91924285D01*
X143481428Y-91829047D01*
X143481428Y-91638571D01*
X143433809Y-91543333D01*
X143386190Y-91495714D01*
X143290952Y-91448095D01*
%TO.C,R9*%
X171283333Y-112312380D02*
X170950000Y-111836190D01*
X170711904Y-112312380D02*
X170711904Y-111312380D01*
X171092857Y-111312380D01*
X171188095Y-111360000D01*
X171235714Y-111407619D01*
X171283333Y-111502857D01*
X171283333Y-111645714D01*
X171235714Y-111740952D01*
X171188095Y-111788571D01*
X171092857Y-111836190D01*
X170711904Y-111836190D01*
X171759523Y-112312380D02*
X171950000Y-112312380D01*
X172045238Y-112264761D01*
X172092857Y-112217142D01*
X172188095Y-112074285D01*
X172235714Y-111883809D01*
X172235714Y-111502857D01*
X172188095Y-111407619D01*
X172140476Y-111360000D01*
X172045238Y-111312380D01*
X171854761Y-111312380D01*
X171759523Y-111360000D01*
X171711904Y-111407619D01*
X171664285Y-111502857D01*
X171664285Y-111740952D01*
X171711904Y-111836190D01*
X171759523Y-111883809D01*
X171854761Y-111931428D01*
X172045238Y-111931428D01*
X172140476Y-111883809D01*
X172188095Y-111836190D01*
X172235714Y-111740952D01*
%TO.C,C1*%
X91768333Y-113547142D02*
X91720714Y-113594761D01*
X91577857Y-113642380D01*
X91482619Y-113642380D01*
X91339761Y-113594761D01*
X91244523Y-113499523D01*
X91196904Y-113404285D01*
X91149285Y-113213809D01*
X91149285Y-113070952D01*
X91196904Y-112880476D01*
X91244523Y-112785238D01*
X91339761Y-112690000D01*
X91482619Y-112642380D01*
X91577857Y-112642380D01*
X91720714Y-112690000D01*
X91768333Y-112737619D01*
X92720714Y-113642380D02*
X92149285Y-113642380D01*
X92435000Y-113642380D02*
X92435000Y-112642380D01*
X92339761Y-112785238D01*
X92244523Y-112880476D01*
X92149285Y-112928095D01*
%TO.C,Q2*%
X172624761Y-101017619D02*
X172529523Y-100970000D01*
X172434285Y-100874761D01*
X172291428Y-100731904D01*
X172196190Y-100684285D01*
X172100952Y-100684285D01*
X172148571Y-100922380D02*
X172053333Y-100874761D01*
X171958095Y-100779523D01*
X171910476Y-100589047D01*
X171910476Y-100255714D01*
X171958095Y-100065238D01*
X172053333Y-99970000D01*
X172148571Y-99922380D01*
X172339047Y-99922380D01*
X172434285Y-99970000D01*
X172529523Y-100065238D01*
X172577142Y-100255714D01*
X172577142Y-100589047D01*
X172529523Y-100779523D01*
X172434285Y-100874761D01*
X172339047Y-100922380D01*
X172148571Y-100922380D01*
X172958095Y-100017619D02*
X173005714Y-99970000D01*
X173100952Y-99922380D01*
X173339047Y-99922380D01*
X173434285Y-99970000D01*
X173481904Y-100017619D01*
X173529523Y-100112857D01*
X173529523Y-100208095D01*
X173481904Y-100350952D01*
X172910476Y-100922380D01*
X173529523Y-100922380D01*
%TO.C,C12*%
X90797142Y-55827142D02*
X90749523Y-55874761D01*
X90606666Y-55922380D01*
X90511428Y-55922380D01*
X90368571Y-55874761D01*
X90273333Y-55779523D01*
X90225714Y-55684285D01*
X90178095Y-55493809D01*
X90178095Y-55350952D01*
X90225714Y-55160476D01*
X90273333Y-55065238D01*
X90368571Y-54970000D01*
X90511428Y-54922380D01*
X90606666Y-54922380D01*
X90749523Y-54970000D01*
X90797142Y-55017619D01*
X91749523Y-55922380D02*
X91178095Y-55922380D01*
X91463809Y-55922380D02*
X91463809Y-54922380D01*
X91368571Y-55065238D01*
X91273333Y-55160476D01*
X91178095Y-55208095D01*
X92130476Y-55017619D02*
X92178095Y-54970000D01*
X92273333Y-54922380D01*
X92511428Y-54922380D01*
X92606666Y-54970000D01*
X92654285Y-55017619D01*
X92701904Y-55112857D01*
X92701904Y-55208095D01*
X92654285Y-55350952D01*
X92082857Y-55922380D01*
X92701904Y-55922380D01*
%TO.C,R15*%
X137712380Y-88272857D02*
X137236190Y-88606190D01*
X137712380Y-88844285D02*
X136712380Y-88844285D01*
X136712380Y-88463333D01*
X136760000Y-88368095D01*
X136807619Y-88320476D01*
X136902857Y-88272857D01*
X137045714Y-88272857D01*
X137140952Y-88320476D01*
X137188571Y-88368095D01*
X137236190Y-88463333D01*
X137236190Y-88844285D01*
X137712380Y-87320476D02*
X137712380Y-87891904D01*
X137712380Y-87606190D02*
X136712380Y-87606190D01*
X136855238Y-87701428D01*
X136950476Y-87796666D01*
X136998095Y-87891904D01*
X136712380Y-86415714D02*
X136712380Y-86891904D01*
X137188571Y-86939523D01*
X137140952Y-86891904D01*
X137093333Y-86796666D01*
X137093333Y-86558571D01*
X137140952Y-86463333D01*
X137188571Y-86415714D01*
X137283809Y-86368095D01*
X137521904Y-86368095D01*
X137617142Y-86415714D01*
X137664761Y-86463333D01*
X137712380Y-86558571D01*
X137712380Y-86796666D01*
X137664761Y-86891904D01*
X137617142Y-86939523D01*
%TO.C,D6*%
X184222380Y-113768095D02*
X183222380Y-113768095D01*
X183222380Y-113530000D01*
X183270000Y-113387142D01*
X183365238Y-113291904D01*
X183460476Y-113244285D01*
X183650952Y-113196666D01*
X183793809Y-113196666D01*
X183984285Y-113244285D01*
X184079523Y-113291904D01*
X184174761Y-113387142D01*
X184222380Y-113530000D01*
X184222380Y-113768095D01*
X183222380Y-112339523D02*
X183222380Y-112530000D01*
X183270000Y-112625238D01*
X183317619Y-112672857D01*
X183460476Y-112768095D01*
X183650952Y-112815714D01*
X184031904Y-112815714D01*
X184127142Y-112768095D01*
X184174761Y-112720476D01*
X184222380Y-112625238D01*
X184222380Y-112434761D01*
X184174761Y-112339523D01*
X184127142Y-112291904D01*
X184031904Y-112244285D01*
X183793809Y-112244285D01*
X183698571Y-112291904D01*
X183650952Y-112339523D01*
X183603333Y-112434761D01*
X183603333Y-112625238D01*
X183650952Y-112720476D01*
X183698571Y-112768095D01*
X183793809Y-112815714D01*
%TO.C,R11*%
X119247142Y-99412380D02*
X118913809Y-98936190D01*
X118675714Y-99412380D02*
X118675714Y-98412380D01*
X119056666Y-98412380D01*
X119151904Y-98460000D01*
X119199523Y-98507619D01*
X119247142Y-98602857D01*
X119247142Y-98745714D01*
X119199523Y-98840952D01*
X119151904Y-98888571D01*
X119056666Y-98936190D01*
X118675714Y-98936190D01*
X120199523Y-99412380D02*
X119628095Y-99412380D01*
X119913809Y-99412380D02*
X119913809Y-98412380D01*
X119818571Y-98555238D01*
X119723333Y-98650476D01*
X119628095Y-98698095D01*
X121151904Y-99412380D02*
X120580476Y-99412380D01*
X120866190Y-99412380D02*
X120866190Y-98412380D01*
X120770952Y-98555238D01*
X120675714Y-98650476D01*
X120580476Y-98698095D01*
%TO.C,J1*%
X184647380Y-67643333D02*
X185361666Y-67643333D01*
X185504523Y-67690952D01*
X185599761Y-67786190D01*
X185647380Y-67929047D01*
X185647380Y-68024285D01*
X185647380Y-66643333D02*
X185647380Y-67214761D01*
X185647380Y-66929047D02*
X184647380Y-66929047D01*
X184790238Y-67024285D01*
X184885476Y-67119523D01*
X184933095Y-67214761D01*
%TO.C,TP5*%
X128278095Y-58014380D02*
X128849523Y-58014380D01*
X128563809Y-59014380D02*
X128563809Y-58014380D01*
X129182857Y-59014380D02*
X129182857Y-58014380D01*
X129563809Y-58014380D01*
X129659047Y-58062000D01*
X129706666Y-58109619D01*
X129754285Y-58204857D01*
X129754285Y-58347714D01*
X129706666Y-58442952D01*
X129659047Y-58490571D01*
X129563809Y-58538190D01*
X129182857Y-58538190D01*
X130659047Y-58014380D02*
X130182857Y-58014380D01*
X130135238Y-58490571D01*
X130182857Y-58442952D01*
X130278095Y-58395333D01*
X130516190Y-58395333D01*
X130611428Y-58442952D01*
X130659047Y-58490571D01*
X130706666Y-58585809D01*
X130706666Y-58823904D01*
X130659047Y-58919142D01*
X130611428Y-58966761D01*
X130516190Y-59014380D01*
X130278095Y-59014380D01*
X130182857Y-58966761D01*
X130135238Y-58919142D01*
%TO.C,R3*%
X156553333Y-107032380D02*
X156220000Y-106556190D01*
X155981904Y-107032380D02*
X155981904Y-106032380D01*
X156362857Y-106032380D01*
X156458095Y-106080000D01*
X156505714Y-106127619D01*
X156553333Y-106222857D01*
X156553333Y-106365714D01*
X156505714Y-106460952D01*
X156458095Y-106508571D01*
X156362857Y-106556190D01*
X155981904Y-106556190D01*
X156886666Y-106032380D02*
X157505714Y-106032380D01*
X157172380Y-106413333D01*
X157315238Y-106413333D01*
X157410476Y-106460952D01*
X157458095Y-106508571D01*
X157505714Y-106603809D01*
X157505714Y-106841904D01*
X157458095Y-106937142D01*
X157410476Y-106984761D01*
X157315238Y-107032380D01*
X157029523Y-107032380D01*
X156934285Y-106984761D01*
X156886666Y-106937142D01*
%TO.C,C4*%
X102208333Y-97987142D02*
X102160714Y-98034761D01*
X102017857Y-98082380D01*
X101922619Y-98082380D01*
X101779761Y-98034761D01*
X101684523Y-97939523D01*
X101636904Y-97844285D01*
X101589285Y-97653809D01*
X101589285Y-97510952D01*
X101636904Y-97320476D01*
X101684523Y-97225238D01*
X101779761Y-97130000D01*
X101922619Y-97082380D01*
X102017857Y-97082380D01*
X102160714Y-97130000D01*
X102208333Y-97177619D01*
X103065476Y-97415714D02*
X103065476Y-98082380D01*
X102827380Y-97034761D02*
X102589285Y-97749047D01*
X103208333Y-97749047D01*
%TO.C,R1*%
X93262380Y-105576666D02*
X92786190Y-105910000D01*
X93262380Y-106148095D02*
X92262380Y-106148095D01*
X92262380Y-105767142D01*
X92310000Y-105671904D01*
X92357619Y-105624285D01*
X92452857Y-105576666D01*
X92595714Y-105576666D01*
X92690952Y-105624285D01*
X92738571Y-105671904D01*
X92786190Y-105767142D01*
X92786190Y-106148095D01*
X93262380Y-104624285D02*
X93262380Y-105195714D01*
X93262380Y-104910000D02*
X92262380Y-104910000D01*
X92405238Y-105005238D01*
X92500476Y-105100476D01*
X92548095Y-105195714D01*
D11*
%TO.C,IC4*%
X95280238Y-43754523D02*
X95280238Y-42484523D01*
X96610714Y-43633571D02*
X96550238Y-43694047D01*
X96368809Y-43754523D01*
X96247857Y-43754523D01*
X96066428Y-43694047D01*
X95945476Y-43573095D01*
X95885000Y-43452142D01*
X95824523Y-43210238D01*
X95824523Y-43028809D01*
X95885000Y-42786904D01*
X95945476Y-42665952D01*
X96066428Y-42545000D01*
X96247857Y-42484523D01*
X96368809Y-42484523D01*
X96550238Y-42545000D01*
X96610714Y-42605476D01*
X97699285Y-42907857D02*
X97699285Y-43754523D01*
X97396904Y-42424047D02*
X97094523Y-43331190D01*
X97880714Y-43331190D01*
D10*
%TO.C,R24*%
X91992380Y-41792857D02*
X91516190Y-42126190D01*
X91992380Y-42364285D02*
X90992380Y-42364285D01*
X90992380Y-41983333D01*
X91040000Y-41888095D01*
X91087619Y-41840476D01*
X91182857Y-41792857D01*
X91325714Y-41792857D01*
X91420952Y-41840476D01*
X91468571Y-41888095D01*
X91516190Y-41983333D01*
X91516190Y-42364285D01*
X91087619Y-41411904D02*
X91040000Y-41364285D01*
X90992380Y-41269047D01*
X90992380Y-41030952D01*
X91040000Y-40935714D01*
X91087619Y-40888095D01*
X91182857Y-40840476D01*
X91278095Y-40840476D01*
X91420952Y-40888095D01*
X91992380Y-41459523D01*
X91992380Y-40840476D01*
X91325714Y-39983333D02*
X91992380Y-39983333D01*
X90944761Y-40221428D02*
X91659047Y-40459523D01*
X91659047Y-39840476D01*
%TO.C,U1*%
X104173095Y-110764380D02*
X104173095Y-111573904D01*
X104220714Y-111669142D01*
X104268333Y-111716761D01*
X104363571Y-111764380D01*
X104554047Y-111764380D01*
X104649285Y-111716761D01*
X104696904Y-111669142D01*
X104744523Y-111573904D01*
X104744523Y-110764380D01*
X105744523Y-111764380D02*
X105173095Y-111764380D01*
X105458809Y-111764380D02*
X105458809Y-110764380D01*
X105363571Y-110907238D01*
X105268333Y-111002476D01*
X105173095Y-111050095D01*
%TO.C,R26*%
X184702380Y-109862857D02*
X184226190Y-110196190D01*
X184702380Y-110434285D02*
X183702380Y-110434285D01*
X183702380Y-110053333D01*
X183750000Y-109958095D01*
X183797619Y-109910476D01*
X183892857Y-109862857D01*
X184035714Y-109862857D01*
X184130952Y-109910476D01*
X184178571Y-109958095D01*
X184226190Y-110053333D01*
X184226190Y-110434285D01*
X183797619Y-109481904D02*
X183750000Y-109434285D01*
X183702380Y-109339047D01*
X183702380Y-109100952D01*
X183750000Y-109005714D01*
X183797619Y-108958095D01*
X183892857Y-108910476D01*
X183988095Y-108910476D01*
X184130952Y-108958095D01*
X184702380Y-109529523D01*
X184702380Y-108910476D01*
X183702380Y-108053333D02*
X183702380Y-108243809D01*
X183750000Y-108339047D01*
X183797619Y-108386666D01*
X183940476Y-108481904D01*
X184130952Y-108529523D01*
X184511904Y-108529523D01*
X184607142Y-108481904D01*
X184654761Y-108434285D01*
X184702380Y-108339047D01*
X184702380Y-108148571D01*
X184654761Y-108053333D01*
X184607142Y-108005714D01*
X184511904Y-107958095D01*
X184273809Y-107958095D01*
X184178571Y-108005714D01*
X184130952Y-108053333D01*
X184083333Y-108148571D01*
X184083333Y-108339047D01*
X184130952Y-108434285D01*
X184178571Y-108481904D01*
X184273809Y-108529523D01*
%TO.C,U3*%
X97028095Y-51972380D02*
X97028095Y-52781904D01*
X97075714Y-52877142D01*
X97123333Y-52924761D01*
X97218571Y-52972380D01*
X97409047Y-52972380D01*
X97504285Y-52924761D01*
X97551904Y-52877142D01*
X97599523Y-52781904D01*
X97599523Y-51972380D01*
X97980476Y-51972380D02*
X98599523Y-51972380D01*
X98266190Y-52353333D01*
X98409047Y-52353333D01*
X98504285Y-52400952D01*
X98551904Y-52448571D01*
X98599523Y-52543809D01*
X98599523Y-52781904D01*
X98551904Y-52877142D01*
X98504285Y-52924761D01*
X98409047Y-52972380D01*
X98123333Y-52972380D01*
X98028095Y-52924761D01*
X97980476Y-52877142D01*
%TO.C,C3*%
X161123333Y-114437142D02*
X161075714Y-114484761D01*
X160932857Y-114532380D01*
X160837619Y-114532380D01*
X160694761Y-114484761D01*
X160599523Y-114389523D01*
X160551904Y-114294285D01*
X160504285Y-114103809D01*
X160504285Y-113960952D01*
X160551904Y-113770476D01*
X160599523Y-113675238D01*
X160694761Y-113580000D01*
X160837619Y-113532380D01*
X160932857Y-113532380D01*
X161075714Y-113580000D01*
X161123333Y-113627619D01*
X161456666Y-113532380D02*
X162075714Y-113532380D01*
X161742380Y-113913333D01*
X161885238Y-113913333D01*
X161980476Y-113960952D01*
X162028095Y-114008571D01*
X162075714Y-114103809D01*
X162075714Y-114341904D01*
X162028095Y-114437142D01*
X161980476Y-114484761D01*
X161885238Y-114532380D01*
X161599523Y-114532380D01*
X161504285Y-114484761D01*
X161456666Y-114437142D01*
%TO.C,D4*%
X117371904Y-89452380D02*
X117371904Y-88452380D01*
X117610000Y-88452380D01*
X117752857Y-88500000D01*
X117848095Y-88595238D01*
X117895714Y-88690476D01*
X117943333Y-88880952D01*
X117943333Y-89023809D01*
X117895714Y-89214285D01*
X117848095Y-89309523D01*
X117752857Y-89404761D01*
X117610000Y-89452380D01*
X117371904Y-89452380D01*
X118800476Y-88785714D02*
X118800476Y-89452380D01*
X118562380Y-88404761D02*
X118324285Y-89119047D01*
X118943333Y-89119047D01*
%TO.C,C11*%
X94177142Y-50172857D02*
X94224761Y-50220476D01*
X94272380Y-50363333D01*
X94272380Y-50458571D01*
X94224761Y-50601428D01*
X94129523Y-50696666D01*
X94034285Y-50744285D01*
X93843809Y-50791904D01*
X93700952Y-50791904D01*
X93510476Y-50744285D01*
X93415238Y-50696666D01*
X93320000Y-50601428D01*
X93272380Y-50458571D01*
X93272380Y-50363333D01*
X93320000Y-50220476D01*
X93367619Y-50172857D01*
X94272380Y-49220476D02*
X94272380Y-49791904D01*
X94272380Y-49506190D02*
X93272380Y-49506190D01*
X93415238Y-49601428D01*
X93510476Y-49696666D01*
X93558095Y-49791904D01*
X94272380Y-48268095D02*
X94272380Y-48839523D01*
X94272380Y-48553809D02*
X93272380Y-48553809D01*
X93415238Y-48649047D01*
X93510476Y-48744285D01*
X93558095Y-48839523D01*
%TO.C,C13*%
X90797142Y-52647142D02*
X90749523Y-52694761D01*
X90606666Y-52742380D01*
X90511428Y-52742380D01*
X90368571Y-52694761D01*
X90273333Y-52599523D01*
X90225714Y-52504285D01*
X90178095Y-52313809D01*
X90178095Y-52170952D01*
X90225714Y-51980476D01*
X90273333Y-51885238D01*
X90368571Y-51790000D01*
X90511428Y-51742380D01*
X90606666Y-51742380D01*
X90749523Y-51790000D01*
X90797142Y-51837619D01*
X91749523Y-52742380D02*
X91178095Y-52742380D01*
X91463809Y-52742380D02*
X91463809Y-51742380D01*
X91368571Y-51885238D01*
X91273333Y-51980476D01*
X91178095Y-52028095D01*
X92082857Y-51742380D02*
X92701904Y-51742380D01*
X92368571Y-52123333D01*
X92511428Y-52123333D01*
X92606666Y-52170952D01*
X92654285Y-52218571D01*
X92701904Y-52313809D01*
X92701904Y-52551904D01*
X92654285Y-52647142D01*
X92606666Y-52694761D01*
X92511428Y-52742380D01*
X92225714Y-52742380D01*
X92130476Y-52694761D01*
X92082857Y-52647142D01*
%TO.C,R16*%
X140052380Y-90812857D02*
X139576190Y-91146190D01*
X140052380Y-91384285D02*
X139052380Y-91384285D01*
X139052380Y-91003333D01*
X139100000Y-90908095D01*
X139147619Y-90860476D01*
X139242857Y-90812857D01*
X139385714Y-90812857D01*
X139480952Y-90860476D01*
X139528571Y-90908095D01*
X139576190Y-91003333D01*
X139576190Y-91384285D01*
X140052380Y-89860476D02*
X140052380Y-90431904D01*
X140052380Y-90146190D02*
X139052380Y-90146190D01*
X139195238Y-90241428D01*
X139290476Y-90336666D01*
X139338095Y-90431904D01*
X139052380Y-89003333D02*
X139052380Y-89193809D01*
X139100000Y-89289047D01*
X139147619Y-89336666D01*
X139290476Y-89431904D01*
X139480952Y-89479523D01*
X139861904Y-89479523D01*
X139957142Y-89431904D01*
X140004761Y-89384285D01*
X140052380Y-89289047D01*
X140052380Y-89098571D01*
X140004761Y-89003333D01*
X139957142Y-88955714D01*
X139861904Y-88908095D01*
X139623809Y-88908095D01*
X139528571Y-88955714D01*
X139480952Y-89003333D01*
X139433333Y-89098571D01*
X139433333Y-89289047D01*
X139480952Y-89384285D01*
X139528571Y-89431904D01*
X139623809Y-89479523D01*
%TO.C,R22*%
X94607142Y-122472380D02*
X94273809Y-121996190D01*
X94035714Y-122472380D02*
X94035714Y-121472380D01*
X94416666Y-121472380D01*
X94511904Y-121520000D01*
X94559523Y-121567619D01*
X94607142Y-121662857D01*
X94607142Y-121805714D01*
X94559523Y-121900952D01*
X94511904Y-121948571D01*
X94416666Y-121996190D01*
X94035714Y-121996190D01*
X94988095Y-121567619D02*
X95035714Y-121520000D01*
X95130952Y-121472380D01*
X95369047Y-121472380D01*
X95464285Y-121520000D01*
X95511904Y-121567619D01*
X95559523Y-121662857D01*
X95559523Y-121758095D01*
X95511904Y-121900952D01*
X94940476Y-122472380D01*
X95559523Y-122472380D01*
X95940476Y-121567619D02*
X95988095Y-121520000D01*
X96083333Y-121472380D01*
X96321428Y-121472380D01*
X96416666Y-121520000D01*
X96464285Y-121567619D01*
X96511904Y-121662857D01*
X96511904Y-121758095D01*
X96464285Y-121900952D01*
X95892857Y-122472380D01*
X96511904Y-122472380D01*
%TO.C,TP4*%
X100338095Y-33884380D02*
X100909523Y-33884380D01*
X100623809Y-34884380D02*
X100623809Y-33884380D01*
X101242857Y-34884380D02*
X101242857Y-33884380D01*
X101623809Y-33884380D01*
X101719047Y-33932000D01*
X101766666Y-33979619D01*
X101814285Y-34074857D01*
X101814285Y-34217714D01*
X101766666Y-34312952D01*
X101719047Y-34360571D01*
X101623809Y-34408190D01*
X101242857Y-34408190D01*
X102671428Y-34217714D02*
X102671428Y-34884380D01*
X102433333Y-33836761D02*
X102195238Y-34551047D01*
X102814285Y-34551047D01*
%TO.C,J5*%
X164766666Y-56812380D02*
X164766666Y-57526666D01*
X164719047Y-57669523D01*
X164623809Y-57764761D01*
X164480952Y-57812380D01*
X164385714Y-57812380D01*
X165719047Y-56812380D02*
X165242857Y-56812380D01*
X165195238Y-57288571D01*
X165242857Y-57240952D01*
X165338095Y-57193333D01*
X165576190Y-57193333D01*
X165671428Y-57240952D01*
X165719047Y-57288571D01*
X165766666Y-57383809D01*
X165766666Y-57621904D01*
X165719047Y-57717142D01*
X165671428Y-57764761D01*
X165576190Y-57812380D01*
X165338095Y-57812380D01*
X165242857Y-57764761D01*
X165195238Y-57717142D01*
%TO.C,R14*%
X137712380Y-85732857D02*
X137236190Y-86066190D01*
X137712380Y-86304285D02*
X136712380Y-86304285D01*
X136712380Y-85923333D01*
X136760000Y-85828095D01*
X136807619Y-85780476D01*
X136902857Y-85732857D01*
X137045714Y-85732857D01*
X137140952Y-85780476D01*
X137188571Y-85828095D01*
X137236190Y-85923333D01*
X137236190Y-86304285D01*
X137712380Y-84780476D02*
X137712380Y-85351904D01*
X137712380Y-85066190D02*
X136712380Y-85066190D01*
X136855238Y-85161428D01*
X136950476Y-85256666D01*
X136998095Y-85351904D01*
X137045714Y-83923333D02*
X137712380Y-83923333D01*
X136664761Y-84161428D02*
X137379047Y-84399523D01*
X137379047Y-83780476D01*
%TO.C,R21*%
X94607142Y-125012380D02*
X94273809Y-124536190D01*
X94035714Y-125012380D02*
X94035714Y-124012380D01*
X94416666Y-124012380D01*
X94511904Y-124060000D01*
X94559523Y-124107619D01*
X94607142Y-124202857D01*
X94607142Y-124345714D01*
X94559523Y-124440952D01*
X94511904Y-124488571D01*
X94416666Y-124536190D01*
X94035714Y-124536190D01*
X94988095Y-124107619D02*
X95035714Y-124060000D01*
X95130952Y-124012380D01*
X95369047Y-124012380D01*
X95464285Y-124060000D01*
X95511904Y-124107619D01*
X95559523Y-124202857D01*
X95559523Y-124298095D01*
X95511904Y-124440952D01*
X94940476Y-125012380D01*
X95559523Y-125012380D01*
X96511904Y-125012380D02*
X95940476Y-125012380D01*
X96226190Y-125012380D02*
X96226190Y-124012380D01*
X96130952Y-124155238D01*
X96035714Y-124250476D01*
X95940476Y-124298095D01*
%TO.C,R6*%
X164933333Y-112312380D02*
X164600000Y-111836190D01*
X164361904Y-112312380D02*
X164361904Y-111312380D01*
X164742857Y-111312380D01*
X164838095Y-111360000D01*
X164885714Y-111407619D01*
X164933333Y-111502857D01*
X164933333Y-111645714D01*
X164885714Y-111740952D01*
X164838095Y-111788571D01*
X164742857Y-111836190D01*
X164361904Y-111836190D01*
X165790476Y-111312380D02*
X165600000Y-111312380D01*
X165504761Y-111360000D01*
X165457142Y-111407619D01*
X165361904Y-111550476D01*
X165314285Y-111740952D01*
X165314285Y-112121904D01*
X165361904Y-112217142D01*
X165409523Y-112264761D01*
X165504761Y-112312380D01*
X165695238Y-112312380D01*
X165790476Y-112264761D01*
X165838095Y-112217142D01*
X165885714Y-112121904D01*
X165885714Y-111883809D01*
X165838095Y-111788571D01*
X165790476Y-111740952D01*
X165695238Y-111693333D01*
X165504761Y-111693333D01*
X165409523Y-111740952D01*
X165361904Y-111788571D01*
X165314285Y-111883809D01*
%TO.C,JP6*%
X90606666Y-46972380D02*
X90606666Y-47686666D01*
X90559047Y-47829523D01*
X90463809Y-47924761D01*
X90320952Y-47972380D01*
X90225714Y-47972380D01*
X91082857Y-47972380D02*
X91082857Y-46972380D01*
X91463809Y-46972380D01*
X91559047Y-47020000D01*
X91606666Y-47067619D01*
X91654285Y-47162857D01*
X91654285Y-47305714D01*
X91606666Y-47400952D01*
X91559047Y-47448571D01*
X91463809Y-47496190D01*
X91082857Y-47496190D01*
X92511428Y-46972380D02*
X92320952Y-46972380D01*
X92225714Y-47020000D01*
X92178095Y-47067619D01*
X92082857Y-47210476D01*
X92035238Y-47400952D01*
X92035238Y-47781904D01*
X92082857Y-47877142D01*
X92130476Y-47924761D01*
X92225714Y-47972380D01*
X92416190Y-47972380D01*
X92511428Y-47924761D01*
X92559047Y-47877142D01*
X92606666Y-47781904D01*
X92606666Y-47543809D01*
X92559047Y-47448571D01*
X92511428Y-47400952D01*
X92416190Y-47353333D01*
X92225714Y-47353333D01*
X92130476Y-47400952D01*
X92082857Y-47448571D01*
X92035238Y-47543809D01*
%TO.C,J6*%
X177462380Y-60023333D02*
X178176666Y-60023333D01*
X178319523Y-60070952D01*
X178414761Y-60166190D01*
X178462380Y-60309047D01*
X178462380Y-60404285D01*
X177462380Y-59118571D02*
X177462380Y-59309047D01*
X177510000Y-59404285D01*
X177557619Y-59451904D01*
X177700476Y-59547142D01*
X177890952Y-59594761D01*
X178271904Y-59594761D01*
X178367142Y-59547142D01*
X178414761Y-59499523D01*
X178462380Y-59404285D01*
X178462380Y-59213809D01*
X178414761Y-59118571D01*
X178367142Y-59070952D01*
X178271904Y-59023333D01*
X178033809Y-59023333D01*
X177938571Y-59070952D01*
X177890952Y-59118571D01*
X177843333Y-59213809D01*
X177843333Y-59404285D01*
X177890952Y-59499523D01*
X177938571Y-59547142D01*
X178033809Y-59594761D01*
%TO.C,TP6*%
X104148095Y-58014380D02*
X104719523Y-58014380D01*
X104433809Y-59014380D02*
X104433809Y-58014380D01*
X105052857Y-59014380D02*
X105052857Y-58014380D01*
X105433809Y-58014380D01*
X105529047Y-58062000D01*
X105576666Y-58109619D01*
X105624285Y-58204857D01*
X105624285Y-58347714D01*
X105576666Y-58442952D01*
X105529047Y-58490571D01*
X105433809Y-58538190D01*
X105052857Y-58538190D01*
X106481428Y-58014380D02*
X106290952Y-58014380D01*
X106195714Y-58062000D01*
X106148095Y-58109619D01*
X106052857Y-58252476D01*
X106005238Y-58442952D01*
X106005238Y-58823904D01*
X106052857Y-58919142D01*
X106100476Y-58966761D01*
X106195714Y-59014380D01*
X106386190Y-59014380D01*
X106481428Y-58966761D01*
X106529047Y-58919142D01*
X106576666Y-58823904D01*
X106576666Y-58585809D01*
X106529047Y-58490571D01*
X106481428Y-58442952D01*
X106386190Y-58395333D01*
X106195714Y-58395333D01*
X106100476Y-58442952D01*
X106052857Y-58490571D01*
X106005238Y-58585809D01*
%TO.C,D5*%
X184222380Y-93448095D02*
X183222380Y-93448095D01*
X183222380Y-93210000D01*
X183270000Y-93067142D01*
X183365238Y-92971904D01*
X183460476Y-92924285D01*
X183650952Y-92876666D01*
X183793809Y-92876666D01*
X183984285Y-92924285D01*
X184079523Y-92971904D01*
X184174761Y-93067142D01*
X184222380Y-93210000D01*
X184222380Y-93448095D01*
X183222380Y-91971904D02*
X183222380Y-92448095D01*
X183698571Y-92495714D01*
X183650952Y-92448095D01*
X183603333Y-92352857D01*
X183603333Y-92114761D01*
X183650952Y-92019523D01*
X183698571Y-91971904D01*
X183793809Y-91924285D01*
X184031904Y-91924285D01*
X184127142Y-91971904D01*
X184174761Y-92019523D01*
X184222380Y-92114761D01*
X184222380Y-92352857D01*
X184174761Y-92448095D01*
X184127142Y-92495714D01*
%TO.C,R17*%
X137712380Y-93352857D02*
X137236190Y-93686190D01*
X137712380Y-93924285D02*
X136712380Y-93924285D01*
X136712380Y-93543333D01*
X136760000Y-93448095D01*
X136807619Y-93400476D01*
X136902857Y-93352857D01*
X137045714Y-93352857D01*
X137140952Y-93400476D01*
X137188571Y-93448095D01*
X137236190Y-93543333D01*
X137236190Y-93924285D01*
X137712380Y-92400476D02*
X137712380Y-92971904D01*
X137712380Y-92686190D02*
X136712380Y-92686190D01*
X136855238Y-92781428D01*
X136950476Y-92876666D01*
X136998095Y-92971904D01*
X136712380Y-92067142D02*
X136712380Y-91400476D01*
X137712380Y-91829047D01*
%TO.C,R13*%
X115437142Y-95802380D02*
X115103809Y-95326190D01*
X114865714Y-95802380D02*
X114865714Y-94802380D01*
X115246666Y-94802380D01*
X115341904Y-94850000D01*
X115389523Y-94897619D01*
X115437142Y-94992857D01*
X115437142Y-95135714D01*
X115389523Y-95230952D01*
X115341904Y-95278571D01*
X115246666Y-95326190D01*
X114865714Y-95326190D01*
X116389523Y-95802380D02*
X115818095Y-95802380D01*
X116103809Y-95802380D02*
X116103809Y-94802380D01*
X116008571Y-94945238D01*
X115913333Y-95040476D01*
X115818095Y-95088095D01*
X116722857Y-94802380D02*
X117341904Y-94802380D01*
X117008571Y-95183333D01*
X117151428Y-95183333D01*
X117246666Y-95230952D01*
X117294285Y-95278571D01*
X117341904Y-95373809D01*
X117341904Y-95611904D01*
X117294285Y-95707142D01*
X117246666Y-95754761D01*
X117151428Y-95802380D01*
X116865714Y-95802380D01*
X116770476Y-95754761D01*
X116722857Y-95707142D01*
%TO.C,LED2*%
X90320952Y-108022380D02*
X89844761Y-108022380D01*
X89844761Y-107022380D01*
X90654285Y-107498571D02*
X90987619Y-107498571D01*
X91130476Y-108022380D02*
X90654285Y-108022380D01*
X90654285Y-107022380D01*
X91130476Y-107022380D01*
X91559047Y-108022380D02*
X91559047Y-107022380D01*
X91797142Y-107022380D01*
X91940000Y-107070000D01*
X92035238Y-107165238D01*
X92082857Y-107260476D01*
X92130476Y-107450952D01*
X92130476Y-107593809D01*
X92082857Y-107784285D01*
X92035238Y-107879523D01*
X91940000Y-107974761D01*
X91797142Y-108022380D01*
X91559047Y-108022380D01*
X92511428Y-107117619D02*
X92559047Y-107070000D01*
X92654285Y-107022380D01*
X92892380Y-107022380D01*
X92987619Y-107070000D01*
X93035238Y-107117619D01*
X93082857Y-107212857D01*
X93082857Y-107308095D01*
X93035238Y-107450952D01*
X92463809Y-108022380D01*
X93082857Y-108022380D01*
%TO.C,JP3*%
X94416666Y-87822380D02*
X94416666Y-88536666D01*
X94369047Y-88679523D01*
X94273809Y-88774761D01*
X94130952Y-88822380D01*
X94035714Y-88822380D01*
X94892857Y-88822380D02*
X94892857Y-87822380D01*
X95273809Y-87822380D01*
X95369047Y-87870000D01*
X95416666Y-87917619D01*
X95464285Y-88012857D01*
X95464285Y-88155714D01*
X95416666Y-88250952D01*
X95369047Y-88298571D01*
X95273809Y-88346190D01*
X94892857Y-88346190D01*
X95797619Y-87822380D02*
X96416666Y-87822380D01*
X96083333Y-88203333D01*
X96226190Y-88203333D01*
X96321428Y-88250952D01*
X96369047Y-88298571D01*
X96416666Y-88393809D01*
X96416666Y-88631904D01*
X96369047Y-88727142D01*
X96321428Y-88774761D01*
X96226190Y-88822380D01*
X95940476Y-88822380D01*
X95845238Y-88774761D01*
X95797619Y-88727142D01*
%TO.C,D1*%
X111021904Y-106402380D02*
X111021904Y-105402380D01*
X111260000Y-105402380D01*
X111402857Y-105450000D01*
X111498095Y-105545238D01*
X111545714Y-105640476D01*
X111593333Y-105830952D01*
X111593333Y-105973809D01*
X111545714Y-106164285D01*
X111498095Y-106259523D01*
X111402857Y-106354761D01*
X111260000Y-106402380D01*
X111021904Y-106402380D01*
X112545714Y-106402380D02*
X111974285Y-106402380D01*
X112260000Y-106402380D02*
X112260000Y-105402380D01*
X112164761Y-105545238D01*
X112069523Y-105640476D01*
X111974285Y-105688095D01*
%TO.C,Q3*%
X149764761Y-82407619D02*
X149669523Y-82360000D01*
X149574285Y-82264761D01*
X149431428Y-82121904D01*
X149336190Y-82074285D01*
X149240952Y-82074285D01*
X149288571Y-82312380D02*
X149193333Y-82264761D01*
X149098095Y-82169523D01*
X149050476Y-81979047D01*
X149050476Y-81645714D01*
X149098095Y-81455238D01*
X149193333Y-81360000D01*
X149288571Y-81312380D01*
X149479047Y-81312380D01*
X149574285Y-81360000D01*
X149669523Y-81455238D01*
X149717142Y-81645714D01*
X149717142Y-81979047D01*
X149669523Y-82169523D01*
X149574285Y-82264761D01*
X149479047Y-82312380D01*
X149288571Y-82312380D01*
X150050476Y-81312380D02*
X150669523Y-81312380D01*
X150336190Y-81693333D01*
X150479047Y-81693333D01*
X150574285Y-81740952D01*
X150621904Y-81788571D01*
X150669523Y-81883809D01*
X150669523Y-82121904D01*
X150621904Y-82217142D01*
X150574285Y-82264761D01*
X150479047Y-82312380D01*
X150193333Y-82312380D01*
X150098095Y-82264761D01*
X150050476Y-82217142D01*
%TO.C,R12*%
X115437142Y-99412380D02*
X115103809Y-98936190D01*
X114865714Y-99412380D02*
X114865714Y-98412380D01*
X115246666Y-98412380D01*
X115341904Y-98460000D01*
X115389523Y-98507619D01*
X115437142Y-98602857D01*
X115437142Y-98745714D01*
X115389523Y-98840952D01*
X115341904Y-98888571D01*
X115246666Y-98936190D01*
X114865714Y-98936190D01*
X116389523Y-99412380D02*
X115818095Y-99412380D01*
X116103809Y-99412380D02*
X116103809Y-98412380D01*
X116008571Y-98555238D01*
X115913333Y-98650476D01*
X115818095Y-98698095D01*
X116770476Y-98507619D02*
X116818095Y-98460000D01*
X116913333Y-98412380D01*
X117151428Y-98412380D01*
X117246666Y-98460000D01*
X117294285Y-98507619D01*
X117341904Y-98602857D01*
X117341904Y-98698095D01*
X117294285Y-98840952D01*
X116722857Y-99412380D01*
X117341904Y-99412380D01*
%TO.C,Q1*%
X168814761Y-106097619D02*
X168719523Y-106050000D01*
X168624285Y-105954761D01*
X168481428Y-105811904D01*
X168386190Y-105764285D01*
X168290952Y-105764285D01*
X168338571Y-106002380D02*
X168243333Y-105954761D01*
X168148095Y-105859523D01*
X168100476Y-105669047D01*
X168100476Y-105335714D01*
X168148095Y-105145238D01*
X168243333Y-105050000D01*
X168338571Y-105002380D01*
X168529047Y-105002380D01*
X168624285Y-105050000D01*
X168719523Y-105145238D01*
X168767142Y-105335714D01*
X168767142Y-105669047D01*
X168719523Y-105859523D01*
X168624285Y-105954761D01*
X168529047Y-106002380D01*
X168338571Y-106002380D01*
X169719523Y-106002380D02*
X169148095Y-106002380D01*
X169433809Y-106002380D02*
X169433809Y-105002380D01*
X169338571Y-105145238D01*
X169243333Y-105240476D01*
X169148095Y-105288095D01*
%TO.C,C9*%
X98037142Y-36996666D02*
X98084761Y-37044285D01*
X98132380Y-37187142D01*
X98132380Y-37282380D01*
X98084761Y-37425238D01*
X97989523Y-37520476D01*
X97894285Y-37568095D01*
X97703809Y-37615714D01*
X97560952Y-37615714D01*
X97370476Y-37568095D01*
X97275238Y-37520476D01*
X97180000Y-37425238D01*
X97132380Y-37282380D01*
X97132380Y-37187142D01*
X97180000Y-37044285D01*
X97227619Y-36996666D01*
X98132380Y-36520476D02*
X98132380Y-36330000D01*
X98084761Y-36234761D01*
X98037142Y-36187142D01*
X97894285Y-36091904D01*
X97703809Y-36044285D01*
X97322857Y-36044285D01*
X97227619Y-36091904D01*
X97180000Y-36139523D01*
X97132380Y-36234761D01*
X97132380Y-36425238D01*
X97180000Y-36520476D01*
X97227619Y-36568095D01*
X97322857Y-36615714D01*
X97560952Y-36615714D01*
X97656190Y-36568095D01*
X97703809Y-36520476D01*
X97751428Y-36425238D01*
X97751428Y-36234761D01*
X97703809Y-36139523D01*
X97656190Y-36091904D01*
X97560952Y-36044285D01*
%TO.C,JP9*%
X186672380Y-85923333D02*
X187386666Y-85923333D01*
X187529523Y-85970952D01*
X187624761Y-86066190D01*
X187672380Y-86209047D01*
X187672380Y-86304285D01*
X187672380Y-85447142D02*
X186672380Y-85447142D01*
X186672380Y-85066190D01*
X186720000Y-84970952D01*
X186767619Y-84923333D01*
X186862857Y-84875714D01*
X187005714Y-84875714D01*
X187100952Y-84923333D01*
X187148571Y-84970952D01*
X187196190Y-85066190D01*
X187196190Y-85447142D01*
X187672380Y-84399523D02*
X187672380Y-84209047D01*
X187624761Y-84113809D01*
X187577142Y-84066190D01*
X187434285Y-83970952D01*
X187243809Y-83923333D01*
X186862857Y-83923333D01*
X186767619Y-83970952D01*
X186720000Y-84018571D01*
X186672380Y-84113809D01*
X186672380Y-84304285D01*
X186720000Y-84399523D01*
X186767619Y-84447142D01*
X186862857Y-84494761D01*
X187100952Y-84494761D01*
X187196190Y-84447142D01*
X187243809Y-84399523D01*
X187291428Y-84304285D01*
X187291428Y-84113809D01*
X187243809Y-84018571D01*
X187196190Y-83970952D01*
X187100952Y-83923333D01*
%TO.C,JP7*%
X91632380Y-85923333D02*
X92346666Y-85923333D01*
X92489523Y-85970952D01*
X92584761Y-86066190D01*
X92632380Y-86209047D01*
X92632380Y-86304285D01*
X92632380Y-85447142D02*
X91632380Y-85447142D01*
X91632380Y-85066190D01*
X91680000Y-84970952D01*
X91727619Y-84923333D01*
X91822857Y-84875714D01*
X91965714Y-84875714D01*
X92060952Y-84923333D01*
X92108571Y-84970952D01*
X92156190Y-85066190D01*
X92156190Y-85447142D01*
X91632380Y-84542380D02*
X91632380Y-83875714D01*
X92632380Y-84304285D01*
%TO.C,C7*%
X115767142Y-103531666D02*
X115814761Y-103579285D01*
X115862380Y-103722142D01*
X115862380Y-103817380D01*
X115814761Y-103960238D01*
X115719523Y-104055476D01*
X115624285Y-104103095D01*
X115433809Y-104150714D01*
X115290952Y-104150714D01*
X115100476Y-104103095D01*
X115005238Y-104055476D01*
X114910000Y-103960238D01*
X114862380Y-103817380D01*
X114862380Y-103722142D01*
X114910000Y-103579285D01*
X114957619Y-103531666D01*
X114862380Y-103198333D02*
X114862380Y-102531666D01*
X115862380Y-102960238D01*
%TO.C,J2*%
X185087380Y-77828333D02*
X185801666Y-77828333D01*
X185944523Y-77875952D01*
X186039761Y-77971190D01*
X186087380Y-78114047D01*
X186087380Y-78209285D01*
X185182619Y-77399761D02*
X185135000Y-77352142D01*
X185087380Y-77256904D01*
X185087380Y-77018809D01*
X185135000Y-76923571D01*
X185182619Y-76875952D01*
X185277857Y-76828333D01*
X185373095Y-76828333D01*
X185515952Y-76875952D01*
X186087380Y-77447380D01*
X186087380Y-76828333D01*
%TO.C,D2*%
X124771904Y-88772380D02*
X124771904Y-87772380D01*
X125010000Y-87772380D01*
X125152857Y-87820000D01*
X125248095Y-87915238D01*
X125295714Y-88010476D01*
X125343333Y-88200952D01*
X125343333Y-88343809D01*
X125295714Y-88534285D01*
X125248095Y-88629523D01*
X125152857Y-88724761D01*
X125010000Y-88772380D01*
X124771904Y-88772380D01*
X125724285Y-87867619D02*
X125771904Y-87820000D01*
X125867142Y-87772380D01*
X126105238Y-87772380D01*
X126200476Y-87820000D01*
X126248095Y-87867619D01*
X126295714Y-87962857D01*
X126295714Y-88058095D01*
X126248095Y-88200952D01*
X125676666Y-88772380D01*
X126295714Y-88772380D01*
%TO.C,R10*%
X115687142Y-99612380D02*
X115353809Y-99136190D01*
X115115714Y-99612380D02*
X115115714Y-98612380D01*
X115496666Y-98612380D01*
X115591904Y-98660000D01*
X115639523Y-98707619D01*
X115687142Y-98802857D01*
X115687142Y-98945714D01*
X115639523Y-99040952D01*
X115591904Y-99088571D01*
X115496666Y-99136190D01*
X115115714Y-99136190D01*
X116639523Y-99612380D02*
X116068095Y-99612380D01*
X116353809Y-99612380D02*
X116353809Y-98612380D01*
X116258571Y-98755238D01*
X116163333Y-98850476D01*
X116068095Y-98898095D01*
X117258571Y-98612380D02*
X117353809Y-98612380D01*
X117449047Y-98660000D01*
X117496666Y-98707619D01*
X117544285Y-98802857D01*
X117591904Y-98993333D01*
X117591904Y-99231428D01*
X117544285Y-99421904D01*
X117496666Y-99517142D01*
X117449047Y-99564761D01*
X117353809Y-99612380D01*
X117258571Y-99612380D01*
X117163333Y-99564761D01*
X117115714Y-99517142D01*
X117068095Y-99421904D01*
X117020476Y-99231428D01*
X117020476Y-98993333D01*
X117068095Y-98802857D01*
X117115714Y-98707619D01*
X117163333Y-98660000D01*
X117258571Y-98612380D01*
%TO.C,JP10*%
X186672380Y-107339523D02*
X187386666Y-107339523D01*
X187529523Y-107387142D01*
X187624761Y-107482380D01*
X187672380Y-107625238D01*
X187672380Y-107720476D01*
X187672380Y-106863333D02*
X186672380Y-106863333D01*
X186672380Y-106482380D01*
X186720000Y-106387142D01*
X186767619Y-106339523D01*
X186862857Y-106291904D01*
X187005714Y-106291904D01*
X187100952Y-106339523D01*
X187148571Y-106387142D01*
X187196190Y-106482380D01*
X187196190Y-106863333D01*
X187672380Y-105339523D02*
X187672380Y-105910952D01*
X187672380Y-105625238D02*
X186672380Y-105625238D01*
X186815238Y-105720476D01*
X186910476Y-105815714D01*
X186958095Y-105910952D01*
X186672380Y-104720476D02*
X186672380Y-104625238D01*
X186720000Y-104530000D01*
X186767619Y-104482380D01*
X186862857Y-104434761D01*
X187053333Y-104387142D01*
X187291428Y-104387142D01*
X187481904Y-104434761D01*
X187577142Y-104482380D01*
X187624761Y-104530000D01*
X187672380Y-104625238D01*
X187672380Y-104720476D01*
X187624761Y-104815714D01*
X187577142Y-104863333D01*
X187481904Y-104910952D01*
X187291428Y-104958571D01*
X187053333Y-104958571D01*
X186862857Y-104910952D01*
X186767619Y-104863333D01*
X186720000Y-104815714D01*
X186672380Y-104720476D01*
%TO.C,TP3*%
X116848095Y-82144380D02*
X117419523Y-82144380D01*
X117133809Y-83144380D02*
X117133809Y-82144380D01*
X117752857Y-83144380D02*
X117752857Y-82144380D01*
X118133809Y-82144380D01*
X118229047Y-82192000D01*
X118276666Y-82239619D01*
X118324285Y-82334857D01*
X118324285Y-82477714D01*
X118276666Y-82572952D01*
X118229047Y-82620571D01*
X118133809Y-82668190D01*
X117752857Y-82668190D01*
X118657619Y-82144380D02*
X119276666Y-82144380D01*
X118943333Y-82525333D01*
X119086190Y-82525333D01*
X119181428Y-82572952D01*
X119229047Y-82620571D01*
X119276666Y-82715809D01*
X119276666Y-82953904D01*
X119229047Y-83049142D01*
X119181428Y-83096761D01*
X119086190Y-83144380D01*
X118800476Y-83144380D01*
X118705238Y-83096761D01*
X118657619Y-83049142D01*
%TO.C,L1*%
X111593333Y-101042380D02*
X111117142Y-101042380D01*
X111117142Y-100042380D01*
X112450476Y-101042380D02*
X111879047Y-101042380D01*
X112164761Y-101042380D02*
X112164761Y-100042380D01*
X112069523Y-100185238D01*
X111974285Y-100280476D01*
X111879047Y-100328095D01*
%TO.C,IC1*%
X160788809Y-105065380D02*
X160788809Y-104065380D01*
X161836428Y-104970142D02*
X161788809Y-105017761D01*
X161645952Y-105065380D01*
X161550714Y-105065380D01*
X161407857Y-105017761D01*
X161312619Y-104922523D01*
X161265000Y-104827285D01*
X161217380Y-104636809D01*
X161217380Y-104493952D01*
X161265000Y-104303476D01*
X161312619Y-104208238D01*
X161407857Y-104113000D01*
X161550714Y-104065380D01*
X161645952Y-104065380D01*
X161788809Y-104113000D01*
X161836428Y-104160619D01*
X162788809Y-105065380D02*
X162217380Y-105065380D01*
X162503095Y-105065380D02*
X162503095Y-104065380D01*
X162407857Y-104208238D01*
X162312619Y-104303476D01*
X162217380Y-104351095D01*
%TO.C,R5*%
X106003333Y-104492380D02*
X105670000Y-104016190D01*
X105431904Y-104492380D02*
X105431904Y-103492380D01*
X105812857Y-103492380D01*
X105908095Y-103540000D01*
X105955714Y-103587619D01*
X106003333Y-103682857D01*
X106003333Y-103825714D01*
X105955714Y-103920952D01*
X105908095Y-103968571D01*
X105812857Y-104016190D01*
X105431904Y-104016190D01*
X106908095Y-103492380D02*
X106431904Y-103492380D01*
X106384285Y-103968571D01*
X106431904Y-103920952D01*
X106527142Y-103873333D01*
X106765238Y-103873333D01*
X106860476Y-103920952D01*
X106908095Y-103968571D01*
X106955714Y-104063809D01*
X106955714Y-104301904D01*
X106908095Y-104397142D01*
X106860476Y-104444761D01*
X106765238Y-104492380D01*
X106527142Y-104492380D01*
X106431904Y-104444761D01*
X106384285Y-104397142D01*
%TO.C,C8*%
X91273333Y-131327142D02*
X91225714Y-131374761D01*
X91082857Y-131422380D01*
X90987619Y-131422380D01*
X90844761Y-131374761D01*
X90749523Y-131279523D01*
X90701904Y-131184285D01*
X90654285Y-130993809D01*
X90654285Y-130850952D01*
X90701904Y-130660476D01*
X90749523Y-130565238D01*
X90844761Y-130470000D01*
X90987619Y-130422380D01*
X91082857Y-130422380D01*
X91225714Y-130470000D01*
X91273333Y-130517619D01*
X91844761Y-130850952D02*
X91749523Y-130803333D01*
X91701904Y-130755714D01*
X91654285Y-130660476D01*
X91654285Y-130612857D01*
X91701904Y-130517619D01*
X91749523Y-130470000D01*
X91844761Y-130422380D01*
X92035238Y-130422380D01*
X92130476Y-130470000D01*
X92178095Y-130517619D01*
X92225714Y-130612857D01*
X92225714Y-130660476D01*
X92178095Y-130755714D01*
X92130476Y-130803333D01*
X92035238Y-130850952D01*
X91844761Y-130850952D01*
X91749523Y-130898571D01*
X91701904Y-130946190D01*
X91654285Y-131041428D01*
X91654285Y-131231904D01*
X91701904Y-131327142D01*
X91749523Y-131374761D01*
X91844761Y-131422380D01*
X92035238Y-131422380D01*
X92130476Y-131374761D01*
X92178095Y-131327142D01*
X92225714Y-131231904D01*
X92225714Y-131041428D01*
X92178095Y-130946190D01*
X92130476Y-130898571D01*
X92035238Y-130850952D01*
%TO.C,R8*%
X167983333Y-111042380D02*
X167650000Y-110566190D01*
X167411904Y-111042380D02*
X167411904Y-110042380D01*
X167792857Y-110042380D01*
X167888095Y-110090000D01*
X167935714Y-110137619D01*
X167983333Y-110232857D01*
X167983333Y-110375714D01*
X167935714Y-110470952D01*
X167888095Y-110518571D01*
X167792857Y-110566190D01*
X167411904Y-110566190D01*
X168554761Y-110470952D02*
X168459523Y-110423333D01*
X168411904Y-110375714D01*
X168364285Y-110280476D01*
X168364285Y-110232857D01*
X168411904Y-110137619D01*
X168459523Y-110090000D01*
X168554761Y-110042380D01*
X168745238Y-110042380D01*
X168840476Y-110090000D01*
X168888095Y-110137619D01*
X168935714Y-110232857D01*
X168935714Y-110280476D01*
X168888095Y-110375714D01*
X168840476Y-110423333D01*
X168745238Y-110470952D01*
X168554761Y-110470952D01*
X168459523Y-110518571D01*
X168411904Y-110566190D01*
X168364285Y-110661428D01*
X168364285Y-110851904D01*
X168411904Y-110947142D01*
X168459523Y-110994761D01*
X168554761Y-111042380D01*
X168745238Y-111042380D01*
X168840476Y-110994761D01*
X168888095Y-110947142D01*
X168935714Y-110851904D01*
X168935714Y-110661428D01*
X168888095Y-110566190D01*
X168840476Y-110518571D01*
X168745238Y-110470952D01*
%TO.C,R2*%
X93262380Y-109386666D02*
X92786190Y-109720000D01*
X93262380Y-109958095D02*
X92262380Y-109958095D01*
X92262380Y-109577142D01*
X92310000Y-109481904D01*
X92357619Y-109434285D01*
X92452857Y-109386666D01*
X92595714Y-109386666D01*
X92690952Y-109434285D01*
X92738571Y-109481904D01*
X92786190Y-109577142D01*
X92786190Y-109958095D01*
X92357619Y-109005714D02*
X92310000Y-108958095D01*
X92262380Y-108862857D01*
X92262380Y-108624761D01*
X92310000Y-108529523D01*
X92357619Y-108481904D01*
X92452857Y-108434285D01*
X92548095Y-108434285D01*
X92690952Y-108481904D01*
X93262380Y-109053333D01*
X93262380Y-108434285D01*
D12*
%TO.C,D3*%
X141280000Y-86775000D02*
X143200000Y-86775000D01*
X141280000Y-84090000D02*
X141280000Y-86775000D01*
X143200000Y-86775000D02*
X143200000Y-84090000D01*
%TO.C,TP2*%
X127480000Y-85090000D02*
G75*
G03*
X127480000Y-85090000I-1750000J0D01*
G01*
%TO.C,R18*%
X140613641Y-95630000D02*
X140306359Y-95630000D01*
X140613641Y-94870000D02*
X140306359Y-94870000D01*
%TO.C,C2*%
X102234420Y-102360000D02*
X102515580Y-102360000D01*
X102234420Y-103380000D02*
X102515580Y-103380000D01*
%TO.C,R20*%
X142620000Y-90016359D02*
X142620000Y-90323641D01*
X141860000Y-90016359D02*
X141860000Y-90323641D01*
%TO.C,R25*%
X185040000Y-89053641D02*
X185040000Y-88746359D01*
X185800000Y-89053641D02*
X185800000Y-88746359D01*
%TO.C,R7*%
X165646263Y-100245000D02*
X167093737Y-100245000D01*
X165646263Y-102955000D02*
X167093737Y-102955000D01*
D13*
%TO.C,IC3*%
X92090000Y-125930000D02*
X91640000Y-126380000D01*
X91640000Y-126380000D02*
X90790000Y-126380000D01*
X90790000Y-125080000D02*
X92090000Y-125080000D01*
X92090000Y-125080000D02*
X92090000Y-125930000D01*
X90790000Y-126380000D02*
X90790000Y-125080000D01*
X92190000Y-126380000D02*
G75*
G03*
X92190000Y-126380000I-100000J0D01*
G01*
D12*
%TO.C,JP4*%
X185720000Y-82680000D02*
X185120000Y-82680000D01*
X186420000Y-80580000D02*
X186420000Y-81980000D01*
X184420000Y-81980000D02*
X184420000Y-80580000D01*
X185120000Y-79880000D02*
X185720000Y-79880000D01*
X186420000Y-80580000D02*
G75*
G03*
X185720000Y-79880000I-699999J1D01*
G01*
X184420000Y-81980000D02*
G75*
G03*
X185120000Y-82680000I699999J-1D01*
G01*
X185720000Y-82680000D02*
G75*
G03*
X186420000Y-81980000I1J699999D01*
G01*
X185120000Y-79880000D02*
G75*
G03*
X184420000Y-80580000I-1J-699999D01*
G01*
%TO.C,L2*%
X94070000Y-37432064D02*
X94070000Y-36227936D01*
X91350000Y-37432064D02*
X91350000Y-36227936D01*
%TO.C,JP5*%
X93930000Y-128540000D02*
X95330000Y-128540000D01*
X95330000Y-130540000D02*
X93930000Y-130540000D01*
X96030000Y-129240000D02*
X96030000Y-129840000D01*
X93230000Y-129840000D02*
X93230000Y-129240000D01*
X95330000Y-130540000D02*
G75*
G03*
X96030000Y-129840000I1J699999D01*
G01*
X96030000Y-129240000D02*
G75*
G03*
X95330000Y-128540000I-699999J1D01*
G01*
X93230000Y-129840000D02*
G75*
G03*
X93930000Y-130540000I699999J-1D01*
G01*
X93930000Y-128540000D02*
G75*
G03*
X93230000Y-129240000I-1J-699999D01*
G01*
%TO.C,TP1*%
X119860000Y-107950000D02*
G75*
G03*
X119860000Y-107950000I-1750000J0D01*
G01*
D14*
%TO.C,U2*%
X119920000Y-63485000D02*
X123920000Y-63485000D01*
X119920000Y-58435000D02*
X123920000Y-58435000D01*
D13*
X117575000Y-58455000D02*
G75*
G03*
X117575000Y-58455000I-100000J0D01*
G01*
D12*
%TO.C,R4*%
X155830000Y-109066359D02*
X155830000Y-109373641D01*
X156590000Y-109066359D02*
X156590000Y-109373641D01*
%TO.C,J7*%
X88750000Y-94300000D02*
X89150000Y-94300000D01*
X91120000Y-94300000D02*
X93100000Y-94300000D01*
X89150000Y-101820000D02*
X88750000Y-101820000D01*
X93100000Y-94300000D02*
X93100000Y-94720000D01*
X91120000Y-101820000D02*
X93100000Y-101820000D01*
X93330000Y-96300000D02*
X93780000Y-96300000D01*
X93780000Y-96750000D02*
X93780000Y-96300000D01*
X93100000Y-101820000D02*
X93100000Y-101400000D01*
D13*
%TO.C,IC2*%
X112085000Y-100510000D02*
X111435000Y-100510000D01*
X113585000Y-100660000D02*
X112435000Y-100660000D01*
X111435000Y-100510000D02*
X111435000Y-97610000D01*
X112085000Y-97610000D02*
X112085000Y-100510000D01*
X111435000Y-97610000D02*
X112085000Y-97610000D01*
D12*
%TO.C,JP8*%
X89870000Y-83690000D02*
X90470000Y-83690000D01*
X89170000Y-85790000D02*
X89170000Y-84390000D01*
X90470000Y-86490000D02*
X89870000Y-86490000D01*
X91170000Y-84390000D02*
X91170000Y-85790000D01*
X89870000Y-83690000D02*
G75*
G03*
X89170000Y-84390000I-1J-699999D01*
G01*
X89170000Y-85790000D02*
G75*
G03*
X89870000Y-86490000I699999J-1D01*
G01*
X91170000Y-84390000D02*
G75*
G03*
X90470000Y-83690000I-699999J1D01*
G01*
X90470000Y-86490000D02*
G75*
G03*
X91170000Y-85790000I1J699999D01*
G01*
%TO.C,JP2*%
X185340000Y-95520000D02*
X186740000Y-95520000D01*
X184640000Y-96820000D02*
X184640000Y-96220000D01*
X187440000Y-96220000D02*
X187440000Y-96820000D01*
X186740000Y-97520000D02*
X185340000Y-97520000D01*
X186740000Y-97520000D02*
G75*
G03*
X187440000Y-96820000I1J699999D01*
G01*
X187440000Y-96220000D02*
G75*
G03*
X186740000Y-95520000I-699999J1D01*
G01*
X185340000Y-95520000D02*
G75*
G03*
X184640000Y-96220000I-1J-699999D01*
G01*
X184640000Y-96820000D02*
G75*
G03*
X185340000Y-97520000I699999J-1D01*
G01*
%TO.C,C10*%
X90930000Y-49670580D02*
X90930000Y-49389420D01*
X91950000Y-49670580D02*
X91950000Y-49389420D01*
%TO.C,C6*%
X119915000Y-103131252D02*
X119915000Y-102608748D01*
X121385000Y-103131252D02*
X121385000Y-102608748D01*
%TO.C,BT1*%
X182150000Y-35280000D02*
X104870000Y-35280000D01*
X187260000Y-39720000D02*
X184760000Y-39720000D01*
X182150000Y-56160000D02*
X104870000Y-56160000D01*
X182150000Y-49160000D02*
X182150000Y-56160000D01*
X101010000Y-40970000D02*
X101010000Y-38470000D01*
X104870000Y-35280000D02*
X104870000Y-42280000D01*
X99760000Y-39720000D02*
X102260000Y-39720000D01*
X104870000Y-42280000D02*
X100510000Y-42280000D01*
X104870000Y-56160000D02*
X104870000Y-49160000D01*
X182150000Y-42280000D02*
X182150000Y-35300000D01*
%TO.C,JP1*%
X184670000Y-100630000D02*
X184670000Y-100030000D01*
X187470000Y-100030000D02*
X187470000Y-100630000D01*
X186770000Y-101330000D02*
X185370000Y-101330000D01*
X185370000Y-99330000D02*
X186770000Y-99330000D01*
X184670000Y-100630000D02*
G75*
G03*
X185370000Y-101330000I699999J-1D01*
G01*
X185370000Y-99330000D02*
G75*
G03*
X184670000Y-100030000I-1J-699999D01*
G01*
X186770000Y-101330000D02*
G75*
G03*
X187470000Y-100630000I1J699999D01*
G01*
X187470000Y-100030000D02*
G75*
G03*
X186770000Y-99330000I-699999J1D01*
G01*
%TO.C,J4*%
X181595000Y-126940000D02*
X100255000Y-126940000D01*
X184195000Y-126940000D02*
X184195000Y-128270000D01*
X182865000Y-126940000D02*
X184195000Y-126940000D01*
X100255000Y-126940000D02*
X100255000Y-129600000D01*
X181595000Y-129600000D02*
X100255000Y-129600000D01*
X181595000Y-126940000D02*
X181595000Y-129600000D01*
%TO.C,C14*%
X91178748Y-61495000D02*
X91701252Y-61495000D01*
X91178748Y-62965000D02*
X91701252Y-62965000D01*
%TO.C,R23*%
X90550000Y-41303641D02*
X90550000Y-40996359D01*
X89790000Y-41303641D02*
X89790000Y-40996359D01*
%TO.C,LED1*%
X89755000Y-104450000D02*
X89755000Y-106370000D01*
X89755000Y-106370000D02*
X92440000Y-106370000D01*
X92440000Y-104450000D02*
X89755000Y-104450000D01*
%TO.C,J3*%
X181595000Y-116805000D02*
X181595000Y-119465000D01*
X184195000Y-119465000D02*
X182865000Y-119465000D01*
X181595000Y-119465000D02*
X100255000Y-119465000D01*
X100255000Y-116805000D02*
X100255000Y-119465000D01*
X184195000Y-118135000D02*
X184195000Y-119465000D01*
X181595000Y-116805000D02*
X100255000Y-116805000D01*
%TO.C,C5*%
X105428748Y-98325000D02*
X105951252Y-98325000D01*
X105428748Y-99795000D02*
X105951252Y-99795000D01*
%TO.C,R19*%
X142620000Y-92556359D02*
X142620000Y-92863641D01*
X141860000Y-92556359D02*
X141860000Y-92863641D01*
%TO.C,R9*%
X171296359Y-113410000D02*
X171603641Y-113410000D01*
X171296359Y-112650000D02*
X171603641Y-112650000D01*
%TO.C,C1*%
X92075580Y-112270000D02*
X91794420Y-112270000D01*
X92075580Y-111250000D02*
X91794420Y-111250000D01*
%TO.C,Q2*%
X172720000Y-104430000D02*
X173370000Y-104430000D01*
X172720000Y-101310000D02*
X173370000Y-101310000D01*
X172720000Y-101310000D02*
X171045000Y-101310000D01*
X172720000Y-104430000D02*
X172070000Y-104430000D01*
%TO.C,C12*%
X91178748Y-56415000D02*
X91701252Y-56415000D01*
X91178748Y-57885000D02*
X91701252Y-57885000D01*
%TO.C,R15*%
X138810000Y-87783641D02*
X138810000Y-87476359D01*
X138050000Y-87783641D02*
X138050000Y-87476359D01*
%TO.C,D6*%
X184460000Y-112030000D02*
X184460000Y-114715000D01*
X184460000Y-114715000D02*
X186380000Y-114715000D01*
X186380000Y-114715000D02*
X186380000Y-112030000D01*
%TO.C,R11*%
X120043641Y-98170000D02*
X119736359Y-98170000D01*
X120043641Y-97410000D02*
X119736359Y-97410000D01*
%TO.C,J1*%
X181595000Y-65980000D02*
X100255000Y-65980000D01*
X181595000Y-65980000D02*
X181595000Y-68640000D01*
X182865000Y-65980000D02*
X184195000Y-65980000D01*
X181595000Y-68640000D02*
X100255000Y-68640000D01*
X100255000Y-65980000D02*
X100255000Y-68640000D01*
X184195000Y-65980000D02*
X184195000Y-67310000D01*
%TO.C,TP5*%
X131290000Y-60960000D02*
G75*
G03*
X131290000Y-60960000I-1750000J0D01*
G01*
%TO.C,R3*%
X156873641Y-105030000D02*
X156566359Y-105030000D01*
X156873641Y-105790000D02*
X156566359Y-105790000D01*
%TO.C,C4*%
X102234420Y-99570000D02*
X102515580Y-99570000D01*
X102234420Y-98550000D02*
X102515580Y-98550000D01*
%TO.C,R1*%
X94360000Y-105563641D02*
X94360000Y-105256359D01*
X93600000Y-105563641D02*
X93600000Y-105256359D01*
D15*
%TO.C,IC4*%
X94270000Y-41680000D02*
G75*
G03*
X94270000Y-41680000I-125000J0D01*
G01*
D12*
%TO.C,R24*%
X93090000Y-41303641D02*
X93090000Y-40996359D01*
X92330000Y-41303641D02*
X92330000Y-40996359D01*
D14*
%TO.C,U1*%
X106140000Y-110500000D02*
X102140000Y-110500000D01*
X106140000Y-105400000D02*
X102140000Y-105400000D01*
D13*
X108685000Y-110455000D02*
G75*
G03*
X108685000Y-110455000I-100000J0D01*
G01*
D12*
%TO.C,R26*%
X185800000Y-109373641D02*
X185800000Y-109066359D01*
X185040000Y-109373641D02*
X185040000Y-109066359D01*
%TO.C,U3*%
X97790000Y-53360000D02*
X94340000Y-53360000D01*
X97790000Y-63480000D02*
X99740000Y-63480000D01*
X97790000Y-63480000D02*
X95840000Y-63480000D01*
X97790000Y-53360000D02*
X99740000Y-53360000D01*
D16*
%TO.C,D4*%
X117070000Y-90170000D02*
G75*
G03*
X117070000Y-90170000I-50000J0D01*
G01*
D12*
%TO.C,C11*%
X94740000Y-49670580D02*
X94740000Y-49389420D01*
X95760000Y-49670580D02*
X95760000Y-49389420D01*
%TO.C,R16*%
X138810000Y-90016359D02*
X138810000Y-90323641D01*
X138050000Y-90016359D02*
X138050000Y-90323641D01*
%TO.C,R22*%
X95096359Y-123570000D02*
X95403641Y-123570000D01*
X95096359Y-122810000D02*
X95403641Y-122810000D01*
%TO.C,TP4*%
X103350000Y-36830000D02*
G75*
G03*
X103350000Y-36830000I-1750000J0D01*
G01*
%TO.C,J5*%
X163770000Y-59690000D02*
X163770000Y-58360000D01*
X163770000Y-63560000D02*
X166430000Y-63560000D01*
X163770000Y-58360000D02*
X165100000Y-58360000D01*
X163770000Y-60960000D02*
X163770000Y-63560000D01*
X166430000Y-60960000D02*
X166430000Y-63560000D01*
X163770000Y-60960000D02*
X166430000Y-60960000D01*
%TO.C,R14*%
X138050000Y-85243641D02*
X138050000Y-84936359D01*
X138810000Y-85243641D02*
X138810000Y-84936359D01*
%TO.C,R21*%
X95096359Y-125350000D02*
X95403641Y-125350000D01*
X95096359Y-126110000D02*
X95403641Y-126110000D01*
%TO.C,R6*%
X164946359Y-113410000D02*
X165253641Y-113410000D01*
X164946359Y-112650000D02*
X165253641Y-112650000D01*
%TO.C,JP6*%
X92140000Y-46720000D02*
X90740000Y-46720000D01*
X90740000Y-44720000D02*
X92140000Y-44720000D01*
X92840000Y-45420000D02*
X92840000Y-46020000D01*
X90040000Y-46020000D02*
X90040000Y-45420000D01*
X92840000Y-45420000D02*
G75*
G03*
X92140000Y-44720000I-699999J1D01*
G01*
X90040000Y-46020000D02*
G75*
G03*
X90740000Y-46720000I699999J-1D01*
G01*
X90740000Y-44720000D02*
G75*
G03*
X90040000Y-45420000I-1J-699999D01*
G01*
X92140000Y-46720000D02*
G75*
G03*
X92840000Y-46020000I1J699999D01*
G01*
%TO.C,J6*%
X180340000Y-61020000D02*
X179010000Y-61020000D01*
X181610000Y-61020000D02*
X181610000Y-58360000D01*
X179010000Y-61020000D02*
X179010000Y-59690000D01*
X181610000Y-58360000D02*
X184210000Y-58360000D01*
X181610000Y-61020000D02*
X184210000Y-61020000D01*
X184210000Y-61020000D02*
X184210000Y-58360000D01*
%TO.C,TP6*%
X107160000Y-60960000D02*
G75*
G03*
X107160000Y-60960000I-1750000J0D01*
G01*
%TO.C,D5*%
X184460000Y-91710000D02*
X184460000Y-94395000D01*
X184460000Y-94395000D02*
X186380000Y-94395000D01*
X186380000Y-94395000D02*
X186380000Y-91710000D01*
%TO.C,R17*%
X138810000Y-92863641D02*
X138810000Y-92556359D01*
X138050000Y-92863641D02*
X138050000Y-92556359D01*
%TO.C,R13*%
X115926359Y-96140000D02*
X116233641Y-96140000D01*
X115926359Y-96900000D02*
X116233641Y-96900000D01*
%TO.C,LED2*%
X92440000Y-108260000D02*
X89755000Y-108260000D01*
X89755000Y-108260000D02*
X89755000Y-110180000D01*
X89755000Y-110180000D02*
X92440000Y-110180000D01*
%TO.C,JP3*%
X95950000Y-91170000D02*
X94550000Y-91170000D01*
X94550000Y-89170000D02*
X95950000Y-89170000D01*
X96650000Y-89870000D02*
X96650000Y-90470000D01*
X93850000Y-90470000D02*
X93850000Y-89870000D01*
X94550000Y-89170000D02*
G75*
G03*
X93850000Y-89870000I-1J-699999D01*
G01*
X96650000Y-89870000D02*
G75*
G03*
X95950000Y-89170000I-699999J1D01*
G01*
X95950000Y-91170000D02*
G75*
G03*
X96650000Y-90470000I1J699999D01*
G01*
X93850000Y-90470000D02*
G75*
G03*
X94550000Y-91170000I699999J-1D01*
G01*
%TO.C,D1*%
X109510000Y-106950000D02*
X109510000Y-108950000D01*
X109510000Y-106950000D02*
X113410000Y-106950000D01*
X109510000Y-108950000D02*
X113410000Y-108950000D01*
%TO.C,Q3*%
X151770000Y-89770000D02*
X151770000Y-88510000D01*
X148010000Y-89770000D02*
X151770000Y-89770000D01*
X151770000Y-82950000D02*
X151770000Y-84210000D01*
X145760000Y-82950000D02*
X151770000Y-82950000D01*
%TO.C,R12*%
X116233641Y-97410000D02*
X115926359Y-97410000D01*
X116233641Y-98170000D02*
X115926359Y-98170000D01*
%TO.C,Q1*%
X168910000Y-109510000D02*
X169560000Y-109510000D01*
X168910000Y-106390000D02*
X169560000Y-106390000D01*
X168910000Y-106390000D02*
X167235000Y-106390000D01*
X168910000Y-109510000D02*
X168260000Y-109510000D01*
%TO.C,C9*%
X96160000Y-36722164D02*
X96160000Y-36937836D01*
X96880000Y-36722164D02*
X96880000Y-36937836D01*
%TO.C,JP9*%
X184420000Y-85790000D02*
X184420000Y-84390000D01*
X185720000Y-86490000D02*
X185120000Y-86490000D01*
X185120000Y-83690000D02*
X185720000Y-83690000D01*
X186420000Y-84390000D02*
X186420000Y-85790000D01*
X184420000Y-85790000D02*
G75*
G03*
X185120000Y-86490000I699999J-1D01*
G01*
X185120000Y-83690000D02*
G75*
G03*
X184420000Y-84390000I-1J-699999D01*
G01*
X186420000Y-84390000D02*
G75*
G03*
X185720000Y-83690000I-699999J1D01*
G01*
X185720000Y-86490000D02*
G75*
G03*
X186420000Y-85790000I1J699999D01*
G01*
%TO.C,JP7*%
X92980000Y-85790000D02*
X92980000Y-84390000D01*
X93680000Y-83690000D02*
X94280000Y-83690000D01*
X94280000Y-86490000D02*
X93680000Y-86490000D01*
X94980000Y-84390000D02*
X94980000Y-85790000D01*
X94980000Y-84390000D02*
G75*
G03*
X94280000Y-83690000I-699999J1D01*
G01*
X94280000Y-86490000D02*
G75*
G03*
X94980000Y-85790000I1J699999D01*
G01*
X92980000Y-85790000D02*
G75*
G03*
X93680000Y-86490000I699999J-1D01*
G01*
X93680000Y-83690000D02*
G75*
G03*
X92980000Y-84390000I-1J-699999D01*
G01*
%TO.C,C7*%
X116330000Y-103505580D02*
X116330000Y-103224420D01*
X117350000Y-103505580D02*
X117350000Y-103224420D01*
%TO.C,J2*%
X181595000Y-78825000D02*
X100255000Y-78825000D01*
X181595000Y-76165000D02*
X100255000Y-76165000D01*
X184195000Y-78825000D02*
X182865000Y-78825000D01*
X181595000Y-76165000D02*
X181595000Y-78825000D01*
X100255000Y-76165000D02*
X100255000Y-78825000D01*
X184195000Y-77495000D02*
X184195000Y-78825000D01*
%TO.C,D2*%
X124010000Y-91020000D02*
X126560000Y-91020000D01*
X124010000Y-89320000D02*
X124010000Y-91020000D01*
X124010000Y-89320000D02*
X126560000Y-89320000D01*
%TO.C,R10*%
X116176359Y-99950000D02*
X116483641Y-99950000D01*
X116176359Y-100710000D02*
X116483641Y-100710000D01*
%TO.C,JP10*%
X186420000Y-105330000D02*
X186420000Y-106730000D01*
X184420000Y-106730000D02*
X184420000Y-105330000D01*
X185720000Y-107430000D02*
X185120000Y-107430000D01*
X185120000Y-104630000D02*
X185720000Y-104630000D01*
X184420000Y-106730000D02*
G75*
G03*
X185120000Y-107430000I699999J-1D01*
G01*
X186420000Y-105330000D02*
G75*
G03*
X185720000Y-104630000I-699999J1D01*
G01*
X185720000Y-107430000D02*
G75*
G03*
X186420000Y-106730000I1J699999D01*
G01*
X185120000Y-104630000D02*
G75*
G03*
X184420000Y-105330000I-1J-699999D01*
G01*
%TO.C,TP3*%
X119860000Y-85090000D02*
G75*
G03*
X119860000Y-85090000I-1750000J0D01*
G01*
%TO.C,L1*%
X111157936Y-104230000D02*
X112362064Y-104230000D01*
X111157936Y-101510000D02*
X112362064Y-101510000D01*
D14*
%TO.C,IC1*%
X160560000Y-110475000D02*
X164560000Y-110475000D01*
X160560000Y-105425000D02*
X164560000Y-105425000D01*
D13*
X158215000Y-105445000D02*
G75*
G03*
X158215000Y-105445000I-100000J0D01*
G01*
D12*
%TO.C,R5*%
X106323641Y-102490000D02*
X106016359Y-102490000D01*
X106323641Y-103250000D02*
X106016359Y-103250000D01*
%TO.C,C8*%
X91580580Y-130050000D02*
X91299420Y-130050000D01*
X91580580Y-129030000D02*
X91299420Y-129030000D01*
%TO.C,R8*%
X167996359Y-111380000D02*
X168303641Y-111380000D01*
X167996359Y-112140000D02*
X168303641Y-112140000D01*
%TO.C,R2*%
X93600000Y-109373641D02*
X93600000Y-109066359D01*
X94360000Y-109373641D02*
X94360000Y-109066359D01*
%TD*%
M02*
