<?xml version="1.0" encoding="utf-8"?>
<!--/798771/789259/2.49/17/3/Integrated Circuit/-->
<!DOCTYPE curve SYSTEM "eagle.dtd">
<eagle version="7.7.0">
<drawing>
<settings>
<setting alwaysvectorfont="no"/>
<setting verticaltext="up"/>
</settings>
<grid distance="0.1" unitdist="inch" unit="inch" style="lines" multiple="1" display="no" altdistance="0.01" altunitdist="inch" altunit="inch"/>
<layers>
<layer number="1" name="Top" color="4" fill="1" visible="yes" active="yes"/>
<layer number="16" name="Bottom" color="1" fill="1" visible="yes" active="yes"/>
<layer number="17" name="Pads" color="2" fill="1" visible="yes" active="yes"/>
<layer number="18" name="Vias" color="2" fill="1" visible="yes" active="yes"/>
<layer number="19" name="Unrouted" color="6" fill="1" visible="yes" active="yes"/>
<layer number="20" name="Dimension" color="15" fill="1" visible="yes" active="yes"/>
<layer number="21" name="tPlace" color="7" fill="1" visible="yes" active="yes"/>
<layer number="22" name="bPlace" color="7" fill="1" visible="yes" active="yes"/>
<layer number="23" name="tOrigins" color="15" fill="1" visible="yes" active="yes"/>
<layer number="24" name="bOrigins" color="15" fill="1" visible="yes" active="yes"/>
<layer number="25" name="tNames" color="7" fill="1" visible="yes" active="yes"/>
<layer number="26" name="bNames" color="7" fill="1" visible="yes" active="yes"/>
<layer number="27" name="tValues" color="7" fill="1" visible="yes" active="yes"/>
<layer number="28" name="bValues" color="7" fill="1" visible="yes" active="yes"/>
<layer number="29" name="tStop" color="7" fill="3" visible="no" active="yes"/>
<layer number="30" name="bStop" color="7" fill="6" visible="no" active="yes"/>
<layer number="31" name="tCream" color="7" fill="4" visible="no" active="yes"/>
<layer number="32" name="bCream" color="7" fill="5" visible="no" active="yes"/>
<layer number="33" name="tFinish" color="6" fill="3" visible="no" active="yes"/>
<layer number="34" name="bFinish" color="6" fill="6" visible="no" active="yes"/>
<layer number="35" name="tGlue" color="7" fill="4" visible="no" active="yes"/>
<layer number="36" name="bGlue" color="7" fill="5" visible="no" active="yes"/>
<layer number="37" name="tTest" color="7" fill="1" visible="no" active="yes"/>
<layer number="38" name="bTest" color="7" fill="1" visible="no" active="yes"/>
<layer number="39" name="tKeepout" color="4" fill="11" visible="yes" active="yes"/>
<layer number="40" name="bKeepout" color="1" fill="11" visible="yes" active="yes"/>
<layer number="41" name="tRestrict" color="4" fill="10" visible="yes" active="yes"/>
<layer number="42" name="bRestrict" color="1" fill="10" visible="yes" active="yes"/>
<layer number="43" name="vRestrict" color="2" fill="10" visible="yes" active="yes"/>
<layer number="44" name="Drills" color="7" fill="1" visible="no" active="yes"/>
<layer number="45" name="Holes" color="7" fill="1" visible="no" active="yes"/>
<layer number="46" name="Milling" color="3" fill="1" visible="no" active="yes"/>
<layer number="47" name="Measures" color="7" fill="1" visible="no" active="yes"/>
<layer number="48" name="Document" color="7" fill="1" visible="yes" active="yes"/>
<layer number="49" name="Reference" color="7" fill="1" visible="yes" active="yes"/>
<layer number="51" name="tDocu" color="7" fill="1" visible="yes" active="yes"/>
<layer number="52" name="bDocu" color="7" fill="1" visible="yes" active="yes"/>
<layer number="90" name="Modules" color="5" fill="1" visible="yes" active="yes"/>
<layer number="91" name="Nets" color="2" fill="1" visible="yes" active="yes"/>
<layer number="92" name="Busses" color="1" fill="1" visible="yes" active="yes"/>
<layer number="93" name="Pins" color="2" fill="1" visible="no" active="yes"/>
<layer number="94" name="Symbols" color="4" fill="1" visible="yes" active="yes"/>
<layer number="95" name="Names" color="7" fill="1" visible="yes" active="yes"/>
<layer number="96" name="Values" color="7" fill="1" visible="yes" active="yes"/>
<layer number="97" name="Info" color="7" fill="1" visible="yes" active="yes"/>
<layer number="98" name="Guide" color="6" fill="1" visible="yes" active="yes"/>
</layers>
<library>
<description>&lt;Proximity Sensors 4-Ch, 28-bit, capacitance to digital converter 16-WQFN -40 to 125&lt;/b&gt;&lt;p&gt;
&lt;author&gt;Created by SamacSys&lt;/author&gt;</description>
<packages>
<package name="QFN50P400X400X80-17N">
<description>&lt;b&gt;RGH0016A&lt;/b&gt;&lt;br&gt;
</description>
<smd name="1" x="-1.95" y="0.75" dx="0.85" dy="0.3" layer="1" rot="R0"/>
<smd name="2" x="-1.95" y="0.25" dx="0.85" dy="0.3" layer="1" rot="R0"/>
<smd name="3" x="-1.95" y="-0.25" dx="0.85" dy="0.3" layer="1" rot="R0"/>
<smd name="4" x="-1.95" y="-0.75" dx="0.85" dy="0.3" layer="1" rot="R0"/>
<smd name="5" x="-0.75" y="-1.95" dx="0.85" dy="0.3" layer="1" rot="R90"/>
<smd name="6" x="-0.25" y="-1.95" dx="0.85" dy="0.3" layer="1" rot="R90"/>
<smd name="7" x="0.25" y="-1.95" dx="0.85" dy="0.3" layer="1" rot="R90"/>
<smd name="8" x="0.75" y="-1.95" dx="0.85" dy="0.3" layer="1" rot="R90"/>
<smd name="9" x="1.95" y="-0.75" dx="0.85" dy="0.3" layer="1" rot="R0"/>
<smd name="10" x="1.95" y="-0.25" dx="0.85" dy="0.3" layer="1" rot="R0"/>
<smd name="11" x="1.95" y="0.25" dx="0.85" dy="0.3" layer="1" rot="R0"/>
<smd name="12" x="1.95" y="0.75" dx="0.85" dy="0.3" layer="1" rot="R0"/>
<smd name="13" x="0.75" y="1.95" dx="0.85" dy="0.3" layer="1" rot="R90"/>
<smd name="14" x="0.25" y="1.95" dx="0.85" dy="0.3" layer="1" rot="R90"/>
<smd name="15" x="-0.25" y="1.95" dx="0.85" dy="0.3" layer="1" rot="R90"/>
<smd name="16" x="-0.75" y="1.95" dx="0.85" dy="0.3" layer="1" rot="R90"/>
<smd name="17" x="0" y="0" dx="2.7" dy="2.7" layer="1" rot="R90"/>
<text x="0" y="0" align="center" size="1.27" layer="25" rot="R0" >&gt;NAME</text>
<text x="0" y="0" align="center" size="1.27" layer="27" rot="R0" >&gt;VALUE</text>
<wire x1="-2.625" y1="2.625" x2="2.625" y2="2.625" width="0.05" layer="51"/>
<wire x1="2.625" y1="2.625" x2="2.625" y2="-2.625" width="0.05" layer="51"/>
<wire x1="2.625" y1="-2.625" x2="-2.625" y2="-2.625" width="0.05" layer="51"/>
<wire x1="-2.625" y1="-2.625" x2="-2.625" y2="2.625" width="0.05" layer="51"/>
<wire x1="-2" y1="2" x2="2" y2="2" width="0.1" layer="51"/>
<wire x1="2" y1="2" x2="2" y2="-2" width="0.1" layer="51"/>
<wire x1="2" y1="-2" x2="-2" y2="-2" width="0.1" layer="51"/>
<wire x1="-2" y1="-2" x2="-2" y2="2" width="0.1" layer="51"/>
<wire x1="-2" y1="1.5" x2="-1.5" y2="2" width="0.1" layer="51"/>
<circle x="-2.375" y="1.5" radius="0.125" width="0.25" layer="25"/>
</package>
</packages>
<symbols>
<symbol name="FDC2214RGHR">
<wire x1="5.08" y1="12.7" x2="25.4" y2="12.7" width="0.254" layer="94"/>
<wire x1="25.4" y1="-20.32" x2="25.4" y2="12.7" width="0.254" layer="94"/>
<wire x1="25.4" y1="-20.32" x2="5.08" y2="-20.32" width="0.254" layer="94"/>
<wire x1="5.08" y1="12.7" x2="5.08" y2="-20.32" width="0.254" layer="94"/>
<text x="26.67" y="17.78" align="center-left" size="1.778" layer="95">&gt;NAME</text>
<text x="26.67" y="15.24" align="center-left" size="1.778" layer="96">&gt;VALUE</text>
<pin name="SCL" x="0" y="0" length="middle" direction="io" rot="R0"/>
<pin name="SDA" x="0" y="-2.54" length="middle" direction="io" rot="R0"/>
<pin name="CLKIN" x="0" y="-5.08" length="middle" direction="io" rot="R0"/>
<pin name="ADDR" x="0" y="-7.62" length="middle" direction="io" rot="R0"/>
<pin name="INTB" x="10.16" y="-25.4" length="middle" direction="io" rot="R90"/>
<pin name="SD" x="12.7" y="-25.4" length="middle" direction="io" rot="R90"/>
<pin name="VDD" x="15.24" y="-25.4" length="middle" direction="io" rot="R90"/>
<pin name="GND_1" x="17.78" y="-25.4" length="middle" direction="io" rot="R90"/>
<pin name="IN1B" x="30.48" y="0" length="middle" direction="io" rot="R180"/>
<pin name="IN1A" x="30.48" y="-2.54" length="middle" direction="io" rot="R180"/>
<pin name="IN0B" x="30.48" y="-5.08" length="middle" direction="io" rot="R180"/>
<pin name="IN0A" x="30.48" y="-7.62" length="middle" direction="io" rot="R180"/>
<pin name="GND_2" x="10.16" y="17.78" length="middle" direction="io" rot="R270"/>
<pin name="IN3B" x="12.7" y="17.78" length="middle" direction="io" rot="R270"/>
<pin name="IN3A" x="15.24" y="17.78" length="middle" direction="io" rot="R270"/>
<pin name="IN2B" x="17.78" y="17.78" length="middle" direction="io" rot="R270"/>
<pin name="IN2A" x="20.32" y="17.78" length="middle" direction="io" rot="R270"/>
</symbol>
</symbols>
<devicesets>
<deviceset name="FDC2214RGHR" prefix="IC">
<description>&lt;b&gt;Proximity Sensors 4-Ch, 28-bit, capacitance to digital converter 16-WQFN -40 to 125&lt;/b&gt;&lt;p&gt;
Source: &lt;a href="https://www.ti.com/lit/ds/symlink/fdc2214.pdf?ts=1640752815986&amp;ref_url=https%3A%2F%2Fwww.ti.com%2Fstore%2Fti%2Fen%2Fp%2Fproduct%2F%3Fp%3DFDC2214RGHR"&gt; Datasheet &lt;/a&gt;</description>
<gates>
<gate name="G$1" symbol="FDC2214RGHR" x="0" y="0"/>
</gates>
<devices>
<device name="" package="QFN50P400X400X80-17N">
<connects>
<connect gate="G$1" pin="SCL" pad="1"/>
<connect gate="G$1" pin="SDA" pad="2"/>
<connect gate="G$1" pin="CLKIN" pad="3"/>
<connect gate="G$1" pin="ADDR" pad="4"/>
<connect gate="G$1" pin="INTB" pad="5"/>
<connect gate="G$1" pin="SD" pad="6"/>
<connect gate="G$1" pin="VDD" pad="7"/>
<connect gate="G$1" pin="GND_1" pad="8"/>
<connect gate="G$1" pin="IN0A" pad="9"/>
<connect gate="G$1" pin="IN0B" pad="10"/>
<connect gate="G$1" pin="IN1A" pad="11"/>
<connect gate="G$1" pin="IN1B" pad="12"/>
<connect gate="G$1" pin="IN2A" pad="13"/>
<connect gate="G$1" pin="IN2B" pad="14"/>
<connect gate="G$1" pin="IN3A" pad="15"/>
<connect gate="G$1" pin="IN3B" pad="16"/>
<connect gate="G$1" pin="GND_2" pad="17"/>
</connects>
<technologies>
<technology name="">
<attribute name="Manufacturer_Name" value="Texas Instruments" constant="no"/>
<attribute name="Manufacturer_Part_Number" value="FDC2214RGHR" constant="no"/>
<attribute name="Mouser_Part_Number" value="595-FDC2214RGHR" constant="no"/>
<attribute name="Mouser_Price-Stock" value="https://www.mouser.co.uk/ProductDetail/Texas-Instruments/FDC2214RGHR?qs=GJ%2F2ZGcr5uPBUC9HQa0OnA%3D%3D" constant="no"/>
<attribute name="Arrow_Part_Number" value="FDC2214RGHR" constant="no"/>
<attribute name="Arrow_Price-Stock" value="https://www.arrow.com/en/products/fdc2214rghr/texas-instruments?region=nac" constant="no"/>
<attribute name="Description" value="Proximity Sensors 4-Ch, 28-bit, capacitance to digital converter 16-WQFN -40 to 125" constant="no"/>
<attribute name="Height" value="0.8mm" constant="no"/>
</technology>
</technologies>
</device>
</devices>
</deviceset>
</devicesets>
</library>
</drawing>
</eagle>
