Designator,Val,Package,Mid X,Mid Y,Rotation,Layer
A1,ALS-PT19-315C/L177/TR8,XDCR_ALS-PT19-315C_L177_TR8,91.44,-35.56,0.0,top
BT1,1042,BatteryHolder_Keystone_1042_1x18650,143.51,-45.72,0.0,top
C1,10u,C_0603_1608Metric,91.935,-111.76,180.0,top
C2,10u,C_0603_1608Metric,102.375,-102.87,0.0,top
C3,100n,C_0603_1608Metric,102.375,-99.06,0.0,top
C4,22u,C_0805_2012Metric,105.69,-99.06,0.0,top
C5,22u,C_0805_2012Metric,120.65,-102.87,90.0,top
C6,100n,C_0603_1608Metric,116.84,-103.365,90.0,top
C7,100n,C_0603_1608Metric,91.44,-129.54,180.0,top
C8,22u,C_0805_2012Metric,95.25,-35.56,90.0,top
C9,22u,C_0805_2012Metric,91.44,-49.53,90.0,top
C10,3.3n,C_0603_1608Metric,95.25,-49.53,90.0,top
C11,22u,C_0805_2012Metric,91.44,-57.15,0.0,top
D1,BZT52C2V7,D_SOD-123,111.76,-107.95,0.0,top
D2,B5819WS,D_SOD-123,125.51,-90.17,0.0,top
D3,NCD0805R1,LED_0805_2012Metric,142.24,-85.09,90.0,top
D4,ULCE0505A015FR,D_0402_1005Metric,118.11,-90.17,0.0,top
D5,NCD0805R1,LED_0805_2012Metric,185.42,-101.6,90.0,top
D6,NCD0805R1,LED_0805_2012Metric,90.17,-71.12,90.0,top
IC1,FP6291LR-G1,SOT95P280X145-6N,111.76,-99.06,180.0,top
IC2,TMP103FYFFT,BGA4C40P2X2_76X76X62,91.44,-125.73,180.0,top
J1,Conn_01x33_Female,PinHeader_1x33_P2.54mm_Vertical,182.865,-67.31,-90.0,top
J2,Conn_01x33_Female,PinSocket_1x33_P2.54mm_Vertical,182.865,-77.495,-90.0,top
J3,Conn_01x33_Female,PinSocket_1x33_P2.54mm_Vertical,182.865,-118.135,-90.0,top
J4,Conn_01x33_Female,PinHeader_1x33_P2.54mm_Vertical,182.865,-128.27,-90.0,top
J5,Conn_01x02_Male,PinHeader_1x02_P2.54mm_Vertical,165.1,-59.69,0.0,top
J6,Conn_01x02_Female,PinHeader_1x02_P2.54mm_Vertical,180.34,-59.69,90.0,top
J7,USB_B_Micro,USB_Micro-B_Amphenol_10118194_Horizontal,91.44,-98.06,-90.0,top
JP1,SolderJumper_2_Open,SolderJumper-2_P1.3mm_Open_RoundedPad1.0x1.5mm,95.25,-90.17,0.0,top
JP2,SolderJumper_2_Bridged,SolderJumper-2_P1.3mm_Bridged_RoundedPad1.0x1.5mm,185.42,-81.28,-90.0,top
JP3,SolderJumper_2_Bridged,SolderJumper-2_P1.3mm_Bridged_RoundedPad1.0x1.5mm,94.63,-129.54,0.0,top
JP4,SolderJumper_2_Bridged,SolderJumper-2_P1.3mm_Bridged_RoundedPad1.0x1.5mm,91.44,-39.37,90.0,top
JP5,SolderJumper_2_Bridged,SolderJumper-2_P1.3mm_Bridged_RoundedPad1.0x1.5mm,93.98,-85.09,90.0,top
JP6,SolderJumper_2_Bridged,SolderJumper-2_P1.3mm_Bridged_RoundedPad1.0x1.5mm,90.17,-85.09,90.0,top
JP7,SolderJumper_2_Bridged,SolderJumper-2_P1.3mm_Bridged_RoundedPad1.0x1.5mm,185.42,-93.98,-90.0,top
JP8,SolderJumper_2_Bridged,SolderJumper-2_P1.3mm_Bridged_RoundedPad1.0x1.5mm,92.71,-74.93,-90.0,top
L1,4.7u,L_0603_1608Metric,111.76,-102.87,0.0,top
LED1,NCD0805R1,LED_0805_2012Metric,91.44,-105.41,0.0,top
LED2,NCD0805R1,LED_0805_2012Metric,91.44,-109.22,0.0,top
Q1,X0202MN,SOT-223,149.86,-86.36,0.0,top
R1,1.2k,R_0402_1005Metric,93.98,-105.41,90.0,top
R2,1.2k,R_0402_1005Metric,93.98,-109.22,90.0,top
R3,1.2k,R_0402_1005Metric,106.17,-102.87,180.0,top
R4,47k,R_0402_1005Metric,116.33,-100.33,0.0,top
R5,47k,R_0402_1005Metric,119.89,-97.79,180.0,top
R6,47k,R_0402_1005Metric,116.08,-97.79,180.0,top
R7,47k,R_0402_1005Metric,116.08,-96.52,0.0,top
R8,1.2k,R_0402_1005Metric,138.43,-85.09,90.0,top
R9,2.2k,R_0402_1005Metric,138.43,-87.63,90.0,top
R10,1.2k,R_0402_1005Metric,138.43,-90.17,-90.0,top
R11,2.2k,R_0402_1005Metric,138.43,-92.71,90.0,top
R12,2.2k,R_0402_1005Metric,140.46,-95.25,180.0,top
R13,2.2k,R_0402_1005Metric,142.24,-92.71,-90.0,top
R14,2.2k,R_0402_1005Metric,142.24,-90.17,-90.0,top
R15,1.2k,R_0402_1005Metric,95.25,-125.73,0.0,top
R16,1.2k,R_0402_1005Metric,95.25,-123.19,0.0,top
R17,47k,R_0402_1005Metric,95.25,-38.86,-90.0,top
R18,1.2k,R_0402_1005Metric,185.42,-97.28,90.0,top
R19,1.2k,R_0402_1005Metric,92.71,-71.12,180.0,top
TP1,TestPoint,TestPoint_Pad_D3.0mm,118.11,-107.95,0.0,top
TP2,TestPoint,TestPoint_Pad_D3.0mm,125.73,-85.09,0.0,top
TP3,TestPoint,TestPoint_Pad_D3.0mm,118.11,-85.09,0.0,top
TP4,TestPoint,TestPoint_Pad_D3.0mm,101.6,-36.83,0.0,top
TP5,TestPoint,TestPoint_Pad_D3.0mm,109.22,-59.69,0.0,top
U1,TP4056-42-ESOP8,SOP127P600X175-9N,104.14,-107.95,180.0,top
U2,CAT24C256,SOIC127P600X175-8N,121.92,-60.96,0.0,top
U3,CH340G,SOIC-16_3.9x9.9mm_P1.27mm,97.79,-58.42,0.0,top
