(module "SOT95P230X110-3N" (layer F.Cu)
  (descr "SOT23 (TO-236AB)")
  (tags "MOSFET (N-Channel)")
  (attr smd)
  (fp_text reference Q** (at 0 0) (layer F.SilkS)
    (effects (font (size 1.27 1.27) (thickness 0.254)))
  )
  (fp_text user %R (at 0 0) (layer F.Fab)
    (effects (font (size 1.27 1.27) (thickness 0.254)))
  )
  (fp_text value "SOT95P230X110-3N" (at 0 0) (layer F.SilkS) hide
    (effects (font (size 1.27 1.27) (thickness 0.254)))
  )
  (fp_line (start -1.875 -1.75) (end 1.875 -1.75) (layer F.CrtYd) (width 0.05))
  (fp_line (start 1.875 -1.75) (end 1.875 1.75) (layer F.CrtYd) (width 0.05))
  (fp_line (start 1.875 1.75) (end -1.875 1.75) (layer F.CrtYd) (width 0.05))
  (fp_line (start -1.875 1.75) (end -1.875 -1.75) (layer F.CrtYd) (width 0.05))
  (fp_line (start -0.65 -1.45) (end 0.65 -1.45) (layer F.Fab) (width 0.1))
  (fp_line (start 0.65 -1.45) (end 0.65 1.45) (layer F.Fab) (width 0.1))
  (fp_line (start 0.65 1.45) (end -0.65 1.45) (layer F.Fab) (width 0.1))
  (fp_line (start -0.65 1.45) (end -0.65 -1.45) (layer F.Fab) (width 0.1))
  (fp_line (start -0.65 -0.5) (end 0.3 -1.45) (layer F.Fab) (width 0.1))
  (fp_line (start -0.225 -1.45) (end 0.225 -1.45) (layer F.SilkS) (width 0.2))
  (fp_line (start 0.225 -1.45) (end 0.225 1.45) (layer F.SilkS) (width 0.2))
  (fp_line (start 0.225 1.45) (end -0.225 1.45) (layer F.SilkS) (width 0.2))
  (fp_line (start -0.225 1.45) (end -0.225 -1.45) (layer F.SilkS) (width 0.2))
  (fp_line (start -1.625 -1.5) (end -0.575 -1.5) (layer F.SilkS) (width 0.2))
  (pad 1 smd rect (at -1.1 -0.95 90) (size 0.6 1.05) (layers F.Cu F.Paste F.Mask))
  (pad 2 smd rect (at -1.1 0.95 90) (size 0.6 1.05) (layers F.Cu F.Paste F.Mask))
  (pad 3 smd rect (at 1.1 0 90) (size 0.6 1.05) (layers F.Cu F.Paste F.Mask))
  (model 2N7002.stp
    (at (xyz -0.083070862011647 -0.05236220641399 -0.045669290024465))
    (scale (xyz 1 1 1))
    (rotate (xyz -90 0 -90))
  )
)
