!PADS-POWERPCB-V9.5-METRIC! DESIGN DATABASE ASCII FILE 1.0
*PARTDECAL*  ITEMS

BGA4C40P2X2_76X76X62 M 0 0 5 4 1 0 2
CLOSED 5 0.05 0 20
-1.395 1.395
1.395 1.395
1.395 -1.395
-1.395 -1.395
-1.395 1.395
CLOSED 5 0.1 0 27
-0.38 0.38
0.38 0.38
0.38 -0.38
-0.38 -0.38
-0.38 0.38
OPEN 2 0.1 0 27
-0.38 0.182
-0.182 0.38
OPEN 6 0.2 0 26
-0.2 0.65
0.65 0.65
0.65 -0.65
-0.65 -0.65
-0.65 0.2
-0.2 0.65
CIRCLE 2 0.2 0 26
-0.55 0.65
-0.75 0.65
VALUE 0 0 0 1 1.27 0.127 N LEFT DOWN
Regular <Romansim Stroke Font>
Ref.Des.
VALUE 0 0 0 1 1.27 0.127 N LEFT UP
Regular <Romansim Stroke Font>
Part Type
T-0.2 0.2 -0.2 0.2 A1
T0.2 0.2 0.2 0.2 A2
T-0.2 -0.2 -0.2 -0.2 B1
T0.2 -0.2 0.2 -0.2 B2
PAD 0 3
-2 0.2 R 0
-1 0 R
0 0 R

*END*     OF ASCII OUTPUT FILE
