PCBNEW-LibModule-V1  2022-02-20 19:34:41
# encoding utf-8
Units mm
$INDEX
SOP50P490X110-10N
$EndINDEX
$MODULE SOP50P490X110-10N
Po 0 0 0 15 621297d1 00000000 ~~
Li SOP50P490X110-10N
Cd MS10(MSOP)_4
Kw Integrated Circuit
Sc 0
At SMD
AR 
Op 0 0 0
T0 0 0 1.27 1.27 0 0.254 N V 21 N "IC**"
T1 0 0 1.27 1.27 0 0.254 N I 21 N "SOP50P490X110-10N"
DS -3.175 -1.801 3.175 -1.801 0.05 24
DS 3.175 -1.801 3.175 1.801 0.05 24
DS 3.175 1.801 -3.175 1.801 0.05 24
DS -3.175 1.801 -3.175 -1.801 0.05 24
DS -1.5 -1.5 1.5 -1.5 0.1 24
DS 1.5 -1.5 1.5 1.5 0.1 24
DS 1.5 1.5 -1.5 1.5 0.1 24
DS -1.5 1.5 -1.5 -1.5 0.1 24
DS -1.5 -1 -1 -1.5 0.1 24
DS -1.15 -1.5 1.15 -1.5 0.2 21
DS 1.15 -1.5 1.15 1.5 0.2 21
DS 1.15 1.5 -1.15 1.5 0.2 21
DS -1.15 1.5 -1.15 -1.5 0.2 21
DS -2.925 -1.5 -1.5 -1.5 0.2 21
$PAD
Po -2.212 -1
Sh "1" R 0.3 1.425 0 0 900
At SMD N 00888000
Ne 0 ""
$EndPAD
$PAD
Po -2.212 -0.5
Sh "2" R 0.3 1.425 0 0 900
At SMD N 00888000
Ne 0 ""
$EndPAD
$PAD
Po -2.212 0
Sh "3" R 0.3 1.425 0 0 900
At SMD N 00888000
Ne 0 ""
$EndPAD
$PAD
Po -2.212 0.5
Sh "4" R 0.3 1.425 0 0 900
At SMD N 00888000
Ne 0 ""
$EndPAD
$PAD
Po -2.212 1
Sh "5" R 0.3 1.425 0 0 900
At SMD N 00888000
Ne 0 ""
$EndPAD
$PAD
Po 2.212 1
Sh "6" R 0.3 1.425 0 0 900
At SMD N 00888000
Ne 0 ""
$EndPAD
$PAD
Po 2.212 0.5
Sh "7" R 0.3 1.425 0 0 900
At SMD N 00888000
Ne 0 ""
$EndPAD
$PAD
Po 2.212 0
Sh "8" R 0.3 1.425 0 0 900
At SMD N 00888000
Ne 0 ""
$EndPAD
$PAD
Po 2.212 -0.5
Sh "9" R 0.3 1.425 0 0 900
At SMD N 00888000
Ne 0 ""
$EndPAD
$PAD
Po 2.212 -1
Sh "10" R 0.3 1.425 0 0 900
At SMD N 00888000
Ne 0 ""
$EndPAD
$EndMODULE SOP50P490X110-10N
$EndLIBRARY
